<svg xmlns="http://www.w3.org/2000/svg" width="108" height="108" viewBox="0 0 108 108">
  <path fill="currentColor" fill-rule="evenodd" d="M28.1160654,78.7317996 C19.7745978,78.6769198 13,71.8760046 13,63.5714563 C13,56.3548735 17.984025,50.3225852 24.7687852,48.788712 C24.6584688,48.1825005 24.6030993,47.5639193 24.6030993,46.935186 C24.6030993,41.2500445 29.2339424,36.6248462 34.9261286,36.6248462 C36.8167491,36.6248462 38.6289194,37.1288061 40.2099759,38.0731752 C44.5422673,32.3511303 51.2270861,29 58.5227741,29 C69.9250385,29 79.536095,37.3890336 81.2413357,48.4433647 C89.1332814,48.9743942 95.3919753,55.5567452 95.3919753,63.5714584 C95.3919753,71.848725 88.6497749,78.6491118 80.3624063,78.7306389 L28.1160654,78.7317996 Z M34.9261286,40.9559822 C31.6251136,40.9559822 28.939519,43.638197 28.939519,46.9351881 C28.939519,47.8757501 29.1532698,48.7774012 29.5748435,49.6148649 C29.9058988,50.2725714 29.8797481,51.053254 29.5053936,51.6874857 C29.1310392,52.3216113 28.4597202,52.722369 27.7231836,52.7514482 C21.898871,52.9811152 17.3364198,57.7338372 17.3364198,63.5714584 C17.3364198,69.5035049 22.1785788,74.3615427 28.1303561,74.400668 L80.3410191,74.3996112 C86.2394389,74.3414549 91.0555534,69.4839433 91.0555534,63.5714606 C91.0555534,57.5989159 86.1906325,52.7399252 80.2109048,52.7399252 C79.9880497,52.7399252 79.7458194,52.7495468 79.4486446,52.7701674 C78.8733491,52.8102433 78.3051459,52.6191689 77.8708686,52.2397724 C77.4365913,51.8602698 77.1715992,51.3235297 77.1346508,50.7484071 C76.5073725,40.9816788 68.332122,33.3311381 58.5227719,33.3311381 C51.9444578,33.3311381 45.9777502,36.6896703 42.5617616,42.3151742 C42.2159906,42.8846923 41.6269335,43.2635604 40.9647189,43.3425495 C40.3028229,43.4205857 39.6408186,43.1916571 39.1705469,42.7193145 C38.0382708,41.5821775 36.530901,40.9559822 34.9261286,40.9559822 Z"/>
</svg>
