<svg xmlns="http://www.w3.org/2000/svg" width="108" height="108" viewBox="0 0 108 108">
  <path fill="currentColor" fill-rule="evenodd" d="M39.8310606,24.75 C38.795303,24.75 37.8335606,25.20996 36.9487121,26.141625 C32.2345455,31.092825 29.4912879,50.593125 29.7340152,54.632625 L32.1014394,78.070125 C32.3322652,82.013475 35.4454545,85.168725 39.3516667,85.651875 L35.9484848,89.5308 C35.6643939,89.7212325 35.4187727,89.9849025 35.2826439,90.301275 L30.5477955,95.721225 C29.9056288,96.4565775 29.9559394,97.572825 30.6957576,98.21145 C31.0331136,98.4985575 31.4681061,98.650905 31.8794697,98.650905 C32.3766288,98.650905 32.8619697,98.4311775 33.2111364,98.0268825 L37.8365152,92.7534825 L69.7584848,92.7534825 L74.3838636,98.0268825 C74.7330606,98.4311775 75.2184091,98.650905 75.7155303,98.650905 C76.1239091,98.650905 76.5234091,98.498565 76.8607576,98.21145 C77.6005758,97.57278 77.6893939,96.4566 77.0471894,95.721225 L68.2790076,85.722225 C72.8659015,85.5317925 76.008553,79.38825 76.2691591,78.5445 C76.3017114,78.44196 76.3313038,78.3247725 76.3431417,78.216375 L78.7105659,57.450375 C78.7164841,57.4064302 78.7105659,57.3507675 78.7105659,57.3038925 C78.9591417,50.6740425 76.0354144,30.8461425 71.4248083,26.1023925 C70.5577629,25.2117675 69.6255659,24.7488675 68.6135205,24.7488675 L39.8310606,24.75 Z M39.8310606,28.265625 L68.5363636,28.265625 C71.4393939,29.26755 75.4581061,48.489375 75.1592424,57.123375 L72.8273485,77.596125 C72.3124318,78.738675 70.0219697,82.207425 68.0569697,82.207425 L40.3880303,82.207425 C37.8400758,82.207425 35.8040909,80.355825 35.6531818,77.812875 L33.2857576,54.340125 C32.9484015,48.6624 37.0854545,29.206125 39.8316667,28.265625 L39.8310606,28.265625 Z M45.0097727,31.78125 C44.462303,31.78125 43.6337121,31.939455 42.8287879,32.771475 C39.955303,35.745075 38.437197,46.962975 38.5762879,50.018475 C38.6177174,50.9589 39.3989394,51.70305 40.3518939,51.70305 L68.0920455,51.70305 C69.0449242,51.70305 69.8262121,50.9589075 69.8676515,50.018475 C70.0067348,46.96575 68.4886364,35.748225 65.6151515,32.771475 C64.8102273,31.939425 63.9816667,31.78125 63.4341667,31.78125 L45.0097727,31.78125 Z M45.3057045,35.296875 L63.1382803,35.296875 C64.3782045,36.6504 65.9821439,43.930875 66.2810076,48.187875 L42.1628258,48.187875 C42.4617121,43.931025 44.0685833,36.647625 45.305553,35.296875 L45.3057045,35.296875 Z M43.2341894,57.343125 C40.0944167,57.343125 37.540553,59.87145 37.540553,62.98275 C37.540553,66.09405 40.0944167,68.622375 43.2341894,68.622375 C46.3769167,68.622375 48.9337348,66.09405 48.9337348,62.98275 C48.9337348,59.87145 46.3769167,57.343125 43.2341894,57.343125 Z M65.3190379,57.343125 C62.1792652,57.343125 59.622447,59.87145 59.622447,62.98275 C59.622447,66.09405 62.1792652,68.622375 65.3190379,68.622375 C68.4617652,68.622375 71.0156288,66.09405 71.0156288,62.98275 C71.0156288,59.87145 68.4617652,57.343125 65.3190379,57.343125 Z M43.2341894,60.85875 C44.4179015,60.85875 45.3825985,61.810875 45.3825985,62.98275 C45.3825985,64.154625 44.4179015,65.10675 43.2341894,65.10675 C42.0534318,65.10675 41.0916894,64.154625 41.0916894,62.98275 C41.0916894,61.810875 42.0534318,60.85875 43.2341894,60.85875 Z M65.3190379,60.85875 C66.50275,60.85875 67.4644924,61.810875 67.4644924,62.98275 C67.4644924,64.154625 66.50275,65.10675 65.3190379,65.10675 C64.1353258,65.10675 63.1735833,64.154625 63.1735833,62.98275 C63.1735833,61.810875 64.1353258,60.85875 65.3190379,60.85875 Z M41.6447955,70.48875 C40.66525,70.48875 39.8691894,71.27685 39.8691894,72.2466 C39.8691894,73.219275 40.66525,74.00445 41.6447955,74.00445 L65.3190379,74.00445 C66.2985833,74.00445 67.0946439,73.219275 67.0946439,72.2466 C67.0946439,71.27685 66.2985833,70.48875 65.3190379,70.48875 L41.6447955,70.48875 Z M41.6447955,76.348125 C40.66525,76.348125 39.8691894,77.1333 39.8691894,78.105975 C39.8691894,79.07865 40.66525,79.863825 41.6447955,79.863825 L65.3190379,79.863825 C66.2985833,79.863825 67.0946439,79.07865 67.0946439,78.105975 C67.0946439,77.1333 66.2985833,76.348125 65.3190379,76.348125 L41.6447955,76.348125 Z M43.8642652,85.723125 L63.6915379,85.723125 C63.7625606,85.884255 63.8661364,86.02488 63.9874621,86.16258 L66.6892803,89.23878 L40.9051894,89.23878 L43.6070076,86.16258 C43.7253788,86.0248875 43.7934394,85.8842625 43.8644621,85.723125 L43.8642652,85.723125 Z"/>
</svg>
