<svg xmlns="http://www.w3.org/2000/svg" width="108" height="108" viewBox="0 0 108 108">
  <g fill="none" fill-rule="evenodd">
    <path fill="currentColor" d="M54,93 C75.5391052,93 93,75.5391052 93,54 C93,32.4608948 75.5391052,15 54,15 C32.4608948,15 15,32.4608948 15,54 C15,75.5391052 32.4608948,93 54,93 Z M54,102 C27.490332,102 6,80.509668 6,54 C6,27.490332 27.490332,6 54,6 C80.509668,6 102,27.490332 102,54 C102,80.509668 80.509668,102 54,102 Z"/>
    <rect width="48" height="9" x="30" y="50" fill="currentColor"/>
  </g>
</svg>
