<svg xmlns="http://www.w3.org/2000/svg" width="108" height="108" viewBox="0 0 108 108">
  <path fill="currentColor" fill-rule="evenodd" d="M54,101.5 C27.7664744,101.5 6.5,80.2335256 6.5,54 C6.5,27.7664744 27.7664744,6.5 54,6.5 C80.2335256,6.5 101.5,27.7664744 101.5,54 C101.5,80.2335256 80.2335256,101.5 54,101.5 Z M75.9203102,34.2806999 L46.9289322,63.2720779 L32.0796898,48.4228355 L25.7157288,54.7867966 L46.9289322,76 L82.2842712,40.6446609 L75.9203102,34.2806999 Z"/>
</svg>
