<svg xmlns="http://www.w3.org/2000/svg" xmlns:xlink="http://www.w3.org/1999/xlink" width="252" height="36" viewBox="0 0 252 36">
    <defs>
        <path id="a" d="M.41.376h15.014v14.207H.411z"/>
        <path id="c" d="M.006.376h14.546v14.207H.006z"/>
        <path id="e" d="M0 .43h8.696v9.802H0z"/>
        <path id="g" d="M.355.127H32.31v9.595H.355z"/>
        <path id="i" d="M0 34.028h252V0H0z"/>
    </defs>
    <g fill="none" fill-rule="evenodd" transform="translate(0 .5)">
        <path fill="#FEFEFE" d="M99.422 33.009l4.69-4.204c.465-.408.859-.78 1.185-1.114a6.73 6.73 0 0 0 .787-.955c.204-.301.347-.595.437-.884.095-.283.138-.592.138-.918 0-.713-.21-1.264-.635-1.652-.42-.391-.94-.584-1.565-.584-.62 0-1.17.177-1.642.532-.474.357-.975.896-1.51 1.623l-1.692-1.397c.325-.48.652-.908.993-1.288.335-.38.703-.7 1.1-.953.394-.256.83-.454 1.302-.593a5.934 5.934 0 0 1 1.625-.205c.662 0 1.268.102 1.822.309a4.14 4.14 0 0 1 1.417.872c.397.376.706.829.926 1.356.22.53.331 1.114.331 1.757v.04c0 .562-.072 1.072-.215 1.529-.143.459-.358.9-.65 1.325a8.314 8.314 0 0 1-1.112 1.282c-.445.434-.968.91-1.565 1.431l-2.802 2.462h6.479V35h-9.844v-1.991z"/>
        <g transform="translate(110.25 19.444)">
            <mask id="b" fill="#fff">
                <use xlink:href="#a"/>
            </mask>
            <path fill="#FEFEFE" d="M7.937 12.367c.707 0 1.357-.128 1.95-.384a4.63 4.63 0 0 0 1.521-1.04c.424-.438.753-.952.989-1.539.242-.59.36-1.217.36-1.886V7.48c0-.667-.118-1.297-.36-1.892a4.625 4.625 0 0 0-.998-1.552 4.85 4.85 0 0 0-3.5-1.443c-.712 0-1.36.129-1.952.384-.59.253-1.1.602-1.52 1.04-.424.436-.755.95-.992 1.54-.24.589-.36 1.216-.36 1.884v.04c0 .666.12 1.298.36 1.891a4.7 4.7 0 0 0 .999 1.553 4.82 4.82 0 0 0 1.544 1.049c.597.26 1.25.393 1.959.393m-.039 2.216c-1.11 0-2.123-.185-3.037-.558a7.217 7.217 0 0 1-2.358-1.522 6.977 6.977 0 0 1-1.54-2.248A6.873 6.873 0 0 1 .41 7.518V7.48c0-.968.185-1.882.552-2.74a7.01 7.01 0 0 1 1.56-2.255A7.576 7.576 0 0 1 4.904.945C5.817.566 6.83.375 7.937.375c1.107 0 2.12.188 3.037.56.914.37 1.7.88 2.356 1.519a6.932 6.932 0 0 1 1.539 2.248c.372.858.555 1.77.555 2.738v.04c0 .968-.183 1.88-.555 2.734a6.877 6.877 0 0 1-1.558 2.258 7.508 7.508 0 0 1-2.38 1.542c-.914.379-1.926.568-3.033.568" mask="url(#b)"/>
        </g>
        <path fill="#FEFEFE" d="M126.984 33.009l4.69-4.204c.465-.408.861-.78 1.186-1.114.325-.335.586-.653.788-.955.201-.301.346-.595.436-.884.09-.283.138-.592.138-.918 0-.713-.213-1.264-.633-1.652-.42-.391-.945-.584-1.565-.584a2.67 2.67 0 0 0-1.645.532c-.474.357-.977.896-1.505 1.623l-1.695-1.397c.325-.48.656-.908.993-1.288.335-.38.704-.7 1.101-.953a4.905 4.905 0 0 1 1.301-.593 5.924 5.924 0 0 1 1.626-.205c.66 0 1.266.102 1.816.309a4.104 4.104 0 0 1 1.42.872c.398.376.704.829.925 1.356.22.53.33 1.114.33 1.757v.04a5.1 5.1 0 0 1-.212 1.529c-.142.459-.361.9-.655 1.325a8.176 8.176 0 0 1-1.106 1.282c-.45.434-.97.91-1.568 1.431l-2.8 2.462h6.478V35h-9.844v-1.991z"/>
        <g transform="translate(137.813 19.444)">
            <mask id="d" fill="#fff">
                <use xlink:href="#c"/>
            </mask>
            <path fill="#FEFEFE" d="M7.303 12.367c.686 0 1.315-.128 1.886-.384a4.486 4.486 0 0 0 1.474-1.04c.41-.438.728-.952.961-1.539.233-.59.345-1.217.345-1.886V7.48c0-.667-.112-1.297-.345-1.892a4.78 4.78 0 0 0-.969-1.552 4.695 4.695 0 0 0-1.495-1.05 4.567 4.567 0 0 0-1.898-.393c-.687 0-1.317.129-1.89.384A4.433 4.433 0 0 0 3.9 4.017c-.41.436-.728.95-.96 1.54a5.095 5.095 0 0 0-.348 1.884v.04c0 .666.116 1.298.348 1.891a4.72 4.72 0 0 0 .968 1.553 4.7 4.7 0 0 0 1.494 1.049c.582.26 1.211.393 1.901.393m-.041 2.216c-1.074 0-2.055-.185-2.94-.558a7.017 7.017 0 0 1-2.285-1.522 6.83 6.83 0 0 1-1.489-2.248 7.007 7.007 0 0 1-.542-2.737V7.48c0-.968.183-1.882.542-2.74a6.916 6.916 0 0 1 1.508-2.255A7.295 7.295 0 0 1 4.36.945C5.25.566 6.228.375 7.303.375c1.072 0 2.049.188 2.936.56.89.37 1.65.88 2.289 1.519a7.063 7.063 0 0 1 1.49 2.248c.355.858.534 1.77.534 2.738v.04c0 .968-.18 1.88-.534 2.734a6.93 6.93 0 0 1-1.511 2.258 7.268 7.268 0 0 1-2.305 1.542c-.886.379-1.869.568-2.94.568" mask="url(#d)"/>
        </g>
        <path fill="#FEFEFE" d="M125.345 17.44v-.45c.153-.03.33-.057.505-.068v-2.73a4.082 4.082 0 0 1-.505-.069v-.452h1.76v.452c-.15.031-.33.057-.504.07v2.652h.747c.012-.136.04-.298.066-.464h.555v1.059h-2.624zm-2.002-2.45a5.737 5.737 0 0 1-.178-.59h-.005c-.05.186-.104.406-.184.617l-.336.901h1.05l-.347-.929zm.291 2.45v-.45c.12-.024.276-.052.408-.06l-.167-.449h-1.421l-.162.449c.134.008.29.036.411.06v.45h-1.465v-.45c.092-.03.206-.052.303-.057l1.19-3.262h.92l1.212 3.262c.102.005.215.027.309.057v.45h-1.538zm-2.714-1.455v1.28a3.895 3.895 0 0 1-1.345.234c-1.23 0-1.961-.707-1.961-1.854 0-1.202.832-2.027 2.163-2.027.363 0 .728.05 1.087.139v1.012h-.58a4.611 4.611 0 0 1-.068-.455 2.001 2.001 0 0 0-.48-.056c-.757 0-1.304.464-1.304 1.317 0 .8.448 1.27 1.242 1.27.184 0 .346-.024.495-.069v-.785a3.538 3.538 0 0 1-.495-.073v-.453h1.572v.461a4.702 4.702 0 0 1-.326.059zm-3.875-1.793v1.804c0 .997-.573 1.504-1.612 1.504-1.232 0-1.508-.645-1.508-1.365v-1.943a2.426 2.426 0 0 1-.364-.062v-.459h1.527v.46c-.13.032-.28.05-.413.061v1.9c0 .473.156.808.803.808.578 0 .825-.235.825-.878v-1.83a2.665 2.665 0 0 1-.413-.062v-.459h1.511v.46c-.11.027-.23.05-.356.061zm-4.351.543c-.027-.175-.055-.323-.065-.465h-.604v2.652c.173.01.353.038.503.068v.45h-1.756v-.45c.152-.03.33-.057.503-.068V14.27h-.594c-.01.142-.043.29-.07.465h-.555v-1.064h3.194v1.064h-.556zm-4.421-.492c-.105 0-.215.003-.291.015v1.091c.054.003.151.01.267.01.454 0 .728-.222.728-.574 0-.365-.224-.542-.704-.542zm.766 3.197l-.952-1.554h-.105v1.036c.111.01.237.028.355.063v.455h-1.608v-.45c.151-.03.329-.057.502-.068v-2.73a3.994 3.994 0 0 1-.502-.069v-.452h.453c.15 0 .69-.019 1.172-.019.859 0 1.415.287 1.415 1.06 0 .524-.369.908-.918 1.023.07.087.138.183.195.27l.599.911c.112.017.25.038.384.063v.46h-.99zm-4.418-3.173c-.537 0-1.035.411-1.035 1.256 0 .8.326 1.322 1.024 1.322.51 0 1.05-.38 1.05-1.286 0-.837-.367-1.292-1.039-1.292zm-.063 3.233c-1.19 0-1.773-.728-1.773-1.896 0-1.245.86-1.993 1.906-1.993 1.038 0 1.773.603 1.773 1.891 0 1.247-.846 1.998-1.906 1.998zm-3.622-3.257c-.092 0-.173 0-.261.003v1.256c.074.013.15.019.22.019.455-.006.774-.252.774-.659 0-.38-.22-.619-.733-.619zm-.012 1.88c-.07 0-.158 0-.249-.012v.811c.173.01.351.038.503.068v.45h-1.756v-.45c.15-.03.329-.057.5-.068v-2.73a3.983 3.983 0 0 1-.5-.069v-.452h.45c.187 0 .694-.019 1.1-.019.95 0 1.475.427 1.475 1.166 0 .73-.577 1.305-1.523 1.305zM87.61 13.611c-3.642 1.334-5.907 4.845-5.907 10.258v8.214s.744-5.28 5.906-6.802v-11.67z"/>
        <path fill="#FEFEFE" d="M89.55 25.975c-2.031.39-5.004 1.957-5.878 4.164 4.357-5.096 13.248-.171 13.644-9.756.123-3.034.137-6.772.137-6.772-4.645.252-7.903 1.443-7.903 1.443v10.921zM88.594 29.167s-4.525.357-4.91 2.857c-.306 1.955 4.91 2.004 4.91 2.004v-4.861z"/>
        <g transform="translate(0 12.639)">
            <mask id="f" fill="#fff">
                <use xlink:href="#e"/>
            </mask>
            <path fill="#FEFEFE" d="M7.443 7.394c-.554.541-1.132.888-1.737 1.043a3 3 0 0 1-.746.094c-.14 0-.28-.01-.415-.024-.71-.085-1.33-.394-1.86-.926-.644-.628-.963-1.379-.963-2.257 0-.868.32-1.618.962-2.254.615-.625 1.375-.938 2.276-.938.88 0 1.707.375 2.483 1.124L8.696 2.07C7.564.978 6.32.431 4.96.431c-1.366 0-2.538.485-3.516 1.451C.48 2.832 0 3.982 0 5.332c0 1.36.48 2.513 1.444 3.463.97.958 2.143 1.437 3.516 1.437 1.33 0 2.465-.448 3.407-1.34.111-.096.22-.194.33-.299L7.442 7.394z" mask="url(#f)"/>
        </g>
        <path fill="#FEFEFE" d="M31.5 23.333h-1.797v-6.152l-2.287 6.152H25.74l-2.287-6.177v6.177h-1.796v-9.722h2.391l2.525 6.815 2.537-6.815H31.5zM37.716 16.48c0-.329-.13-.592-.391-.79a1.405 1.405 0 0 0-.905-.313h-2.277v2.206h2.277c.342 0 .643-.103.905-.31a.946.946 0 0 0 .39-.793m1.66 0c0 .831-.305 1.524-.915 2.077-.568.527-1.252.792-2.048.792h-2.269v3.984h-1.659v-9.722h3.928c.78 0 1.458.261 2.036.779.616.57.927 1.27.927 2.09M48.234 23.333h-6.89v-9.722h6.89v1.766h-5.15v2.205h4.026v1.766h-4.027v2.22h5.151zM57.094 15.377h-3.03v7.956h-1.816v-7.956h-3.03v-1.766h7.876zM64.969 23.333h-6.89v-9.722h6.89v1.766h-5.152v2.205h4.026v1.766h-4.026v2.22h5.152zM18.887 21.024c.05-.053.099-.109.143-.166l-.002.005c-.155.375-.307.64-.693 1.047l.038-.043c.09-.101.328-.37.497-.8.005-.014.01-.032.017-.043zm-.488.405c.063-.041.124-.086.184-.131l-.024.078c-.068.187-.193.534-.593.881-.113.09-.26.21-.377.292l.094-.07c.25-.219.265-.232.426-.45a2.26 2.26 0 0 0 .285-.587l.005-.013zm-.623.318c.075-.03.148-.06.217-.093-.453.94-1.082 1.407-2.242 1.678l-.006.001c.1-.025.236-.054.334-.082.647-.23 1.3-.57 1.697-1.504zm-1.15.276c.044-.005.083.001.122.007a.394.394 0 0 0 .132.008l-.019.023c-.88.996-2.543 1.765-4.397.797-.338-.193-.338-.193-.502-.304-.27-.199-.27-.199-.448-.35-.274-.253-.28-.26-.405-.399-.245-.288-.25-.294-.366-.458a5.04 5.04 0 0 1-.597-1.134c-.131-.398-.142-.43-.2-.703-.074-.428-.083-.483-.1-.812 0-.444 0-.523.054-.916.087-.452.105-.548.257-.983.19-.45.295-.698.658-1.205.147-.182.353-.419.514-.589.352-.318.416-.374.798-.63.402-.234.463-.27.84-.426.432-.15.478-.167.822-.242.434-.07.47-.077.773-.093.425-.004.45-.004.712.023.407.052.422.055.652.108l.013.003.064.019c.874.256 1.265.512 1.575.72.11.08.221.165.327.251 0 0-.711-.483-1.198-.66.496.301.8.621 1.047.896.08.095.1.116.173.212l.032.027.005.004c1.701 1.626 1.764 3.157 1.713 3.739l.006-.11c0-.074-.005-.171-.01-.241.006.459-.02.75-.193 1.353l.012-.038c.438-1.564-.037-2.091-.456-2.557.382 1.353.382 2.495-.006 3.495a1.836 1.836 0 0 1-.143.165h.002c.322-.947.235-2.126-.212-3.52-.12-.376-.262-.788-1.383-1.272.33.431.506.772.635 1.018.815 1.648.911 3.25.655 4.045l-.001.004c-.06.047-.12.09-.184.13l.023-.075c.325-1.154.12-3.112-1.073-4.893-.617-.87-3.183-.884-3.818-.81 2.439 1.49 5.19 3.742 4.462 6.004-.07.033-.142.064-.217.093l.001-.003c.568-1.38-.284-2.569-.973-3.341-.604-.677-1.849-1.757-3.152-2.533-.384-.228-.384-.228-1.129-.013.73.166 1.707.5 2.782 1.611 2.979 1.349 2.227 3.986 1.575 4.57-.042.037-.093.02-.145.002a.245.245 0 0 0-.108-.017l.077-.096c.64-.963.453-2.132-.504-3.13.13.307.216.511.304.912.236 1.335-.246 1.977-.465 2.372-.071.128-.219-.027-.315-.03.061-.048.151-.1.2-.16.714-.867.227-2.637-.606-3.759-2.239-1.247-5.583-.279-5.144 2.032.357 1.01 2.35 4.29 5.55 1.887.096.003.246.154.253.141-.278.452-.948 1.036-.496.598.12-.12-.2.18-.425.284.244-.09.983-.366 1.57-1.05zm-4.18-7.835c.192-.097 1.227-.585 2.715-.523-.15-.03-.321-.06-.558-.053l-.04.002c-.427.031-.473.035-.774.093-.423.102-.49.116-.823.242-.173.076-.403.183-.572.268.017-.008.037-.02.052-.029zm2.27-.419c.84.085 1.315.289 1.502.363-.522-.337-.9-.377-1.55-.365l.049.002zm3.413 1.69c.46.667.696 1.302.774 1.511.286.28.428.464.589.762-.253-.874-.692-1.605-1.383-2.3l.02.027zm-6.475-.58c.218.005.623.143.623.143s.486-.207.737-.292a3.48 3.48 0 0 1 1.796-.138c.534.097 1.342.392 2.154 1.25.535.199.827.34 1.255.602-2.3-4.16-5.397-2.481-6.625-1.566h.06zm-.274.078a.183.183 0 0 1 .07-.045 4.899 4.899 0 0 1 1.806-1.016 3.542 3.542 0 0 0-1.017.411l-.112.067c-.423.294-.448.308-.747.583zm-.865 1.089c.24-.408.46-.649.616-.826-.043.036-.043.036-.056.053-.08.097-.188.221-.26.321-.116.17-.266.4-.371.578l.07-.126zm1.92-.962c.359.147.67.32.775.379 1.217-.193 2.287-.095 3.577.317-1.926-1.899-3.785-1.008-4.397-.715.014.006.03.011.044.019zm-2.171 1.478c.181-.329.455-.55.812-.66a4.84 4.84 0 0 1 .962-.732c-.553-.118-.754-.023-.757-.023-.005.006-.636.542-1.05 1.478l.033-.063zm.965-.701c.24-.053.46-.083.811-.065a5.4 5.4 0 0 1 .932-.287c-.541-.253-.83-.313-.83-.313a4.398 4.398 0 0 0-.916.665h.003zm-1.382 2.814c-.005-.41.08-.691.136-.876.207-.621.277-.829.617-1.332-.132.088-.48.324-.623.919-.024.12-.06.276-.077.396-.054.468-.06.526-.054.916l.006.119c-.002-.045-.005-.1-.005-.142zm.464-1.543c.326-.49.74-.782.877-.877-.273.053-.43.126-.434.13-.003.001-.24.292-.466.78a.216.216 0 0 1 .023-.033zm-.275 2.456c-.062-1.119.734-1.632.996-1.8.761-.482 1.74-.935 3.238-.656-1.567-1.072-2.614-.93-2.62-.924-1.788 1.001-1.848 2.183-1.646 3.313l.046.22c-.004-.047-.013-.108-.014-.153zm.26.985l-.024-.053c-.295-.686-.41-1.282-.387-1.991-.013.134-.04.383.017.745l.044.236c.101.42.108.444.2.703.046.114.107.265.158.376l-.008-.016zm2.569 2.459a4.56 4.56 0 0 1-1.268-.757c.108.086.253.199.365.279l.136.09c.395.252.788.397.767.388z"/>
        <path fill="#FEFEFE" d="M14.769 13.611c-.047 0-.095.003-.157.004h.05l.07.001h.182c-.054-.002-.099-.005-.145-.005zm-.038.005l-.162.001c-.156.008-.34.043-.541.106a6.264 6.264 0 0 1 1.127-.054 2.267 2.267 0 0 0-.424-.053zm.537.025c.157.02.256.031.331.045a2.48 2.48 0 0 0-.33-.045zm-.727.119c-.302 0-.594.04-.873.105A3.166 3.166 0 0 0 12.4 14.96c.162-.065.439-.178.608-.235.19-.061.379-.11.567-.143a2.88 2.88 0 0 1 1.303-.794c-.056-.004-.11-.01-.168-.016a.54.54 0 0 0-.048-.002c.026-.002.051-.002.075-.002a2.085 2.085 0 0 0-.197-.008zm.453.001c-.078 0-.161.002-.256.007.058.002.116.006.173.012a2.06 2.06 0 0 0 .083-.019zm-2.32.32a.851.851 0 0 0-.09.042l.011-.007c.026-.012.052-.026.078-.035zm-.142.064c-.024.01-.043.02-.064.03l.029-.014.035-.016zm-.069.036a.572.572 0 0 0-.046.021l-.006.005a.174.174 0 0 1 .041-.02c.004-.002.007-.005.011-.006zm-.052.026a.127.127 0 0 0-.02.01c-.02.011-.038.02-.059.033a.81.81 0 0 1 .079-.043zm-.176.099c-.022.01-.045.026-.066.039l.066-.04zm0 .001l-.094.056-.058.038-.073.05c-.113.078-.21.157-.295.233l.111-.082c.122-.104.258-.201.41-.295zm-.066.038l-.045.027c-.178.115-.27.179-.374.261l.031-.023c.09-.067.19-.137.343-.238l.045-.027zm-.157.104a7.257 7.257 0 0 0-.314.226c.09-.072.181-.135.312-.224l.002-.002zm5.559.035a20.76 20.76 0 0 1 .262.194 3.747 3.747 0 0 0-.262-.194zm.004.014c.583.431.847.906 1.02 1.401.133.166.25.328.353.487a3.356 3.356 0 0 0-1.15-1.734 3.993 3.993 0 0 0-.223-.154zm-4.076.168c-.5.1-.89.285-1.113.391l.045.018c.232.096.443.2.593.28a3.38 3.38 0 0 1 .475-.689zm-1.806.012l-.167.141c.065-.055.119-.102.167-.141zm-.351.442c-.015.005-.028.006-.037.01l-.029.037c.001-.006.001-.012.003-.017a.047.047 0 0 0 .004-.012h-.006c-.001.004-.111.096-.27.273a4.919 4.919 0 0 0-.194.582c.029-.016.059-.027.089-.042.016-.048.032-.095.05-.14.007.035.012.072.02.11.035-.012.066-.024.102-.034a6.4 6.4 0 0 1 .256-.232 1.258 1.258 0 0 1-.06-.44c.025-.031.048-.063.072-.095zm.9.095c-.096.172-.185.36-.263.563l.058.004c.33-.13.554-.2.913-.28l.004-.011a5.244 5.244 0 0 0-.711-.276zm-1.17.048zm-.014.027a8.592 8.592 0 0 1-.001.002v-.002zm.295.442a5.256 5.256 0 0 0-.13.116h.003c.055-.012.106-.023.158-.032l-.03-.084zm1.49.02c-.09.023-.196.054-.324.09.085.02.173.04.266.065.017-.051.037-.106.057-.155zm5.797.278a8.551 8.551 0 0 1 .2.773c.024.06.042.108.055.144.072.07.134.134.192.196a4.125 4.125 0 0 0-.094-.587 5.535 5.535 0 0 0-.353-.526zm-8.185.103l-.014.022a5.008 5.008 0 0 0 .014-.022zm1.395.05a5.553 5.553 0 0 0-.078.327c-.031-.049-.075-.11-.106-.156a3.28 3.28 0 0 1-.079-.13c-.144.082-.47.121-.397.248.296.522.363.668.486.93 0 0 .201-.079.378-.143.19-.068.29-.108.49-.15.023-.281.063-.542.12-.786a3.254 3.254 0 0 0-.814-.14zm-.665.054c-.037.01-.073.015-.105.023.004.013.01.025.017.04.035-.027.066-.047.088-.063zm-.392.11l-.041.019s-.013.014-.03.037c-.015.08-.03.164-.041.253l.066-.065c.013-.081.028-.164.046-.244zm-.574.27zm.499.239c-.021.02-.044.04-.062.06-.027.334-.016.697.053 1.07.023-.018.045-.036.068-.052a3.97 3.97 0 0 1-.06-1.078zm-.639.195c-.03.065-.055.137-.079.214a8.32 8.32 0 0 0-.084.39 4.897 4.897 0 0 0-.064.751c.005-.07.013-.134.022-.193.007-.172.025-.357.053-.555-.004.099-.006.198 0 .296l.054-.185.06-.178c-.01-.21.009-.388.038-.54zm8.948.285c.025.093.05.181.073.27 0-.055.002-.119 0-.188l-.073-.082zm-9.052.023l-.021.094.02-.094zm-.008.041a2.22 2.22 0 0 0-.013.053c-.007.035-.016.072-.02.107l-.005.02.038-.18zm2.791.17c-.378.033-.743.111-1.074.234.025.416.101.83.221 1.19.14.423.294.716.4.891a4.733 4.733 0 0 0 2.335 1.961l-.13-.002c-.424-.015-.74-.063-.908-.088-1.254-.742-2.362-2.038-2.75-3.49l-.064.054c.017.06.036.117.056.177.172.496.695 2.005 2.462 3.206l-.054-.011c-.326-.068-.562-.118-1.497-.983l-.064-.06-.025-.025-.083-.081-.164-.167c-.512-.57-.846-1.086-1.056-1.544a1.904 1.904 0 0 0-.139.305c.176.394.427.792.754 1.194.088.101.205.237.298.334l.16.163.085.08.016.018.02.02c.13.116.217.198.376.33-.06-.028-.142-.063-.201-.092-.976-.478-1.402-1.04-1.6-1.404.003.07.008.14.017.211.41.662.758.911 1.277 1.237.019.012 2.114 1.179 3.014 1.451.127-.042.258-.094.392-.155a7.434 7.434 0 0 1-1.36-.565c.528.09 1.025.309 1.532.48.029-.017.057-.032.088-.047a6.22 6.22 0 0 1-.956-.35c.499.036.961.067 1.39.083l.193-.139h.002-.002c.06-.048.15-.099.198-.157.058-.07.108-.144.15-.226-1.036-.179-2.611-.967-3.258-2.613a4.173 4.173 0 0 1-.238-.919c1.396 1.164 2.599 1.677 3.578 1.784a4.652 4.652 0 0 0-.174-.546c-1.081-.266-2.266-.903-3.217-1.738zm-2.696.261a2.356 2.356 0 0 0-.105.412c.03.205.084.41.156.616a1.62 1.62 0 0 1 .132-.31 3.3 3.3 0 0 1-.183-.718zm8.804.318a1.71 1.71 0 0 1-.35.697c.017.061.03.123.043.185.162-.185.288-.387.377-.595a8.585 8.585 0 0 0-.07-.287zm.822.394l-.005.094c0 .017-.002.03-.003.041l-.004.123c.006-.087.01-.18.012-.258zm-9.814.044c-.004.05-.007.113-.007.182.007.104.018.203.03.295a3.95 3.95 0 0 1-.016-.367 2.67 2.67 0 0 1-.007-.11zm-.03.073c.002.03.004.057.004.084 0-.02 0-.04-.002-.06 0-.008 0-.017-.002-.024zm9.827.074l-.007.073c-.002.09-.007.178-.016.267a1.55 1.55 0 0 0 .02-.157l.006-.11c0-.022 0-.048-.003-.073zm-9.823.01a.258.258 0 0 1 .002.033l.004.054-.006-.087zm9.808.11c-.023.14-.054.23-.141.468v.01-.011l-.02.05a3.11 3.11 0 0 1-.215.395c-.011.09-.024.178-.04.267.102-.154.196-.321.27-.502l.05-.126c.024-.074.053-.165.076-.267.011-.1.017-.195.02-.285zm-1.239.097c-.2.196-.45.328-.736.407.046.08.087.162.125.244.253-.124.47-.281.648-.46-.01-.063-.023-.125-.037-.19zm-8.543.05c0 .033.004.069.009.104.01.07.023.148.042.254l.04.177a4.68 4.68 0 0 1-.053-.33A1.715 1.715 0 0 1 9.874 19zm.004.067c.013.126.03.218.065.398l-.044-.234-.016-.127c-.002-.013-.005-.026-.005-.037zm7.677.32a3.482 3.482 0 0 1-.236.038c.039.11.068.22.091.332.097-.032.191-.065.28-.103a3.595 3.595 0 0 0-.135-.266zm-1.123.012c.021.078.043.166.066.263.014.073.024.145.033.215h.014c.129 0 .253-.008.372-.02a2.856 2.856 0 0 0-.205-.426 4.788 4.788 0 0 1-.28-.032zm-6.42.127l.036.168-.01-.109-.026-.06zm9.53.115c-.017.066-.037.127-.081.256v.005c-.1.254-.218.47-.353.659-.027.082-.054.162-.086.242l-.003.004c-.015.04-.032.077-.049.113.162-.229.307-.503.437-.823a2.139 2.139 0 0 0 0-.001l.002-.003c.02-.051.052-.15.062-.184l.011-.042c.02-.067.039-.142.058-.215l.002-.008v-.003zm-9.384.401a.433.433 0 0 0 .014.072c.045.13.119.298.22.487-.081-.164-.16-.35-.234-.559zm8.904.022a3.835 3.835 0 0 1-.363.383 5.66 5.66 0 0 1-.014.22c.121-.111.24-.232.35-.364.012-.079.02-.159.027-.24zm-8.913.108l.044.11-.005-.01a15.687 15.687 0 0 1-.04-.1zm.126.305l.026.058-.007-.015c-.002-.005-.006-.008-.007-.016.04.09.07.148.13.263l-.033-.067-.01-.018a2.306 2.306 0 0 1-.073-.147c-.006-.01-.01-.027-.017-.041-.004-.005-.006-.01-.009-.017zm8.262.11c-.14.117-.286.22-.433.314a2.441 2.441 0 0 1-.015.217c.14-.09.283-.19.423-.303.01-.074.018-.151.025-.228zm.402.186a2.559 2.559 0 0 1-.32.303c-.013.055-.026.11-.043.158l-.002.005h.001l-.024.077c-.016.037-.03.08-.051.13.108-.093.21-.195.308-.311.019-.041.037-.082.054-.126.004-.014.01-.031.016-.042v-.001h.002l.059-.193zm-.996.229a5.75 5.75 0 0 1-.672.339c-.036.093-.077.18-.119.258.193-.08.463-.2.757-.372.014-.075.025-.15.034-.225zm-7.372.031c.062.102.093.146.17.254-.016-.024-.033-.048-.046-.07a1.936 1.936 0 0 1-.072-.106l-.052-.078zm7.867.174a2.6 2.6 0 0 1-.402.213c-.016.056-.03.115-.051.172a3.532 3.532 0 0 1-.217.092l.002-.003c.026-.06.048-.125.068-.185a3.278 3.278 0 0 1-.712.15c-.08.138-.168.25-.253.327l-.019.022-.098.106c.325-.032.624-.09.9-.182.04-.074.076-.151.112-.235.075-.03.148-.06.217-.092a5.823 5.823 0 0 1-.132.253c.16-.07.31-.15.451-.249.028-.063.054-.134.083-.214a.073.073 0 0 1 .004-.014l.023-.076c.008-.027.017-.055.024-.085zm-1.536.279a1.255 1.255 0 0 1-.659.142 3.816 3.816 0 0 1-.237.355c-.031.053-.066.106-.092.152.03 0 .07-.004.099-.004.156 0 .308-.003.454-.01.05-.052.103-.107.153-.163l.077-.096c.08-.123.151-.248.205-.376zm-5.968.055zm7.522.155c-.07.073-.143.14-.219.203-.03.038-.06.077-.097.117.084-.074.167-.152.25-.238.018-.023.042-.05.066-.082zm-7.073.222c.233.22.496.42.787.579a5.973 5.973 0 0 1-.787-.58zm-.067.04c.072.072.107.102.195.18l-.012-.011a4.18 4.18 0 0 1-.183-.169zm6.716.096a2.823 2.823 0 0 1-.533.284c-.04.043-.08.083-.12.123.199-.074.381-.167.553-.286.033-.035.064-.071.1-.12zm-6.503.098c.021.02.042.038.065.056.007.006.014.01.018.016l-.083-.072zm6.429.038l-.063.051-.02.016c-.065.05-.134.105-.2.153l-.003.005a3.989 3.989 0 0 0 .286-.225zm-.18.132c-.17.107-.345.19-.525.253a2.26 2.26 0 0 1-.264.195c.246-.086.445-.195.611-.305l.072-.05.004-.005.101-.088zm-.455.078c-.32.104-.67.16-1.038.16-.02 0-.04 0-.06-.002a3.842 3.842 0 0 1-.157.106l.122.002a3.884 3.884 0 0 0 1.025-.15 2.45 2.45 0 0 0 .108-.116zm-5.466.01l.05.037a.1.1 0 0 0 .011.01l-.061-.047zm.028.023c.015.01.032.023.052.035a.246.246 0 0 1-.03-.021l-.022-.014zm.073.05l.122.082-.076-.05-.046-.031zm3.696.026c-.027.035-.043.098-.08.09.081.02.17.032.235.04.049-.028.098-.06.148-.094a3.413 3.413 0 0 1-.266-.03l-.037-.006zm-3.526.085l.073.046.17.097c.01.004.018.01.027.013a7.996 7.996 0 0 1-.214-.124h-.002a.892.892 0 0 0-.054-.032zm4.968.03a3.173 3.173 0 0 1-.877.119c-.088 0-.176-.005-.265-.01a3.837 3.837 0 0 1-.337.177c.127.013.25.017.366.017.331 0 .613-.042.853-.11.09-.056.175-.12.26-.192zm-4.892.018c.102.063.144.086.256.144l-.088-.049c-.054-.03-.11-.06-.168-.095zm3.294.038c-.021.02-.038.04-.067.061-.06.048-.107.09-.161.127a.948.948 0 0 1 .081.013c.102-.046.218-.102.343-.173a2.452 2.452 0 0 1-.157-.024l-.039-.004zm.529.51l-.195.046-.088.02.283-.066zm-2.167.022c.378.082.741.12 1.079.12.29 0 .558-.026.8-.074.024-.005.049-.013.075-.018l-.017.003a4.936 4.936 0 0 1-1.786-.018 10.1 10.1 0 0 1-.15-.013z"/>
        <path fill="#FEFEFE" d="M14.668 13.611h-.052c-.008.002-.016.002-.026.003h-.016l.162-.001c-.022-.002-.044-.002-.068-.002zm.17.002h-.102c.17.004.303.027.424.052-.092-.003-.18-.003-.267-.003-.312 0-.6.021-.86.058a2.719 2.719 0 0 0-.36.143 3.78 3.78 0 0 1 .873-.106c.065 0 .131.003.197.009.094-.005.15.002.228.001a2.43 2.43 0 0 1 .53-.065c.15 0 .294.016.431.046l-.007-.003c-.15-.03-.246-.05-.32-.063-.075-.013-.175-.025-.332-.046-.165-.012-.27-.02-.354-.023h-.08zm-.276 0a4.458 4.458 0 0 0-.388.032c.093-.009.204-.017.388-.031zm-.388.032c-.123.013-.213.03-.386.063.183-.03.295-.05.386-.063zm-.386.063a5.152 5.152 0 0 0-.421.105c.106-.03.224-.057.421-.105zm.955.058l-.075.001.048.002c.057.007.112.012.168.017l.032-.008a2.06 2.06 0 0 0-.173-.012zm-1.376.047c-.121.033-.223.07-.4.136.188-.065.302-.105.4-.136zm-.4.136l-.115.05.115-.05zm-.115.05c-.136.06-.23.101-.317.146l-.035.017c-.01.003-.02.01-.028.014a1.234 1.234 0 0 1-.051.027c.014-.008.03-.014.046-.021a.025.025 0 0 0-.011.005l.143-.071-.012.007a.961.961 0 0 1 .09-.042c.058-.03.118-.055.175-.082zm4.332.243c.057.032.12.072.183.11l-.157-.097c-.01-.004-.017-.007-.026-.013zm-4.852.01l-.001.002c-.052.031-.108.063-.175.105 0 0-.008.003-.011.006l.094-.055.093-.058zm5.035.1c.076.05.146.1.214.15.076.05.15.1.224.155-.078-.059-.159-.12-.229-.17a8.273 8.273 0 0 0-.21-.134zm-5.24.022a5.761 5.761 0 0 0-.342.241c.06-.046.133-.097.23-.163l.07-.049.042-.029zm1.454.212a3.96 3.96 0 0 0-.568.145c-.17.056-.447.17-.608.236a4.102 4.102 0 0 0-.159.258c.129.038.368.118.712.278.023-.049.045-.095.07-.138a6.494 6.494 0 0 0-.594-.282c-.013-.007-.03-.012-.044-.018a4.643 4.643 0 0 1 1.113-.394c.025-.03.051-.058.078-.085zm-1.751.02a7.148 7.148 0 0 0-.111.082 3.155 3.155 0 0 0-.41.45c.008-.004.02-.005.036-.01a3.19 3.19 0 0 1 .485-.522zm-.045.01a.395.395 0 0 0-.032.022c-.018.015-.035.03-.055.043h.003c.028-.024.055-.045.084-.066zm-.087.065a5.422 5.422 0 0 0-.17.144l.169-.143.001-.001zm-.338.295c-.01.01-.02.02-.032.029-.074.08-.158.17-.241.266l-.027.031c-.012.024-.028.066-.05.12.158-.179.27-.271.27-.275l.006-.001a.375.375 0 0 1 .074-.17zm-.285.297a7.7 7.7 0 0 1-.133.158c-.044.057-.087.113-.125.16l.065-.081c.063-.08.124-.149.179-.21a.539.539 0 0 0 .011-.027h.003zm1.879.24a5.36 5.36 0 0 0-.913.283c-.02-.001-.038-.003-.058-.003-.047.129-.092.265-.13.408.173.003.453.033.815.14a4.78 4.78 0 0 1 .121-.42c-.093-.024-.181-.044-.266-.065.128-.036.234-.067.322-.09.035-.088.071-.172.109-.253zm-2.139.081l-.078.113c.026-.036.05-.074.075-.112h.003zm.518.074c-.083.071-.167.147-.256.233-.036.011-.067.023-.101.035.019.097.049.204.107.343.031-.01.068-.016.105-.024-.022.016-.053.035-.088.063.025.062.058.12.092.174.123-.085.254-.168.399-.252a2.636 2.636 0 0 1-.203-.41l-.159.031h-.003c.044-.04.088-.08.13-.116a1.22 1.22 0 0 1-.023-.077zm-.596.039a5.805 5.805 0 0 0-.275.437c.08-.135.183-.296.275-.437zm7.865.208l.045.131c.13.173.247.35.353.53a3.062 3.062 0 0 0-.045-.171 5.78 5.78 0 0 0-.353-.49zm-7.697.052c-.03.014-.06.026-.09.042a5.47 5.47 0 0 0-.09.413.471.471 0 0 1 .028-.038l.043-.019c.028-.134.065-.266.109-.398zm-.155.645c-.022.02-.043.042-.066.065a5.85 5.85 0 0 0-.025.262c.018-.02.04-.04.062-.06.006-.091.016-.18.029-.267zm-.56.11a1.96 1.96 0 0 1-.033.077c-.072.218-.116.351-.152.48l-.002.013c.024-.079.05-.151.078-.217.012-.06.026-.115.04-.165.021-.06.042-.122.068-.187zm8.657.103c.083.412.095.684.104.88a2.36 2.36 0 0 1-.078.477c.026.099.048.195.07.29.076-.184.123-.37.141-.553 0 0 .017-.11.023-.284-.023-.09-.048-.179-.073-.273l.073.083c0-.085-.006-.176-.013-.278a5.786 5.786 0 0 0-.192-.196 4.82 4.82 0 0 0-.055-.146zm-6.3.308c-.32.07-.606.173-.867.295v.042c-.003.121 0 .243.008.364.33-.123.695-.203 1.074-.235a7.776 7.776 0 0 1-.228-.212 5.41 5.41 0 0 1 .013-.254zm-2.544.159l-.002.005c-.012.044-.023.084-.031.13l-.038.182-.033.173c.01-.042.018-.093.027-.142a8.504 8.504 0 0 1 .077-.349zm.04.328c-.018.055-.039.113-.06.179a8.461 8.461 0 0 0-.053.187c.005.098.015.195.029.291.023-.14.057-.278.106-.415a3.172 3.172 0 0 1-.021-.242zm-.144.162c-.027.201-.04.32-.046.45.008-.112.023-.241.046-.45zm.88.183l-.067.052c.02.113.047.224.079.337l.064-.054a5.54 5.54 0 0 1-.076-.335zm-.926.266c-.005.087-.01.163-.01.26 0 .059.003.126.003.207.002-.214.002-.346.007-.467zm.023.016c-.009.06-.017.124-.022.195 0 .128.005.25.015.365 0-.07.003-.132.007-.184a6.044 6.044 0 0 1 0-.376zm.372.338a1.594 1.594 0 0 0-.132.313c.032.093.07.186.111.28.037-.107.084-.21.139-.308a3.772 3.772 0 0 1-.118-.285zm-.402.113l.006.118c0-.011 0-.023-.002-.034 0-.026-.002-.055-.004-.084zm9.841.018c-.003.019-.004.037-.008.056a.976.976 0 0 1 .002.073l-.006.111.008-.118.005-.122zm-9.839.006l.002.06.007.087c.002.033.007.076.013.127l-.022-.274zm.035.013c0 .125.005.249.016.37.01.075.02.144.032.212l-.01-.041-.006-.028a4.2 4.2 0 0 0 .053.332c.099.384.315 1.021.768 1.716-.18-.252-.239-.334-.349-.541.01.023.02.044.033.067l.105.181c.078.122.175.266.253.375.355.436.583.715.975 1.019l-.07-.053a4.133 4.133 0 0 0 .177.134l.062.047.003.002a6.711 6.711 0 0 0 .075.052c.004.003.009.004.013.008l.118.077c.018.01.037.02.055.032a4.72 4.72 0 0 1-1.044-.903l.117.116a5.663 5.663 0 0 0 2.605 1.378l.152.013a5.553 5.553 0 0 1-1.843-.734 3.725 3.725 0 0 1-.786-.583 5.78 5.78 0 0 1-.457-.45 5.499 5.499 0 0 1-.536-.877c-.1-.192-.175-.36-.22-.492a.47.47 0 0 1-.014-.072c-.01-.03-.021-.06-.03-.091.007.012.016.025.022.039a2.508 2.508 0 0 1-.018-.214 2.66 2.66 0 0 1-.094-.195c.003.036.008.076.01.109l-.036-.17-.015-.038a5.356 5.356 0 0 1-.116-.797zm9.787.11l-.006.047c-.003.09-.01.186-.022.288l.013-.066c.009-.09.013-.177.015-.27zm-1.147.04c-.03.036-.064.073-.099.106.014.066.027.13.037.192a1.72 1.72 0 0 0 .105-.112c-.013-.062-.027-.125-.043-.187zm-8.653.11c.002.043.006.078.01.113 0 .012.003.025.005.037a1.412 1.412 0 0 0-.016-.15zm.015.15l.016.128.045.236-.03-.164.01.056a7.425 7.425 0 0 1-.04-.256zm6.095.207c.07.181.128.366.174.55.132.015.259.023.383.023a3.767 3.767 0 0 0-.033-.217 7.596 7.596 0 0 0-.066-.265 4.543 4.543 0 0 1-.458-.091zm1.707.049c-.04.012-.083.02-.126.03.049.088.095.177.136.27l.115-.054a2.844 2.844 0 0 0-.125-.246zm1.924.018a7.009 7.009 0 0 0-.008.04l.008-.04zm-2.286.05a3.245 3.245 0 0 1-.607.006c.082.142.15.284.205.43.174-.021.338-.056.493-.101a2.518 2.518 0 0 0-.09-.335zm-7.379.04c.034.162.052.24.088.358a13.058 13.058 0 0 1-.088-.358zm9.34.303c-.066.105-.14.204-.217.301a4.232 4.232 0 0 1-.026.241 3.62 3.62 0 0 0 .205-.272c.015-.09.028-.18.039-.27zm-9.252.055c.033.12.058.193.113.347-.054-.164-.088-.264-.113-.347zm.113.347c.024.061.053.134.084.205l-.04-.096.005.01c-.016-.037-.03-.075-.044-.11l-.004-.007v-.002zm.084.205c.023.056.043.1.057.139.003.006.007.01.009.016l.007.015c-.009-.02-.018-.038-.026-.059l.008.017-.055-.128zm8.475.081c-.053.05-.107.095-.162.14-.008.078-.014.155-.026.23.06-.047.117-.095.173-.148.006-.071.011-.145.015-.222zm.409.114c-.054.076-.11.149-.17.214-.017.065-.038.13-.058.194h-.002v.002c-.007.01-.012.028-.017.043a1.555 1.555 0 0 1-.054.126c.057-.068.11-.14.164-.217.016-.035.033-.073.048-.113l.003-.004c.032-.081.059-.163.086-.245zm-8.62.343l.057.094a.457.457 0 0 1-.027-.048c-.011-.015-.02-.031-.03-.046zm7.616 0c-.054.037-.108.07-.162.102-.008.076-.02.152-.034.227.06-.034.12-.07.18-.11a2.48 2.48 0 0 0 .016-.219zm-7.56.094c.01.016.017.027.023.04.016.022.032.048.052.078l-.074-.118zm8.075.082c-.06.048-.12.093-.181.132l-.024.088-.023.076s-.002.002-.005.013c-.028.08-.054.152-.082.216.067-.046.133-.096.195-.151.021-.05.036-.094.051-.132l.025-.077h-.001l.001-.004c.018-.05.03-.105.044-.16zm-7.928.144l.045.07a2.458 2.458 0 0 1-.045-.07zm.077.113c.042.058.086.116.132.174.004.008.01.01.014.017l-.146-.19zm6.502.01c-.085.038-.367.145-.37.147-.135.25-.269.487-.434.64.004-.004.195.006.29-.02.045-.015 0 0 0 0 .34-.302.478-.672.514-.766zm.765.08a2.93 2.93 0 0 1-.198.077c-.02.061-.042.125-.068.186l-.001.003c.074-.03.147-.059.216-.093.02-.056.035-.116.05-.172zm.553.132l-.045.055c-.03.032-.057.062-.087.091-.025.033-.049.06-.067.084.066-.073.134-.148.2-.23zm-.604.041a2.625 2.625 0 0 1-.216.093 3.007 3.007 0 0 1-.114.238 4.59 4.59 0 0 0 .198-.075c.045-.081.09-.166.132-.254v-.002zm-1.919.01c-.114.235-.407.432-.54.527.133.004.355.012.438.01.008 0 .142-.228.15-.24.096-.159.136-.27.136-.27.057.004-.123-.014-.184-.027zm-4.963.14l.015.018a4.098 4.098 0 0 0 .181.188c-.043-.047-.104-.108-.196-.205zm7.135.16a2.387 2.387 0 0 1-.205.156c-.037.051-.068.087-.101.123.071-.05.14-.103.208-.161.037-.04.069-.08.098-.117zm-6.72.248a3.079 3.079 0 0 0 .092.08c-.005-.006-.012-.01-.019-.016l.085.069-.158-.133zm6.357.112l-.098.067c-.027.025-.062.054-.101.088.065-.048.135-.104.199-.155zm-.376.083a2.99 2.99 0 0 1-.175.063c-.035.04-.071.079-.108.117.055-.018.11-.036.164-.056.04-.04.08-.08.12-.124zm-2.409.053c-.03.015-.058.031-.087.048a4.8 4.8 0 0 0 .586.166c.05-.048.057-.06.087-.095-.003.004-.038-.004-.043-.004a4.077 4.077 0 0 1-.543-.115zm2.582.024l-.071.05.007-.005.064-.045zm-5.768.032a.207.207 0 0 0 .03.022l.022.016c-.015-.009-.028-.02-.04-.028-.004-.002-.008-.006-.012-.01zm2.926.078a3.756 3.756 0 0 1-.392.155c.012.007.026.01.038.011a5.392 5.392 0 0 0 .793.182c.11-.072.112-.07.185-.132l.065-.057a5.343 5.343 0 0 1-.689-.16zm1.127.022c-.05.033-.1.066-.149.095.085.012.172.022.26.025.053-.035.105-.07.157-.107-.09-.002-.178-.008-.268-.013zm1.296.03c-.052.02-.104.036-.157.05-.085.073-.17.137-.26.194a2.34 2.34 0 0 0 .153-.047c.094-.061.181-.125.264-.198zm-5.054.065l.002.003c.058.034.115.065.168.095l-.17-.098zm3.494.068c-.125.072-.24.129-.342.174.091.013.179.024.265.03.117-.053.23-.113.338-.178a4.273 4.273 0 0 1-.261-.026zm-3.324.03l.09.049c.01.005.019.012.03.016l-.094-.052a.268.268 0 0 1-.026-.013zm3.462.504l-.018.003-.075.018h.006c.03-.008.057-.016.087-.021z"/>
        <g transform="translate(41.344 24.306)">
            <mask id="h" fill="#fff">
                <use xlink:href="#g"/>
            </mask>
            <path fill="#FEFEFE" d="M27.516 4.924c0 1.94.4 2.91 1.205 2.91.798 0 1.193-.97 1.193-2.91 0-1.94-.395-2.91-1.193-2.91-.531 0-.888.387-1.07 1.16-.091.39-.135.971-.135 1.75zm4.795.09c0 1.295-.26 2.36-.78 3.193-.627 1.01-1.563 1.515-2.81 1.515-1.255 0-2.197-.519-2.83-1.56-.513-.846-.77-1.924-.77-3.238 0-1.309.257-2.386.77-3.231C26.524.658 27.466.14 28.72.14c1.281 0 2.23.528 2.851 1.585.49.842.74 1.938.74 3.289zm-8.288 4.46h-7.255l4.264-4.909c.506-.583.76-1.083.76-1.491 0-.328-.108-.592-.32-.794-.212-.202-.486-.304-.823-.304-.844 0-1.267.492-1.267 1.478v.113H17.1v-.063c0-1.06.312-1.887.94-2.484.626-.595 1.488-.893 2.583-.893 1.002 0 1.821.24 2.452.72.694.526 1.039 1.265 1.039 2.214 0 .825-.428 1.697-1.286 2.615l-1.711 1.837h2.906v1.962zm-12.92-4.55c0 1.94.403 2.91 1.205 2.91.796 0 1.195-.97 1.195-2.91 0-1.94-.399-2.91-1.195-2.91-.531 0-.889.387-1.069 1.16-.091.39-.137.971-.137 1.75zm4.794.09c0 1.295-.258 2.36-.779 3.193-.625 1.01-1.563 1.515-2.81 1.515-1.254 0-2.196-.519-2.829-1.56-.514-.846-.772-1.924-.772-3.238 0-1.309.258-2.386.772-3.231C10.112.658 11.054.14 12.31.14c1.28 0 2.231.528 2.849 1.585.494.842.74 1.938.74 3.289zm-8.286 4.46H.355l4.264-4.909c.505-.583.758-1.083.758-1.491 0-.328-.106-.592-.317-.794-.212-.202-.486-.304-.824-.304-.843 0-1.265.492-1.265 1.478v.113H.687v-.063c0-1.06.312-1.887.94-2.484C2.255.425 3.117.127 4.21.127c1.004 0 1.821.24 2.453.72.692.526 1.04 1.265 1.04 2.214 0 .825-.429 1.697-1.286 2.615L4.704 7.513H7.61v1.962z" mask="url(#h)"/>
        </g>
        <path fill="#FEFEFE" d="M68.117 29.166c0 1.967.394 2.95 1.188 2.95.786 0 1.176-.983 1.176-2.95 0-1.964-.39-2.95-1.176-2.95-.524 0-.877.394-1.054 1.178-.091.393-.134.983-.134 1.772zm4.727.091c0 1.314-.257 2.391-.77 3.236-.617 1.023-1.54 1.535-2.769 1.535-1.236 0-2.166-.526-2.79-1.58-.506-.858-.76-1.95-.76-3.282 0-1.326.254-2.418.76-3.274.624-1.049 1.554-1.574 2.79-1.574 1.263 0 2.198.536 2.81 1.607.485.852.729 1.964.729 3.332zm-8.17 4.52h-7.152l4.204-4.975c.498-.593.748-1.097.748-1.51 0-.332-.104-.6-.315-.805-.209-.205-.478-.308-.811-.308-.832 0-1.247.499-1.247 1.497v.115h-2.252v-.064c0-1.074.309-1.912.927-2.517.618-.603 1.467-.904 2.546-.904.989 0 1.796.242 2.418.729.684.533 1.023 1.282 1.023 2.245 0 .834-.422 1.718-1.266 2.648l-1.688 1.861h2.865v1.989zm-12.736-4.611c0 1.967.398 2.95 1.19 2.95.783 0 1.178-.983 1.178-2.95 0-1.964-.395-2.95-1.178-2.95-.525 0-.878.394-1.055 1.178-.09.393-.135.983-.135 1.772zm4.726.091c0 1.314-.255 2.391-.768 3.236-.616 1.023-1.54 1.535-2.768 1.535-1.237 0-2.166-.526-2.789-1.58-.508-.858-.762-1.95-.762-3.282 0-1.326.254-2.418.762-3.274.623-1.049 1.552-1.574 2.789-1.574 1.261 0 2.199.536 2.808 1.607.487.852.728 1.964.728 3.332zm-8.167 4.52h-7.153l4.203-4.975c.498-.593.75-1.097.75-1.51 0-.332-.106-.6-.315-.805-.208-.205-.48-.308-.812-.308-.831 0-1.247.499-1.247 1.497v.115H41.67v-.064c0-1.074.31-1.912.928-2.517.62-.603 1.468-.904 2.546-.904.99 0 1.795.242 2.418.729.682.533 1.024 1.282 1.024 2.245 0 .834-.421 1.718-1.266 2.648l-1.69 1.861h2.867v1.989zM2.787.203L2.6.642c-.178-.12-.457-.18-.838-.18-.356 0-.642.142-.858.426-.215.284-.323.65-.323 1.099 0 .428.11.775.331 1.04.221.267.506.4.856.4.38 0 .674-.125.879-.375l.305.393c-.322.296-.736.444-1.242.444-.53 0-.949-.177-1.254-.531C.153 3.003 0 2.536 0 1.956 0 1.395.163.928.488.556.813.187 1.234 0 1.749 0c.442 0 .788.068 1.038.203M3.563 2.424c0 .706.29 1.058.868 1.058.27 0 .482-.094.636-.284.153-.188.23-.446.23-.774 0-.697-.289-1.045-.866-1.045a.786.786 0 0 0-.632.279c-.157.185-.236.44-.236.766m-.61 0c0-.434.136-.784.407-1.051.271-.267.628-.4 1.071-.4.468 0 .83.128 1.088.384.258.256.387.612.387 1.067 0 .453-.132.811-.396 1.073-.264.261-.623.392-1.079.392-.465 0-.828-.132-1.087-.396-.26-.265-.39-.621-.39-1.069M8.71.438a1.011 1.011 0 0 0-.302-.052.524.524 0 0 0-.402.17.604.604 0 0 0-.16.43c0 .047.006.095.015.145h.611v.411h-.611V3.89h-.533V1.542H6.89v-.411h.437c0-.352.094-.629.283-.83.19-.2.44-.301.75-.301.154 0 .32.026.498.077l-.148.36zM9.54 0c.088 0 .163.03.226.09.062.061.093.134.093.218 0 .086-.03.16-.093.22a.314.314 0 0 1-.226.09.309.309 0 0 1-.224-.09.295.295 0 0 1-.093-.22A.311.311 0 0 1 9.54 0zm-.282 3.889v-2.4h-.399v-.422h.914v2.822h-.515zM13.12 3.889V2.224c0-.305-.06-.519-.179-.64-.12-.123-.32-.184-.6-.184-.15 0-.308.035-.473.104-.165.07-.29.156-.379.257V3.89h-.66V1.026h.451l.21.369c.217-.282.573-.423 1.067-.423.816 0 1.224.382 1.224 1.145v1.772h-.66z"/>
        <path fill="#FEFEFE" d="M15.851 2.455a2.703 2.703 0 0 0-.406-.052c-.31 0-.562.065-.758.194-.195.13-.293.283-.293.46 0 .292.212.438.635.438.31 0 .583-.12.822-.36v-.68zm.058 1.059c-.245.25-.62.375-1.125.375-.27 0-.506-.08-.704-.24a.739.739 0 0 1-.299-.598c0-.284.153-.526.46-.723.306-.197.697-.295 1.171-.295.13 0 .276.023.439.068 0-.455-.25-.683-.748-.683-.382 0-.677.084-.883.252l-.258-.417c.116-.077.277-.143.482-.198.205-.055.401-.083.588-.083.501 0 .865.093 1.091.278.227.186.34.481.34.885v1.008c0 .247.09.412.271.494v.25c-.25 0-.435-.03-.559-.087a.516.516 0 0 1-.266-.286zM19.026 3.889V2.224c0-.305-.06-.519-.178-.64-.12-.123-.32-.184-.6-.184-.151 0-.31.035-.473.104-.165.07-.291.156-.38.257V3.89h-.66V1.026h.452l.208.369c.218-.282.574-.423 1.068-.423.816 0 1.224.382 1.224 1.145v1.772h-.66zM22.62 1.253l-.314.352a1.046 1.046 0 0 0-.342-.145 1.81 1.81 0 0 0-.483-.068c-.345 0-.619.095-.822.285-.202.19-.303.45-.303.781 0 .33.103.58.31.752.207.173.495.259.862.259.285 0 .573-.087.862-.26l.25.42c-.34.173-.762.26-1.266.26-.487 0-.89-.129-1.209-.386-.318-.257-.477-.606-.477-1.045 0-.448.165-.808.496-1.08.33-.27.783-.406 1.357-.406.185 0 .386.03.602.092.216.061.375.124.477.189M24.305 0c.089 0 .164.03.226.09.063.061.094.134.094.218 0 .086-.031.16-.094.22a.313.313 0 0 1-.226.09.309.309 0 0 1-.223-.09.295.295 0 0 1-.094-.22.311.311 0 0 1 .317-.308zm-.282 3.889v-2.4h-.398v-.422h.914v2.822h-.516zM26.68 2.455a2.703 2.703 0 0 0-.407-.052c-.31 0-.562.065-.757.194-.196.13-.294.283-.294.46 0 .292.212.438.635.438.31 0 .584-.12.822-.36v-.68zm.057 1.059c-.245.25-.62.375-1.125.375-.27 0-.506-.08-.704-.24a.739.739 0 0 1-.299-.598c0-.284.154-.526.46-.723.306-.197.697-.295 1.171-.295.13 0 .276.023.44.068 0-.455-.25-.683-.749-.683-.382 0-.677.084-.883.252l-.258-.417c.116-.077.277-.143.482-.198.205-.055.401-.083.588-.083.501 0 .865.093 1.092.278.226.186.34.481.34.885v1.008c0 .247.09.412.27.494v.25c-.25 0-.435-.03-.559-.087a.518.518 0 0 1-.266-.286zM29.912 1.747c-.153-.183-.362-.274-.627-.274-.324 0-.586.096-.787.29-.2.193-.3.439-.3.737 0 .656.373.984 1.12.984.095 0 .209-.023.342-.072.134-.048.218-.1.252-.154v-1.51zm0 2.091v-.2c-.21.167-.515.25-.916.25-.426 0-.771-.121-1.036-.365s-.398-.57-.398-.977c0-.409.153-.758.458-1.047.306-.289.669-.433 1.09-.433.352 0 .619.066.802.198V0h.604v3.838h-.604zM32.11 2.424c0 .706.29 1.058.868 1.058.27 0 .482-.094.636-.284.153-.188.23-.446.23-.774 0-.697-.29-1.045-.866-1.045a.786.786 0 0 0-.632.279c-.158.185-.236.44-.236.766m-.61 0c0-.434.136-.784.407-1.051.271-.267.628-.4 1.07-.4.469 0 .831.128 1.09.384.257.256.386.612.386 1.067 0 .453-.132.811-.396 1.073-.264.261-.623.392-1.08.392-.464 0-.826-.132-1.087-.396-.26-.265-.39-.621-.39-1.069M37.023 1.618v1.606c.039.047.119.09.241.133.122.042.241.063.358.063.746 0 1.12-.343 1.12-1.03 0-.348-.089-.603-.266-.764-.177-.162-.46-.242-.851-.242a.883.883 0 0 0-.31.072 1.05 1.05 0 0 0-.292.162m0 2.01v1.233h-.601V1.024h.601v.226c.228-.185.504-.278.826-.278.482 0 .856.122 1.124.366.268.243.402.6.402 1.07 0 .42-.135.761-.405 1.026s-.66.398-1.17.398a1.91 1.91 0 0 1-.462-.062c-.163-.041-.268-.088-.315-.142M39.985 2.424c0 .706.29 1.058.868 1.058.27 0 .482-.094.636-.284.153-.188.23-.446.23-.774 0-.697-.29-1.045-.866-1.045a.786.786 0 0 0-.632.279c-.158.185-.236.44-.236.766m-.61 0c0-.434.136-.784.407-1.051.271-.267.628-.4 1.07-.4.469 0 .831.128 1.09.384.257.256.386.612.386 1.067 0 .453-.132.811-.396 1.073-.264.261-.623.392-1.08.392-.464 0-.826-.132-1.087-.396-.26-.265-.39-.621-.39-1.069M45.04 1.515a.727.727 0 0 0-.38-.115.714.714 0 0 0-.539.249.852.852 0 0 0-.23.599v1.64h-.578V1.027h.579v.457c.21-.34.525-.51.941-.51.104 0 .253.015.448.047l-.24.495zM45.781 3.098c.138 0 .255.039.354.116.097.077.146.17.146.278a.348.348 0 0 1-.146.28.55.55 0 0 1-.354.117.55.55 0 0 1-.353-.117.348.348 0 0 1-.147-.28c0-.108.05-.2.147-.278a.555.555 0 0 1 .353-.116m0-2.126c.138 0 .255.039.354.116.097.077.146.17.146.278a.348.348 0 0 1-.146.28.55.55 0 0 1-.354.116.55.55 0 0 1-.353-.117.348.348 0 0 1-.147-.28c0-.108.05-.2.147-.277a.555.555 0 0 1 .353-.116M185.496 25.254l-.592-.433-.593.433.228-.702-.594-.43h.732l.227-.703.225.704h.732l-.592.43.227.701zm-.918 3.905l-.592-.433-.593.433.226-.7-.593-.433h.734l.226-.698.227.698h.731l-.59.433.224.7zm-2.811-10.75l.227.7-.592-.434-.595.434.225-.7-.589-.431h.73l.229-.7.225.7h.732l-.592.431zm.023 13.38l-.591-.432-.593.433.23-.703-.595-.428h.731l.227-.7.226.7h.732l-.593.428.226.703zm-3.703-14.43l.227.701-.593-.434-.592.434.227-.7-.595-.438h.734l.226-.699.225.7h.732l-.59.436zm.227 15.216l-.593-.429-.592.43.227-.7-.595-.434h.734l.226-.697.225.697h.732l-.59.434.226.7zm-3.564-.785l-.591-.433-.593.433.225-.703-.593-.428h.735l.226-.7.225.7h.733l-.593.428.226.703zm-1.019-13.812l.227-.7.226.7h.73l-.59.431.227.7-.593-.434-.592.434.225-.7-.592-.431h.732zm-1.992 3.133l.226.704-.593-.434-.593.434.226-.704-.59-.432h.732l.225-.7.227.7h.732l-.592.432zm.226 8.048l-.593-.433-.593.433.226-.7-.59-.433h.732l.225-.698.227.698h.732l-.592.433.226.7zm-2.47-5.036h.731l.228-.704.227.704h.732l-.593.43.226.701-.592-.433-.593.433.228-.702-.595-.43zm14.265-3.444l.226-.7.227.7h.731l-.59.432.224.704-.592-.434-.593.434.226-.704-.593-.432h.734zM161.438 35h32.484V13.611h-32.484V35zM201.3 13.611h.497v2.21c0 .384-.043.69-.128.915a1.113 1.113 0 0 1-.462.552c-.223.142-.516.212-.878.212-.352 0-.639-.061-.862-.186a1.047 1.047 0 0 1-.48-.535c-.095-.234-.143-.553-.143-.959v-2.209h.497v2.207c0 .331.03.576.091.735.06.157.165.278.312.363.148.086.329.127.541.127.366 0 .626-.083.781-.252.156-.168.234-.492.234-.973V13.61zM202.781 17.5v-2.917h.509l1.968 2.29v-2.29h.476V17.5h-.509l-1.967-2.292V17.5z"/>
        <mask id="j" fill="#fff">
            <use xlink:href="#i"/>
        </mask>
        <path fill="#FEFEFE" d="M205.779 17.5h.895v-2.917h-.895zM207.63 16.189h1.07l-.33-.883c-.1-.269-.175-.49-.224-.66a4.04 4.04 0 0 1-.17.608l-.346.935zm-.153-2.075c-.001-.15.04-.272.124-.362a.406.406 0 0 1 .313-.134c.089 0 .21.039.363.117a.48.48 0 0 0 .203.066c.046 0 .081-.013.105-.038.025-.026.042-.076.052-.152h.28c-.005.166-.046.29-.124.373a.394.394 0 0 1-.298.124c-.09 0-.209-.04-.357-.122a.514.514 0 0 0-.21-.078.148.148 0 0 0-.12.052c-.03.034-.046.085-.044.154h-.287zm-.758 3.386l1.212-3.19h.45l1.29 3.19h-.475l-.367-.967h-1.32l-.346.967h-.444zM211.077 15.614c0 .453.1.81.301 1.069.2.262.45.393.752.393.308 0 .562-.133.76-.396.198-.263.298-.637.298-1.12 0-.307-.042-.572-.128-.8a1.138 1.138 0 0 0-.373-.532.883.883 0 0 0-.55-.188c-.29 0-.538.121-.747.363-.209.241-.313.645-.313 1.21m-.42-.008c0-.623.137-1.112.412-1.465.275-.351.63-.529 1.065-.529.286 0 .543.084.772.25.228.165.404.395.523.694.12.295.18.632.18 1.007 0 .382-.062.723-.189 1.023-.127.301-.305.53-.537.683a1.318 1.318 0 0 1-.75.232c-.29 0-.55-.085-.78-.256a1.589 1.589 0 0 1-.52-.7 2.521 2.521 0 0 1-.177-.939M215.578 17.5v-2.917h2.862v.345h-2.338v.893h2.189v.342h-2.19v.992h2.43v.345zM220.987 13.611h.497v2.21c0 .384-.043.69-.128.915a1.114 1.114 0 0 1-.462.552c-.223.142-.516.212-.878.212-.352 0-.638-.061-.862-.186a1.049 1.049 0 0 1-.48-.535c-.095-.234-.143-.553-.143-.959v-2.209h.497v2.207c0 .331.031.576.091.735.06.157.166.278.312.363.148.086.33.127.542.127.365 0 .626-.083.78-.252.157-.168.234-.492.234-.973V13.61zM222.913 15.87h.953c.203 0 .362-.018.475-.055a.502.502 0 0 0 .261-.174.435.435 0 0 0 .089-.262.41.41 0 0 0-.172-.34c-.117-.088-.298-.133-.545-.133h-1.061v.964zm-.444 1.63v-2.917h1.486c.299 0 .525.027.68.08a.723.723 0 0 1 .374.277c.093.132.14.279.14.44a.682.682 0 0 1-.231.522c-.154.142-.392.232-.714.27.119.05.206.098.267.146.13.103.253.232.37.387l.58.795h-.556l-.444-.607a5.645 5.645 0 0 0-.32-.402.937.937 0 0 0-.225-.194.686.686 0 0 0-.202-.078 1.476 1.476 0 0 0-.247-.014h-.514V17.5h-.444zM225.843 15.614c0 .453.1.81.3 1.069.2.262.451.393.753.393.307 0 .562-.133.76-.396.198-.263.298-.637.298-1.12 0-.307-.043-.572-.128-.8a1.138 1.138 0 0 0-.373-.532.883.883 0 0 0-.55-.188c-.29 0-.538.121-.747.363-.209.241-.313.645-.313 1.21m-.421-.008c0-.623.138-1.112.412-1.465.276-.351.631-.529 1.066-.529.285 0 .542.084.772.25.228.165.403.395.523.694.12.295.18.632.18 1.007 0 .382-.063.723-.19 1.023-.126.301-.305.53-.537.683a1.318 1.318 0 0 1-.75.232c-.29 0-.55-.085-.779-.256a1.578 1.578 0 0 1-.52-.7 2.512 2.512 0 0 1-.177-.939M229.871 15.97h1.001c.33 0 .565-.046.705-.14a.446.446 0 0 0 .208-.391.437.437 0 0 0-.123-.314.594.594 0 0 0-.323-.171 2.81 2.81 0 0 0-.477-.027h-.99v1.043zm-.512 1.53v-2.917h1.46c.257 0 .453.01.59.028.19.025.347.07.477.136a.803.803 0 0 1 .309.282.71.71 0 0 1 .118.397c0 .25-.105.458-.314.63-.21.173-.587.258-1.136.258h-.992V17.5h-.512z" mask="url(#j)"/>
        <path fill="#FEFEFE" d="M232.313 17.5v-2.917h2.86v.345h-2.337v.893h2.19v.342h-2.19v.992h2.43v.345zM235.31 17.5h.896v-2.917h-.896zM238.145 16.301h1.07l-.33-.807a7.947 7.947 0 0 1-.224-.604c-.04.187-.096.373-.17.557l-.346.854zm-.91 1.199l1.211-2.917h.45l1.292 2.917h-.477l-.367-.884h-1.32l-.346.884h-.444zM198.844 29.167V26.25h1.969v.344h-1.583v.904h1.37v.344h-1.37v1.325zM202.413 29.123v-.28c-.19.215-.446.324-.77.324-.144 0-.277-.023-.402-.066a.663.663 0 0 1-.276-.161.562.562 0 0 1-.127-.24 1.304 1.304 0 0 1-.025-.3v-1.178h.412v1.054c0 .169.008.282.025.34a.34.34 0 0 0 .165.2.602.602 0 0 0 .31.073.837.837 0 0 0 .348-.075.472.472 0 0 0 .23-.202.828.828 0 0 0 .066-.372v-1.018h.412v1.901h-.368zM203.766 29.167v-1.902h.37v.27c.177-.21.435-.313.77-.313.147 0 .28.02.404.06a.648.648 0 0 1 .274.163c.061.068.104.147.128.238.015.06.022.164.022.314v1.17h-.41V28.01a.7.7 0 0 0-.048-.295.349.349 0 0 0-.17-.156.661.661 0 0 0-.286-.059.783.783 0 0 0-.453.132c-.127.087-.19.252-.19.496v1.039h-.411z" mask="url(#j)"/>
        <path fill="#FEFEFE" d="M206.13 28.083c0 .265.061.465.184.596a.571.571 0 0 0 .434.197.559.559 0 0 0 .428-.189c.118-.124.177-.317.177-.575 0-.285-.06-.493-.18-.627a.574.574 0 0 0-.442-.2.554.554 0 0 0-.43.193c-.113.127-.171.329-.171.605zm1.216 1.036v-.261c-.144.205-.356.309-.635.309a.961.961 0 0 1-.498-.137.914.914 0 0 1-.353-.383 1.22 1.22 0 0 1-.126-.564c0-.208.04-.397.114-.566a.833.833 0 0 1 .34-.388c.15-.09.32-.135.507-.135a.83.83 0 0 1 .365.079.763.763 0 0 1 .262.207v-1.03h.381v2.87h-.357z" mask="url(#j)"/>
        <path fill="#FEFEFE" d="M208.07 28.194c0 .238.058.417.175.535.118.12.266.177.444.177a.587.587 0 0 0 .44-.178c.118-.118.177-.3.177-.544 0-.23-.06-.405-.177-.523a.596.596 0 0 0-.44-.178.6.6 0 0 0-.444.177c-.117.118-.176.296-.176.534m-.366 0c0-.345.109-.6.325-.766.18-.138.401-.206.66-.206.289 0 .525.083.708.251.184.167.276.399.276.695 0 .24-.041.427-.121.565a.808.808 0 0 1-.355.319 1.135 1.135 0 0 1-.507.115c-.295 0-.532-.085-.713-.252-.182-.166-.273-.408-.273-.72M211.64 29.167V26.25h1.908v.344h-1.558v.893h1.46v.343h-1.46v.991h1.62v.346zM215.21 29.123v-.28c-.19.215-.446.324-.77.324a1.22 1.22 0 0 1-.402-.066.664.664 0 0 1-.275-.161.534.534 0 0 1-.128-.24 1.338 1.338 0 0 1-.026-.3v-1.178h.413v1.054c0 .169.008.282.024.34.026.085.08.152.165.2a.61.61 0 0 0 .311.073.84.84 0 0 0 .348-.075.465.465 0 0 0 .23-.202.826.826 0 0 0 .068-.372v-1.018h.41v1.901h-.368zM216.563 29.167v-1.902h.275v.287c.071-.134.136-.224.196-.266a.327.327 0 0 1 .197-.064c.103 0 .209.035.316.103l-.106.299a.428.428 0 0 0-.224-.07.277.277 0 0 0-.182.064.343.343 0 0 0-.115.177c-.033.115-.05.24-.05.375v.997h-.308zM217.913 28.194c0 .238.058.417.176.535.117.12.265.177.444.177a.588.588 0 0 0 .44-.178c.117-.118.176-.3.176-.544 0-.23-.06-.405-.177-.523a.595.595 0 0 0-.44-.178.6.6 0 0 0-.443.177c-.118.118-.176.296-.176.534m-.366 0c0-.345.109-.6.325-.766.18-.138.4-.206.66-.206.289 0 .524.083.708.251.183.167.276.399.276.695 0 .24-.041.427-.122.565a.807.807 0 0 1-.354.319 1.138 1.138 0 0 1-.507.115c-.295 0-.532-.085-.714-.252-.181-.166-.272-.408-.272-.72M219.864 28.317c0 .268.06.465.178.593.117.126.26.19.427.19.171 0 .318-.064.44-.197.121-.133.182-.337.182-.616 0-.262-.059-.46-.178-.593a.556.556 0 0 0-.426-.197.573.573 0 0 0-.434.21c-.126.14-.189.344-.189.61zm-.348 1.822v-2.87h.35v.268a.828.828 0 0 1 .28-.236.818.818 0 0 1 .377-.079.95.95 0 0 1 .513.137c.147.09.259.22.335.385.075.166.113.348.113.545 0 .214-.041.404-.126.574a.873.873 0 0 1-.361.39.994.994 0 0 1-.501.137.781.781 0 0 1-.596-.26v1.009h-.384z" mask="url(#j)"/>
        <path fill="#FEFEFE" d="M221.878 28.015h1.194c-.016-.157-.062-.273-.137-.352a.592.592 0 0 0-.448-.182.62.62 0 0 0-.42.145.545.545 0 0 0-.189.39m1.189.51l.374.04a.795.795 0 0 1-.327.443c-.16.105-.363.158-.611.158-.313 0-.56-.085-.743-.252-.184-.168-.276-.403-.276-.705 0-.313.092-.557.279-.73.184-.172.424-.258.72-.258.285 0 .52.084.7.254.18.17.27.408.27.714v.084h-1.594c.013.205.08.362.198.47.12.109.269.163.447.163a.61.61 0 0 0 .34-.09.602.602 0 0 0 .223-.291M226.039 29.123v-.28c-.19.215-.447.324-.771.324-.144 0-.277-.023-.401-.066a.663.663 0 0 1-.276-.161.55.55 0 0 1-.128-.24 1.297 1.297 0 0 1-.025-.3v-1.178h.413v1.054c0 .169.007.282.024.34a.34.34 0 0 0 .166.2.599.599 0 0 0 .31.073.84.84 0 0 0 .348-.075.468.468 0 0 0 .229-.202.82.82 0 0 0 .066-.372v-1.018h.412v1.901h-.367zM199.24 31.97c0 .268.061.466.184.598a.57.57 0 0 0 .433.198c.17 0 .312-.063.429-.19.118-.125.177-.318.177-.575 0-.285-.06-.494-.18-.627a.57.57 0 0 0-.443-.2.553.553 0 0 0-.428.193c-.115.126-.173.328-.173.604zm1.216 1.038v-.261c-.144.205-.356.309-.635.309a.95.95 0 0 1-.498-.137.917.917 0 0 1-.354-.384 1.214 1.214 0 0 1-.125-.564c0-.208.04-.396.114-.564.075-.17.188-.3.34-.39.15-.089.32-.135.506-.135.136 0 .259.028.366.08a.744.744 0 0 1 .261.206v-1.03h.381v2.87h-.356zM201.208 31.904h1.192c-.017-.156-.062-.273-.137-.351a.587.587 0 0 0-.449-.183.621.621 0 0 0-.419.146.54.54 0 0 0-.187.388m1.188.51l.374.04a.797.797 0 0 1-.329.444c-.159.106-.363.158-.61.158-.312 0-.56-.084-.743-.251-.183-.168-.275-.404-.275-.706 0-.313.094-.556.278-.729.186-.172.424-.259.72-.259.286 0 .518.085.7.254.18.17.27.408.27.715 0 .018 0 .046-.002.084h-1.592c.014.204.08.36.2.47a.64.64 0 0 0 .445.163c.134 0 .246-.03.34-.092a.607.607 0 0 0 .224-.29M205.065 32.711h.509c.156 0 .28-.017.37-.053a.509.509 0 0 0 .212-.152.98.98 0 0 0 .176-.37c.04-.153.062-.34.062-.56 0-.305-.04-.54-.123-.703-.082-.164-.181-.275-.298-.33-.084-.04-.22-.06-.407-.06h-.5v2.228zm-.315.345v-2.917h.82c.186 0 .327.014.425.042.136.04.252.108.349.209.125.13.219.296.281.498.063.203.094.434.094.692 0 .223-.021.42-.063.59a1.581 1.581 0 0 1-.163.426c-.066.11-.138.2-.217.264a.795.795 0 0 1-.284.146c-.11.033-.238.05-.383.05h-.859zM207.113 31.904h1.193c-.016-.156-.061-.273-.136-.351a.59.59 0 0 0-.449-.183.62.62 0 0 0-.419.146.54.54 0 0 0-.189.388m1.189.51l.374.04a.8.8 0 0 1-.327.444c-.16.106-.364.158-.611.158-.314 0-.562-.084-.744-.251-.184-.168-.275-.404-.275-.706 0-.313.092-.556.279-.729.184-.172.424-.259.719-.259.285 0 .52.085.7.254.18.17.27.408.27.715v.084h-1.593c.013.204.079.36.198.47.119.108.268.163.447.163.133 0 .246-.03.34-.092a.599.599 0 0 0 .223-.29M209.672 32.459l.398-.05c.022.126.084.22.186.287.102.068.244.1.427.1.185 0 .322-.029.411-.087.09-.061.134-.13.134-.209 0-.07-.04-.127-.118-.168-.055-.028-.192-.064-.411-.107a4.61 4.61 0 0 1-.612-.151.576.576 0 0 1-.26-.177.397.397 0 0 1-.015-.48.564.564 0 0 1 .197-.176c.063-.036.148-.066.256-.092a1.56 1.56 0 0 1 .347-.038c.186 0 .349.021.49.064a.7.7 0 0 1 .312.17.593.593 0 0 1 .136.288l-.391.042a.325.325 0 0 0-.156-.224.69.69 0 0 0-.362-.08c-.185 0-.317.024-.395.071-.08.048-.118.104-.118.168 0 .041.016.078.049.111.033.034.084.06.153.084.04.011.16.038.356.08.283.06.482.108.594.147.113.037.2.094.264.165a.395.395 0 0 1 .097.27c0 .105-.04.203-.117.297a.765.765 0 0 1-.338.215 1.525 1.525 0 0 1-.5.077c-.308 0-.543-.051-.705-.15a.681.681 0 0 1-.31-.447M212.035 31.904h1.192c-.016-.156-.06-.273-.136-.351a.591.591 0 0 0-.449-.183.62.62 0 0 0-.419.146.542.542 0 0 0-.188.388m1.188.51l.375.04a.8.8 0 0 1-.328.444c-.16.106-.363.158-.611.158-.313 0-.561-.084-.743-.251-.184-.168-.275-.404-.275-.706 0-.313.092-.556.278-.729.184-.172.425-.259.72-.259.285 0 .52.085.7.254.18.17.27.408.27.715l-.001.084h-1.593c.013.204.08.36.199.47a.641.641 0 0 0 .446.163c.133 0 .247-.03.34-.092a.6.6 0 0 0 .223-.29M213.61 33.056v-1.902h.37v.27c.177-.209.433-.313.77-.313.146 0 .28.02.402.062.123.04.214.095.275.161.06.067.103.147.128.238.016.06.023.165.023.314v1.17h-.411v-1.157a.693.693 0 0 0-.048-.295.343.343 0 0 0-.17-.155.64.64 0 0 0-.286-.059.787.787 0 0 0-.453.13c-.126.088-.191.253-.191.497v1.039h-.41zM216.394 33.056l-.816-1.945h.384l.462 1.164c.05.127.095.257.137.392.032-.102.077-.225.135-.369l.477-1.187h.374l-.813 1.945h-.34zM217.913 32.083c0 .238.058.417.175.535a.6.6 0 0 0 .444.179c.177 0 .324-.06.443-.18.117-.118.174-.3.174-.544 0-.23-.057-.405-.176-.524a.596.596 0 0 0-.441-.177.604.604 0 0 0-.444.176c-.117.12-.175.296-.175.535m-.366 0c0-.345.108-.6.324-.765.18-.138.401-.207.66-.207.29 0 .527.084.71.252.183.167.275.398.275.693 0 .24-.04.428-.121.566a.818.818 0 0 1-.355.32 1.139 1.139 0 0 1-.508.114c-.293 0-.532-.084-.713-.25-.181-.168-.272-.41-.272-.723M219.662 33.056h.691v-2.917h-.69zM221.317 33.056l-.817-1.945h.384l.462 1.164c.049.127.095.257.137.392.032-.102.077-.225.135-.369l.477-1.187h.374l-.813 1.945h-.34zM223.453 33.056h.704v-2.113h-.704v2.113zm0-2.505h.704v-.412h-.704v.412zM224.438 33.056v-1.902h.33v.267a.74.74 0 0 1 .274-.225.838.838 0 0 1 .387-.085c.161 0 .294.029.398.087.103.06.175.14.217.245a.815.815 0 0 1 .674-.332c.216 0 .382.051.499.157.116.104.174.264.174.482v1.306h-.367v-1.198a.783.783 0 0 0-.035-.279.286.286 0 0 0-.131-.137.45.45 0 0 0-.223-.052.556.556 0 0 0-.38.134c-.102.089-.152.231-.152.427v1.105h-.37V31.82c0-.144-.03-.25-.09-.322-.06-.071-.16-.108-.296-.108-.104 0-.2.024-.288.071a.422.422 0 0 0-.192.21c-.04.093-.06.225-.06.399v.986h-.37zM227.785 31.904h1.192c-.015-.156-.06-.273-.136-.351a.59.59 0 0 0-.448-.183.62.62 0 0 0-.42.146.54.54 0 0 0-.188.388m1.188.51l.375.04a.797.797 0 0 1-.328.444c-.16.106-.363.158-.612.158-.312 0-.56-.084-.742-.251-.184-.168-.275-.404-.275-.706 0-.313.092-.556.278-.729.184-.172.425-.259.72-.259.285 0 .52.085.7.254.18.17.27.408.27.715l-.001.084h-1.593c.013.204.08.36.199.47a.64.64 0 0 0 .446.163c.133 0 .247-.03.34-.092a.598.598 0 0 0 .223-.29M229.36 33.056v-1.902h.37v.27c.177-.209.433-.313.77-.313.146 0 .28.02.402.062.123.04.214.095.275.161.06.067.103.147.128.238.016.06.023.165.023.314v1.17h-.41v-1.157a.691.691 0 0 0-.049-.295.343.343 0 0 0-.17-.155.64.64 0 0 0-.286-.059.787.787 0 0 0-.453.13c-.126.088-.192.253-.192.497v1.039h-.409zM232.263 32.703l.05.32a1.163 1.163 0 0 1-.259.033.55.55 0 0 1-.289-.063.35.35 0 0 1-.145-.164c-.027-.068-.042-.21-.042-.428v-1.233h-.25v-.28h.25v-.532l.342-.217v.748h.343v.281h-.343v1.252a.67.67 0 0 0 .018.2c.011.03.03.052.059.07a.22.22 0 0 0 .116.026.96.96 0 0 0 .15-.013M232.679 32.083c0 .238.058.417.175.535.118.12.266.179.443.179.178 0 .324-.06.442-.18.118-.118.175-.3.175-.544 0-.23-.057-.405-.175-.524a.6.6 0 0 0-.442-.177.602.602 0 0 0-.443.176c-.117.12-.175.296-.175.535m-.367 0c0-.345.108-.6.325-.765.18-.138.4-.207.66-.207.29 0 .526.084.71.252.182.167.274.398.274.693 0 .24-.04.428-.121.566a.815.815 0 0 1-.355.32 1.141 1.141 0 0 1-.508.114c-.293 0-.532-.084-.712-.25-.181-.168-.273-.41-.273-.723M236.693 31.426h.953c.203 0 .362-.018.476-.053a.526.526 0 0 0 .261-.176.432.432 0 0 0 .089-.262.415.415 0 0 0-.172-.341c-.116-.088-.298-.133-.547-.133h-1.06v.965zm-.443 1.63v-2.917h1.485c.299 0 .527.026.681.078a.753.753 0 0 1 .513.718c0 .206-.077.38-.23.522-.155.144-.393.234-.714.272.117.048.206.097.267.146.13.103.253.232.368.388l.583.793h-.557l-.444-.607a5.303 5.303 0 0 0-.32-.401.944.944 0 0 0-.225-.196.704.704 0 0 0-.202-.077 1.583 1.583 0 0 0-.248-.015h-.514v1.296h-.443zM239.598 31.904h1.192a.58.58 0 0 0-.137-.351.587.587 0 0 0-.448-.183.624.624 0 0 0-.42.146.541.541 0 0 0-.187.388m1.188.51l.374.04a.794.794 0 0 1-.328.444c-.16.106-.363.158-.611.158-.312 0-.56-.084-.743-.251-.182-.168-.275-.404-.275-.706 0-.313.094-.556.279-.729.185-.172.424-.259.719-.259.286 0 .519.085.7.254.181.17.27.408.27.715l-.001.084h-1.592c.014.204.08.36.199.47.119.108.269.163.446.163.134 0 .246-.03.34-.092a.605.605 0 0 0 .223-.29M241.561 32.142c0 .268.058.462.174.585a.576.576 0 0 0 .438.186.58.58 0 0 0 .437-.184c.118-.123.177-.314.177-.575 0-.251-.06-.439-.181-.565a.585.585 0 0 0-.44-.191.566.566 0 0 0-.428.188c-.119.124-.177.31-.177.556m-.314 1.227l.369.05a.313.313 0 0 0 .128.226.671.671 0 0 0 .385.097c.175 0 .31-.033.406-.097a.472.472 0 0 0 .193-.269c.02-.07.03-.22.028-.445a.808.808 0 0 1-.618.268c-.308 0-.545-.101-.715-.303a1.112 1.112 0 0 1-.251-.73c0-.194.039-.373.115-.538a.863.863 0 0 1 .336-.382.967.967 0 0 1 .516-.135c.263 0 .481.099.653.293v-.246h.349v1.765c0 .317-.036.542-.106.675a.754.754 0 0 1-.337.315 1.265 1.265 0 0 1-.567.115c-.267 0-.481-.055-.646-.164-.164-.11-.243-.276-.238-.495" mask="url(#j)"/>
        <path fill="#FEFEFE" d="M243.14 33.056h.706v-2.113h-.705v2.113zm0-2.505h.706v-.412h-.705v.412zM244.491 32.083c0 .238.059.417.175.535a.6.6 0 0 0 .444.179c.177 0 .324-.06.443-.18.117-.118.174-.3.174-.544 0-.23-.057-.405-.176-.524a.597.597 0 0 0-.441-.177.604.604 0 0 0-.444.176c-.116.12-.175.296-.175.535m-.366 0c0-.345.108-.6.324-.765.18-.138.401-.207.66-.207.29 0 .527.084.71.252.183.167.275.398.275.693 0 .24-.04.428-.121.566a.816.816 0 0 1-.355.32 1.137 1.137 0 0 1-.508.114c-.293 0-.532-.084-.713-.25-.18-.168-.272-.41-.272-.723M247.078 33.056v-1.902h.37v.27c.177-.209.434-.313.77-.313.146 0 .281.02.403.062.124.04.215.095.275.161.061.067.104.147.128.238.016.06.023.165.023.314v1.17h-.41v-1.157a.691.691 0 0 0-.049-.295.345.345 0 0 0-.17-.155.641.641 0 0 0-.286-.059.787.787 0 0 0-.453.13c-.126.088-.191.253-.191.497v1.039h-.41z" mask="url(#j)"/>
        <path fill="#FEFEFE" d="M250.535 32.08c-.132.046-.33.086-.593.12a1.502 1.502 0 0 0-.315.061.295.295 0 0 0-.143.103.254.254 0 0 0 .06.36c.072.055.179.084.32.084a.83.83 0 0 0 .373-.08.53.53 0 0 0 .239-.217.68.68 0 0 0 .059-.316v-.116zm.03.704a1.42 1.42 0 0 1-.388.21 1.262 1.262 0 0 1-.399.062c-.235 0-.415-.051-.542-.15a.469.469 0 0 1-.19-.383c0-.091.025-.175.073-.25a.532.532 0 0 1 .187-.18.96.96 0 0 1 .26-.104c.071-.017.18-.032.323-.048.291-.03.508-.066.646-.109l.001-.081c0-.13-.033-.22-.102-.273-.093-.07-.231-.106-.414-.106-.169 0-.294.026-.376.078-.082.052-.142.144-.18.276l-.355-.042a.727.727 0 0 1 .16-.32.725.725 0 0 1 .32-.188c.139-.043.301-.065.484-.065s.33.019.446.057a.604.604 0 0 1 .25.14.471.471 0 0 1 .114.214c.011.054.018.15.018.291v.42c0 .294.008.48.023.557a.637.637 0 0 0 .092.223h-.38a.58.58 0 0 1-.07-.23zM251.162 33.056h.691v-2.917h-.69z" mask="url(#j)"/>
    </g>
</svg>
