<?xml version="1.0" encoding="UTF-8"?>
<svg width="487px" height="156px" viewBox="0 0 487 156" version="1.1" xmlns="http://www.w3.org/2000/svg" xmlns:xlink="http://www.w3.org/1999/xlink">
    <title>Logo-Instituto-Politecnico-de-Braganca-claro</title>
    <defs>
        <path d="M70.7107792,1.15891969e-13 C73.0040245,0.0108911338 74.826383,0.65909803 77.2207226,1.5547532 C79.6150623,2.44771872 82.3738736,3.67958079 85.4200057,5.15620148 C91.5202509,8.10944286 98.7484962,12.0605463 105.843723,16.2564084 C112.941609,20.4549601 119.890515,24.8928911 125.429421,28.8224773 C128.196213,30.7859256 130.606515,32.6256498 132.553911,34.2986153 C134.501308,35.9715808 135.956534,37.2545463 137.095175,39.2717877 C138.233817,41.2917187 138.584987,43.2148222 139.018628,45.7646153 C139.45227,48.3144084 139.790138,51.3617877 140.056175,54.7803394 C140.585591,61.6174429 140.825025,69.939236 140.79044,78.2744773 C140.755855,86.6097187 140.452572,94.9261325 139.864628,101.757857 C139.571987,105.176408 139.207515,108.213029 138.752591,110.760133 C138.297666,113.307236 137.941175,115.233029 136.786572,117.242201 C135.631968,119.251374 134.16344,120.523581 132.202742,122.180408 C130.242043,123.837236 127.813119,125.652753 125.027704,127.597374 C119.456874,131.481236 112.462742,135.851926 105.33293,139.988615 C98.2004585,144.127995 90.9535906,148.022615 84.8320623,150.922064 C81.7699679,152.377167 78.9978547,153.574064 76.595534,154.448201 C74.1958736,155.322339 72.3708547,155.959788 70.0802698,155.951794 C67.7870245,155.94096 65.964666,155.281995 63.5703264,154.389029 C61.1759868,153.493374 58.4198359,152.27765 55.368383,150.803719 C49.2707981,147.850477 42.0452132,143.891305 34.9473264,139.695443 C27.8521,135.496891 20.8978736,131.067029 15.3616283,127.137443 C12.5921755,125.168615 10.1765528,123.33427 8.22915661,121.661305 C6.28176038,119.988339 4.8345151,118.705374 3.69853396,116.685443 C2.55989245,114.668201 2.20606227,112.745098 1.77242076,110.195305 C1.33877925,107.645512 1.0035717,104.595443 0.737533964,101.176891 C0.20811887,94.3397877 -0.0313150924,86.0206842 0.00326981326,77.6854429 C0.0378547189,69.3475118 0.341137738,61.0230291 0.926420757,54.1913049 C1.21906227,50.7754429 1.58353396,47.7388222 2.03845849,45.1917187 C2.49338302,42.6446153 2.84987359,40.7268911 4.00447736,38.7177187 C5.15908113,36.7085463 6.62760944,35.4363394 8.58830755,33.7795118 C10.5490057,32.1226842 12.9805906,30.3044773 15.7660057,28.3625463 C21.3341755,24.4786842 28.3123453,20.1079946 35.4421566,15.9713049 C42.5746283,11.8319256 49.8347981,7.93461527 55.9589868,5.03247734 C59.0237415,3.5827532 61.7958547,2.38585665 64.1955151,1.51171872 C66.5951755,0.634891134 68.4228547,-0.0106261076 70.7107792,1.15891969e-13 Z M70.676,8.88887071 C70.6396171,8.90177273 70.4680615,8.93522875 70.193395,8.99602044 L69.9685727,9.04681513 C69.3202163,9.196338 68.2921162,9.46003399 67.1458736,9.87654631 C65.1399491,10.6081325 62.5647038,11.7162704 59.6648925,13.0879946 C53.8599491,15.8368222 46.7567415,19.6453739 39.7971943,23.685236 C32.8349868,27.725098 26.0004774,32.0070291 20.7249491,35.689167 C18.0858547,37.5262015 15.8351755,39.2153049 14.1990434,40.6004773 C12.7382112,41.8372384 11.7460839,43.0096742 11.5938078,43.1739641 L11.578,43.1888707 C11.5492726,43.3042336 11.0518819,44.6826941 10.6996171,46.5448196 L10.6580811,46.7705463 C10.2776472,48.8980635 9.92647736,51.7275808 9.64979812,54.963236 C9.09377925,61.437236 8.79315661,69.5815118 8.76123208,77.7204084 C8.72664717,85.8566153 8.96608113,94.0035808 9.47155283,100.48565 C9.7216283,103.723995 10.0302321,106.545443 10.3920434,108.67565 C10.7304814,110.653699 11.2661945,112.151686 11.2941372,112.273759 L11.294,112.275871 C11.3116557,112.291863 11.3498376,112.335471 11.409468,112.403604 L11.5148021,112.523658 C11.8980469,112.958662 12.7473642,113.898362 13.8931,114.880684 C15.5185906,116.279305 17.7586283,117.992615 20.3817604,119.853857 C25.6306849,123.579029 32.4306094,127.917443 39.3608925,132.013788 C46.2858547,136.112822 53.3544774,139.977857 59.1354774,142.775098 C62.0219868,144.173719 64.5998925,145.308753 66.5978359,146.056477 C68.3126391,146.695078 69.7557581,146.983914 70.0593668,147.053406 L70.111027,147.066285 L70.111027,147.066285 C70.2334044,147.030832 71.7770205,146.757709 73.6371943,146.083374 C75.6431189,145.351788 78.2183642,144.24365 81.1208359,142.869236 C86.9231189,140.123098 94.0263264,136.314546 100.988534,132.274684 C107.948081,128.234822 114.790572,123.950201 120.06876,120.270753 C122.705194,118.428339 124.955874,116.733857 126.592006,115.351374 C128.111271,114.065142 129.118998,112.848485 129.206216,112.763072 L129.207,112.761871 C129.234939,112.645011 129.73865,111.266471 130.091402,109.404342 L130.132968,109.178615 C130.513402,107.051098 130.856591,104.232339 131.13327,100.993995 C131.689289,94.5226842 131.997892,86.3703394 132.032477,78.2314429 C132.067062,70.095236 131.824968,61.9428911 131.322157,55.4662015 C131.072081,52.2278567 130.744855,49.4037187 130.383043,47.2735118 C130.044605,45.2954626 129.515774,43.8021139 129.488814,43.6828565 L129.488,43.6808707 C129.397884,43.5918766 128.475983,42.4672802 127.070772,41.2339071 L126.892628,41.079236 C125.267138,39.6806153 123.032421,37.9646153 120.409289,36.1033739 C115.163025,32.3782015 108.357779,28.0424773 101.432817,23.9461325 C94.502534,19.847098 87.4285906,15.9820635 81.6502509,13.1848222 C78.7610811,11.7862015 76.1858359,10.6484773 74.1852321,9.90344286 C72.3299989,9.20912759 70.7936174,8.92761949 70.6794519,8.89094648 L70.676,8.88887071 Z M40.4830396,92.1606291 C42.057983,90.6893877 44.6412094,90.6893877 46.2134925,92.1606291 C59.5792283,104.637939 81.2160774,104.637939 94.5791528,92.1606291 C96.1514359,90.6893877 98.7346623,90.6893877 100.306945,92.1606291 C101.836662,93.5834567 101.836662,95.8642842 100.306945,97.2871118 C83.7966434,112.704215 56.9960019,112.704215 40.4830396,97.2871118 C38.9586434,95.8642842 38.9586434,93.5834567 40.4830396,92.1606291 Z M49.1734283,51.2851325 C53.4619566,51.2851325 56.9390698,54.8005118 56.9390698,59.136236 C56.9390698,63.4692704 53.4619566,66.9846498 49.1734283,66.9846498 C44.8875604,66.9846498 41.4104472,63.4692704 41.4104472,59.136236 C41.4104472,54.8005118 44.8875604,51.2851325 49.1734283,51.2851325 Z M91.6173547,51.2851325 C95.905883,51.2851325 99.3829962,54.8005118 99.3829962,59.136236 C99.3829962,63.4692704 95.905883,66.9846498 91.6173547,66.9846498 C87.3314868,66.9846498 83.8543736,63.4692704 83.8543736,59.136236 C83.8543736,54.8005118 87.3314868,51.2851325 91.6173547,51.2851325 Z" id="path-1"></path>
    </defs>
    <g id="Logo-Instituto-Politecnico-de-Braganca-claro" stroke="none" stroke-width="1" fill="none" fill-rule="evenodd">
        <g id="hive-copy">
            <mask id="mask-2" fill="white">
                <use xlink:href="#path-1"></use>
            </mask>
            <use id="Mask" fill="#FFFFFF" xlink:href="#path-1"></use>
        </g>
        <path d="M172.25,115 L172.25,97.5 L169.3,97.5 L169.3,115 L172.25,115 Z M179.8,115 L179.8,102.45 L189.125,115 L192.025,115 L192.025,97.5 L189.125,97.5 L189.125,110.075 L179.75,97.5 L176.85,97.5 L176.85,115 L179.8,115 Z M202.15,115.1 C206,115.1 208.75005,113.175 208.75005,110.05 C208.775,103.75 199.325,105.8 199.325,101.975 C199.325,100.8 200.45,100.15 202.175,100.15 C203.5,100.15 205.4,100.625 207.3,101.775 L208.525,99.175 C206.9,98.1 204.675,97.375 202.4,97.375 C198.6,97.375 196.025,99.25 196.025,102.25 C196.025,105.46625 198.547625,106.440167 200.986163,107.168161 L201.456388,107.306528 C203.561375,107.920187 205.475,108.445 205.475,110.2 C205.475,111.55 204.25,112.325 202.2,112.325 C200.325,112.325 198.075,111.425 196.275,109.775 L195,112.325 C196.8,113.975 199.4,115.1 202.15,115.1 Z M218.6,115 L218.6,100.15 L224.15,100.15 L224.15,97.5 L210.125,97.5 L210.125,100.15 L215.65,100.15 L215.65,115 L218.6,115 Z M229.625,115 L229.625,97.5 L226.675,97.5 L226.675,115 L229.625,115 Z M240.625,115 L240.625,100.15 L246.175,100.15 L246.175,97.5 L232.15,97.5 L232.15,100.15 L237.675,100.15 L237.675,115 L240.625,115 Z M255.975,115.125 C260.7,115.125 263.575,112.325 263.575,107.75 L263.575,97.5 L260.625,97.5 L260.625,107.75 C260.625,110.725 258.85,112.475 256,112.475 C253.125,112.475 251.3,110.7 251.3,107.75 L251.3,97.5 L248.35,97.5 L248.35,107.75 C248.35,112.325 251.25,115.125 255.975,115.125 Z M274.2,115 L274.2,100.15 L279.75,100.15 L279.75,97.5 L265.725,97.5 L265.725,100.15 L271.25,100.15 L271.25,115 L274.2,115 Z M290.1,115.125 C295.325,115.125 299.375,111.25 299.375,106.25 C299.375,101.25 295.325,97.425 290.1,97.425 C284.875,97.425 280.825,101.225 280.825,106.25 C280.825,111.25 284.875,115.125 290.1,115.125 Z M290.125,112.475 C286.7,112.475 283.825,109.725 283.825,106.25 C283.825,102.775 286.675,100.075 290.125,100.075 C293.55,100.075 296.35,102.775 296.35,106.25 C296.35,109.725 293.55,112.475 290.125,112.475 Z M311.925,115 L311.925,109.725 L315.95,109.725 C320.35,109.725 322.875,107.425 322.875,103.475 C322.875,99.675 320.35,97.5 315.95,97.5 L308.975,97.5 L308.975,115 L311.925,115 Z M315.825,107.075 L311.925,107.075 L311.925,100.15 L315.825,100.15 C318.525,100.15 320.05,101.25 320.05,103.55 C320.05,105.925 318.525,107.075 315.825,107.075 Z M333.625,115.125 C338.85,115.125 342.9,111.25 342.9,106.25 C342.9,101.25 338.85,97.425 333.625,97.425 C328.4,97.425 324.35,101.225 324.35,106.25 C324.35,111.25 328.4,115.125 333.625,115.125 Z M333.65,112.475 C330.225,112.475 327.35,109.725 327.35,106.25 C327.35,102.775 330.2,100.075 333.65,100.075 C337.075,100.075 339.875,102.775 339.875,106.25 C339.875,109.725 337.075,112.475 333.65,112.475 Z M356.575,115 L356.575,112.325 L349,112.325 L349,97.5 L346.05,97.5 L346.05,115 L356.575,115 Z M362.35,115 L362.35,97.5 L359.4,97.5 L359.4,115 L362.35,115 Z M373.35,115 L373.35,100.15 L378.9,100.15 L378.9,97.5 L364.875,97.5 L364.875,100.15 L370.4,100.15 L370.4,115 L373.35,115 Z M388.6,95.6 L391.65,93.15 L388.7,91.9 L386.05,95.6 L388.6,95.6 Z M394.225,115 L394.225,112.35 L384.375,112.35 L384.375,107.525 L392.925,107.525 L392.925,104.875 L384.375,104.875 L384.375,100.15 L393.925,100.15 L393.925,97.5 L381.425,97.5 L381.425,115 L394.225,115 Z M405.475,115.125 C407.95,115.125 410.475,114 412.25,112.25 L410.5,110.3 C409.175,111.575 407.375,112.375 405.625,112.375 C402.125,112.375 399.375,109.65 399.375,106.2 C399.375,102.75 402.125,100.05 405.625,100.05 C407.4,100.05 409.225,100.9 410.5,102.275 L412.225,100.125 C410.525,98.45 408.05,97.425 405.575,97.425 C400.4,97.425 396.375,101.25 396.375,106.225 C396.375,111.25 400.35,115.125 405.475,115.125 Z M418.2,115 L418.2,102.45 L427.525,115 L430.425,115 L430.425,97.5 L427.525,97.5 L427.525,110.075 L418.15,97.5 L415.25,97.5 L415.25,115 L418.2,115 Z M438,115 L438,97.5 L435.05,97.5 L435.05,115 L438,115 Z M450.25,115.125 C452.725,115.125 455.25,114 457.025,112.25 L455.275,110.3 C453.95,111.575 452.15,112.375 450.4,112.375 C446.9,112.375 444.15,109.65 444.15,106.2 C444.15,102.75 446.9,100.05 450.4,100.05 C452.175,100.05 454,100.9 455.275,102.275 L457,100.125 C455.3,98.45 452.825,97.425 450.35,97.425 C445.175,97.425 441.15,101.25 441.15,106.225 C441.15,111.25 445.125,115.125 450.25,115.125 Z M467.85,115.125 C473.075,115.125 477.125,111.25 477.125,106.25 C477.125,101.25 473.075,97.425 467.85,97.425 C462.625,97.425 458.575,101.225 458.575,106.25 C458.575,111.25 462.625,115.125 467.85,115.125 Z M467.875,112.475 C464.45,112.475 461.575,109.725 461.575,106.25 C461.575,102.775 464.425,100.075 467.875,100.075 C471.3,100.075 474.1,102.775 474.1,106.25 C474.1,109.725 471.3,112.475 467.875,112.475 Z M176.4,145 C181.7,145 185.525,141.3 185.525,136.25 C185.525,131.175 181.725,127.5 176.475,127.5 L169.3,127.5 L169.3,145 L176.4,145 Z M176.55,142.35 L172.25,142.35 L172.25,130.15 L176.425,130.15 C179.875,130.15 182.55,132.7 182.55,136.275 C182.55,139.825 179.95,142.35 176.55,142.35 Z M201.475,145 L201.475,142.35 L191.625,142.35 L191.625,137.525 L200.175,137.525 L200.175,134.875 L191.625,134.875 L191.625,130.15 L201.175,130.15 L201.175,127.5 L188.675,127.5 L188.675,145 L201.475,145 Z M219.3,145 C223.25,145 225.675,143.2 225.675,140.2 C225.675,137.85 224.275,136.175 221.925,135.775 C223.825,135.325 225,133.85 225,131.875 C225,129.15 222.75,127.5 219.125,127.5 L211.525,127.5 L211.525,145 L219.3,145 Z M218.975,134.75 L214.475,134.75 L214.475,130.125 L218.975,130.125 C220.85,130.125 221.975,130.925 221.975,132.4 C221.975,133.875 220.85,134.75 218.975,134.75 Z M218.975,142.375 L214.475,142.375 L214.475,137.35 L218.975,137.35 C221.275,137.35 222.65,138.275 222.65,139.825 C222.65,141.475 221.275,142.375 218.975,142.375 Z M232.125,145 L232.125,139.725 L236.275,139.725 C236.55,139.725 236.825,139.725 237.075,139.7 L240.275,145 L243.625,145 L239.7,139.15 C242.025,138.25 243.325,136.275 243.325,133.475 C243.325,129.675 240.75,127.5 236.275,127.5 L229.175,127.5 L229.175,145 L232.125,145 Z M236.275,137.075 L232.125,137.075 L232.125,130.15 L236.275,130.15 C238.975,130.15 240.525,131.25 240.525,133.55 C240.525,135.925 238.975,137.075 236.275,137.075 Z M248.05,145 L249.725,141.05 L258.55,141.05 L260.225,145 L263.375,145 L255.725,127.5 L252.7,127.5 L244.975,145 L248.05,145 Z M257.425,138.425 L250.825,138.425 L254.125,130.65 L257.425,138.425 Z M273.45,145.125 C275.85,145.125 278.475,144.2 280.25,142.85 L280.25,136.4 L277.675,136.4 L277.675,141.275 C276.425,142.025 274.95,142.475 273.65,142.475 C270.075,142.475 267.25,139.75 267.25,136.25 C267.25,132.775 270.05,130.05 273.625,130.05 C275.45,130.05 277.325,130.8 278.675,132.05 L280.35,129.875 C278.625,128.375 276.125,127.425 273.625,127.425 C268.325,127.425 264.25,131.25 264.25,136.25 C264.25,141.25 268.275,145.125 273.45,145.125 Z M285.225,145 L286.9,141.05 L295.725,141.05 L297.4,145 L300.55,145 L292.9,127.5 L289.875,127.5 L282.15,145 L285.225,145 Z M294.6,138.425 L288,138.425 L291.3,130.65 L294.6,138.425 Z M305.825,145 L305.825,132.45 L315.15,145 L318.05,145 L318.05,127.5 L315.15,127.5 L315.15,140.075 L305.775,127.5 L302.875,127.5 L302.875,145 L305.825,145 Z M329.725,150.6 C331.2,150.6 332.375,149.675 332.375,148.225 C332.375,147.125 331.675,146.45 330.625,146.25 L331.175,145.075 C333.375,144.85 335.525,143.8 337.1,142.25 L335.35,140.3 C334.025,141.575 332.225,142.375 330.475,142.375 C326.975,142.375 324.225,139.65 324.225,136.2 C324.225,132.75 326.975,130.05 330.475,130.05 C332.25,130.05 334.075,130.9 335.35,132.275 L337.075,130.125 C335.375,128.45 332.9,127.425 330.425,127.425 C325.25,127.425 321.225,131.25 321.225,136.225 C321.225,140.975 324.775,144.7 329.5,145.1 L328.6,147.2 C328.875,147.125 329.2,147.075 329.475,147.075 C330.3,147.075 330.675,147.55 330.675,148.025 C330.675,148.525 330.25,149.05 329.525,149.05 C329.025,149.05 328.5,148.875 328.075,148.55 L327.525,149.9 C328.1,150.325 328.9,150.6 329.725,150.6 Z M340.9,145 L342.575,141.05 L351.4,141.05 L353.075,145 L356.225,145 L348.575,127.5 L345.55,127.5 L337.825,145 L340.9,145 Z M350.275,138.425 L343.675,138.425 L346.975,130.65 L350.275,138.425 Z" id="INSTITUTOPOLITÉCNICODEBRAGANÇA" fill="#FFFFFF" fill-rule="nonzero"></path>
        <path d="M186.978651,72.631736 C199.692338,72.631736 207.036269,67.025079 207.036269,59.128379 C207.036269,42.387375 181.371994,49.415438 181.371994,42.150474 C181.371994,39.939398 183.741004,38.202124 189.268694,38.202124 C193.138077,38.202124 197.323328,38.991794 201.508579,41.360804 L205.614863,32.595467 C201.587546,30.226457 195.112252,28.884018 189.268694,28.884018 C176.870875,28.884018 169.605911,34.569642 169.605911,42.624276 C169.605911,59.602181 195.270186,52.495151 195.270186,59.444247 C195.270186,61.813257 193.138077,63.31363 187.452453,63.31363 C182.240631,63.31363 176.47604,61.655323 172.685624,59.207346 L168.57934,68.05165 C172.52769,70.657561 179.792654,72.631736 186.978651,72.631736 Z M227.467722,72.631736 C233.706115,72.631736 238.128267,70.578594 240.41831,66.709211 L240.41831,72 L251.947492,72 L251.947492,47.757131 C251.947492,34.88551 244.445627,28.884018 231.495039,28.884018 C224.703877,28.884018 217.833748,30.700259 213.174695,34.016873 L217.596847,42.624276 C220.67656,40.176299 225.335613,38.675926 229.836732,38.675926 C236.46996,38.675926 239.62864,41.755639 239.62864,47.046428 L229.836732,47.046428 C216.886144,47.046428 211.595355,52.25825 211.595355,59.760115 C211.595355,67.104046 217.51788,72.631736 227.467722,72.631736 Z M230.547435,64.340201 C226.20425,64.340201 223.598339,62.287059 223.598339,59.207346 C223.598339,56.364534 225.41458,54.232425 231.179171,54.232425 L239.62864,54.232425 L239.62864,58.57561 C238.207234,62.444993 234.653719,64.340201 230.547435,64.340201 Z M277.116965,72.631736 C289.830652,72.631736 297.174583,67.025079 297.174583,59.128379 C297.174583,42.387375 271.510308,49.415438 271.510308,42.150474 C271.510308,39.939398 273.879318,38.202124 279.407008,38.202124 C283.276391,38.202124 287.461642,38.991794 291.646893,41.360804 L295.753177,32.595467 C291.72586,30.226457 285.250566,28.884018 279.407008,28.884018 C267.009189,28.884018 259.744225,34.569642 259.744225,42.624276 C259.744225,59.602181 285.4085,52.495151 285.4085,59.444247 C285.4085,61.813257 283.276391,63.31363 277.590767,63.31363 C272.378945,63.31363 266.614354,61.655323 262.823938,59.207346 L258.717654,68.05165 C262.666004,70.657561 269.930968,72.631736 277.116965,72.631736 Z M324.713066,72.631736 C338.216423,72.631736 348.008331,63.550531 348.008331,50.757877 C348.008331,37.965223 338.216423,28.884018 324.713066,28.884018 C311.209709,28.884018 301.338834,37.965223 301.338834,50.757877 C301.338834,63.550531 311.209709,72.631736 324.713066,72.631736 Z M324.713066,62.52396 C318.55364,62.52396 313.81562,58.101808 313.81562,50.757877 C313.81562,43.413946 318.55364,38.991794 324.713066,38.991794 C330.872492,38.991794 335.531545,43.413946 335.531545,50.757877 C335.531545,58.101808 330.872492,62.52396 324.713066,62.52396 Z M376.494418,72.631736 C385.417689,72.631736 392.445752,68.683386 395.525465,61.892224 L385.970458,56.680402 C383.680415,60.786686 380.284834,62.52396 376.415451,62.52396 C370.177058,62.52396 365.281104,58.180775 365.281104,50.757877 C365.281104,43.334979 370.177058,38.991794 376.415451,38.991794 C380.284834,38.991794 383.680415,40.808035 385.970458,44.835352 L395.525465,39.702497 C392.445752,32.753401 385.417689,28.884018 376.494418,28.884018 C362.675193,28.884018 352.804318,37.965223 352.804318,50.757877 C352.804318,63.550531 362.675193,72.631736 376.494418,72.631736 Z M408.53402,23.593229 C413.114106,23.593229 416.193819,20.592483 416.193819,16.486199 C416.193819,12.695783 413.114106,9.852971 408.53402,9.852971 C403.953934,9.852971 400.874221,12.853717 400.874221,16.7231 C400.874221,20.592483 403.953934,23.593229 408.53402,23.593229 Z M414.693446,72 L414.693446,29.515754 L402.374594,29.515754 L402.374594,72 L414.693446,72 Z M438.994282,72.631736 C445.232675,72.631736 449.654827,70.578594 451.94487,66.709211 L451.94487,72 L463.474052,72 L463.474052,47.757131 C463.474052,34.88551 455.972187,28.884018 443.021599,28.884018 C436.230437,28.884018 429.360308,30.700259 424.701255,34.016873 L429.123407,42.624276 C432.20312,40.176299 436.862173,38.675926 441.363292,38.675926 C447.99652,38.675926 451.1552,41.755639 451.1552,47.046428 L441.363292,47.046428 C428.412704,47.046428 423.121915,52.25825 423.121915,59.760115 C423.121915,67.104046 429.04444,72.631736 438.994282,72.631736 Z M442.073995,64.340201 C437.73081,64.340201 435.124899,62.287059 435.124899,59.207346 C435.124899,56.364534 436.94114,54.232425 442.705731,54.232425 L451.1552,54.232425 L451.1552,58.57561 C449.733794,62.444993 446.180279,64.340201 442.073995,64.340201 Z M486.66935,72 L486.66935,13.406486 L474.350498,13.406486 L474.350498,72 L486.66935,72 Z" id="sasocial" fill="#FFFFFF" fill-rule="nonzero"></path>
    </g>
</svg>