<?xml version="1.0" encoding="UTF-8"?>
<svg width="508px" height="156px" viewBox="0 0 508 156" version="1.1" xmlns="http://www.w3.org/2000/svg" xmlns:xlink="http://www.w3.org/1999/xlink">
    <title>Logo-Politecnico-de-Viseu-claro</title>
    <defs>
        <path d="M70.7107792,1.15891969e-13 C73.0040245,0.0108911338 74.826383,0.65909803 77.2207226,1.5547532 C79.6150623,2.44771872 82.3738736,3.67958079 85.4200057,5.15620148 C91.5202509,8.10944286 98.7484962,12.0605463 105.843723,16.2564084 C112.941609,20.4549601 119.890515,24.8928911 125.429421,28.8224773 C128.196213,30.7859256 130.606515,32.6256498 132.553911,34.2986153 C134.501308,35.9715808 135.956534,37.2545463 137.095175,39.2717877 C138.233817,41.2917187 138.584987,43.2148222 139.018628,45.7646153 C139.45227,48.3144084 139.790138,51.3617877 140.056175,54.7803394 C140.585591,61.6174429 140.825025,69.939236 140.79044,78.2744773 C140.755855,86.6097187 140.452572,94.9261325 139.864628,101.757857 C139.571987,105.176408 139.207515,108.213029 138.752591,110.760133 C138.297666,113.307236 137.941175,115.233029 136.786572,117.242201 C135.631968,119.251374 134.16344,120.523581 132.202742,122.180408 C130.242043,123.837236 127.813119,125.652753 125.027704,127.597374 C119.456874,131.481236 112.462742,135.851926 105.33293,139.988615 C98.2004585,144.127995 90.9535906,148.022615 84.8320623,150.922064 C81.7699679,152.377167 78.9978547,153.574064 76.595534,154.448201 C74.1958736,155.322339 72.3708547,155.959788 70.0802698,155.951794 C67.7870245,155.94096 65.964666,155.281995 63.5703264,154.389029 C61.1759868,153.493374 58.4198359,152.27765 55.368383,150.803719 C49.2707981,147.850477 42.0452132,143.891305 34.9473264,139.695443 C27.8521,135.496891 20.8978736,131.067029 15.3616283,127.137443 C12.5921755,125.168615 10.1765528,123.33427 8.22915661,121.661305 C6.28176038,119.988339 4.8345151,118.705374 3.69853396,116.685443 C2.55989245,114.668201 2.20606227,112.745098 1.77242076,110.195305 C1.33877925,107.645512 1.0035717,104.595443 0.737533964,101.176891 C0.20811887,94.3397877 -0.0313150924,86.0206842 0.00326981326,77.6854429 C0.0378547189,69.3475118 0.341137738,61.0230291 0.926420757,54.1913049 C1.21906227,50.7754429 1.58353396,47.7388222 2.03845849,45.1917187 C2.49338302,42.6446153 2.84987359,40.7268911 4.00447736,38.7177187 C5.15908113,36.7085463 6.62760944,35.4363394 8.58830755,33.7795118 C10.5490057,32.1226842 12.9805906,30.3044773 15.7660057,28.3625463 C21.3341755,24.4786842 28.3123453,20.1079946 35.4421566,15.9713049 C42.5746283,11.8319256 49.8347981,7.93461527 55.9589868,5.03247734 C59.0237415,3.5827532 61.7958547,2.38585665 64.1955151,1.51171872 C66.5951755,0.634891134 68.4228547,-0.0106261076 70.7107792,1.15891969e-13 Z M70.676,8.88887071 C70.6396171,8.90177273 70.4680615,8.93522875 70.193395,8.99602044 L69.9685727,9.04681513 C69.3202163,9.196338 68.2921162,9.46003399 67.1458736,9.87654631 C65.1399491,10.6081325 62.5647038,11.7162704 59.6648925,13.0879946 C53.8599491,15.8368222 46.7567415,19.6453739 39.7971943,23.685236 C32.8349868,27.725098 26.0004774,32.0070291 20.7249491,35.689167 C18.0858547,37.5262015 15.8351755,39.2153049 14.1990434,40.6004773 C12.7382112,41.8372384 11.7460839,43.0096742 11.5938078,43.1739641 L11.578,43.1888707 C11.5492726,43.3042336 11.0518819,44.6826941 10.6996171,46.5448196 L10.6580811,46.7705463 C10.2776472,48.8980635 9.92647736,51.7275808 9.64979812,54.963236 C9.09377925,61.437236 8.79315661,69.5815118 8.76123208,77.7204084 C8.72664717,85.8566153 8.96608113,94.0035808 9.47155283,100.48565 C9.7216283,103.723995 10.0302321,106.545443 10.3920434,108.67565 C10.7304814,110.653699 11.2661945,112.151686 11.2941372,112.273759 L11.294,112.275871 C11.3116557,112.291863 11.3498376,112.335471 11.409468,112.403604 L11.5148021,112.523658 C11.8980469,112.958662 12.7473642,113.898362 13.8931,114.880684 C15.5185906,116.279305 17.7586283,117.992615 20.3817604,119.853857 C25.6306849,123.579029 32.4306094,127.917443 39.3608925,132.013788 C46.2858547,136.112822 53.3544774,139.977857 59.1354774,142.775098 C62.0219868,144.173719 64.5998925,145.308753 66.5978359,146.056477 C68.3126391,146.695078 69.7557581,146.983914 70.0593668,147.053406 L70.111027,147.066285 L70.111027,147.066285 C70.2334044,147.030832 71.7770205,146.757709 73.6371943,146.083374 C75.6431189,145.351788 78.2183642,144.24365 81.1208359,142.869236 C86.9231189,140.123098 94.0263264,136.314546 100.988534,132.274684 C107.948081,128.234822 114.790572,123.950201 120.06876,120.270753 C122.705194,118.428339 124.955874,116.733857 126.592006,115.351374 C128.111271,114.065142 129.118998,112.848485 129.206216,112.763072 L129.207,112.761871 C129.234939,112.645011 129.73865,111.266471 130.091402,109.404342 L130.132968,109.178615 C130.513402,107.051098 130.856591,104.232339 131.13327,100.993995 C131.689289,94.5226842 131.997892,86.3703394 132.032477,78.2314429 C132.067062,70.095236 131.824968,61.9428911 131.322157,55.4662015 C131.072081,52.2278567 130.744855,49.4037187 130.383043,47.2735118 C130.044605,45.2954626 129.515774,43.8021139 129.488814,43.6828565 L129.488,43.6808707 C129.397884,43.5918766 128.475983,42.4672802 127.070772,41.2339071 L126.892628,41.079236 C125.267138,39.6806153 123.032421,37.9646153 120.409289,36.1033739 C115.163025,32.3782015 108.357779,28.0424773 101.432817,23.9461325 C94.502534,19.847098 87.4285906,15.9820635 81.6502509,13.1848222 C78.7610811,11.7862015 76.1858359,10.6484773 74.1852321,9.90344286 C72.3299989,9.20912759 70.7936174,8.92761949 70.6794519,8.89094648 L70.676,8.88887071 Z M40.4830396,92.1606291 C42.057983,90.6893877 44.6412094,90.6893877 46.2134925,92.1606291 C59.5792283,104.637939 81.2160774,104.637939 94.5791528,92.1606291 C96.1514359,90.6893877 98.7346623,90.6893877 100.306945,92.1606291 C101.836662,93.5834567 101.836662,95.8642842 100.306945,97.2871118 C83.7966434,112.704215 56.9960019,112.704215 40.4830396,97.2871118 C38.9586434,95.8642842 38.9586434,93.5834567 40.4830396,92.1606291 Z M49.1734283,51.2851325 C53.4619566,51.2851325 56.9390698,54.8005118 56.9390698,59.136236 C56.9390698,63.4692704 53.4619566,66.9846498 49.1734283,66.9846498 C44.8875604,66.9846498 41.4104472,63.4692704 41.4104472,59.136236 C41.4104472,54.8005118 44.8875604,51.2851325 49.1734283,51.2851325 Z M91.6173547,51.2851325 C95.905883,51.2851325 99.3829962,54.8005118 99.3829962,59.136236 C99.3829962,63.4692704 95.905883,66.9846498 91.6173547,66.9846498 C87.3314868,66.9846498 83.8543736,63.4692704 83.8543736,59.136236 C83.8543736,54.8005118 87.3314868,51.2851325 91.6173547,51.2851325 Z" id="path-1"></path>
    </defs>
    <g id="Logo-Politecnico-de-Viseu-claro" stroke="none" stroke-width="1" fill="none" fill-rule="evenodd">
        <g id="hive-copy">
            <mask id="mask-2" fill="white">
                <use xlink:href="#path-1"></use>
            </mask>
            <use id="Mask" fill="#FFFFFF" xlink:href="#path-1"></use>
        </g>
        <path d="M173.09,119 L173.09,112.881 L177.759,112.881 C182.863,112.881 185.792,110.213 185.792,105.631 C185.792,101.223 182.863,98.7 177.759,98.7 L169.668,98.7 L169.668,119 L173.09,119 Z M177.614,109.807 L173.09,109.807 L173.09,101.774 L177.614,101.774 C180.746,101.774 182.515,103.05 182.515,105.718 C182.515,108.473 180.746,109.807 177.614,109.807 Z M198.262,119.145 C204.323,119.145 209.021,114.65 209.021,108.85 C209.021,103.05 204.323,98.613 198.262,98.613 C192.201,98.613 187.503,103.021 187.503,108.85 C187.503,114.65 192.201,119.145 198.262,119.145 Z M198.291,116.071 C194.318,116.071 190.983,112.881 190.983,108.85 C190.983,104.819 194.289,101.687 198.291,101.687 C202.264,101.687 205.512,104.819 205.512,108.85 C205.512,112.881 202.264,116.071 198.291,116.071 Z M224.884,119 L224.884,115.897 L216.097,115.897 L216.097,98.7 L212.675,98.7 L212.675,119 L224.884,119 Z M231.583,119 L231.583,98.7 L228.161,98.7 L228.161,119 L231.583,119 Z M244.343,119 L244.343,101.774 L250.781,101.774 L250.781,98.7 L234.512,98.7 L234.512,101.774 L240.921,101.774 L240.921,119 L244.343,119 Z M262.033,96.496 L265.571,93.654 L262.149,92.204 L259.075,96.496 L262.033,96.496 Z M268.558,119 L268.558,115.926 L257.132,115.926 L257.132,110.329 L267.05,110.329 L267.05,107.255 L257.132,107.255 L257.132,101.774 L268.21,101.774 L268.21,98.7 L253.71,98.7 L253.71,119 L268.558,119 Z M281.608,119.145 C284.479,119.145 287.408,117.84 289.467,115.81 L287.437,113.548 C285.9,115.027 283.812,115.955 281.782,115.955 C277.722,115.955 274.532,112.794 274.532,108.792 C274.532,104.79 277.722,101.658 281.782,101.658 C283.841,101.658 285.958,102.644 287.437,104.239 L289.438,101.745 C287.466,99.802 284.595,98.613 281.724,98.613 C275.721,98.613 271.052,103.05 271.052,108.821 C271.052,114.65 275.663,119.145 281.608,119.145 Z M296.369,119 L296.369,104.442 L307.186,119 L310.55,119 L310.55,98.7 L307.186,98.7 L307.186,113.287 L296.311,98.7 L292.947,98.7 L292.947,119 L296.369,119 Z M319.337,119 L319.337,98.7 L315.915,98.7 L315.915,119 L319.337,119 Z M333.547,119.145 C336.418,119.145 339.347,117.84 341.406,115.81 L339.376,113.548 C337.839,115.027 335.751,115.955 333.721,115.955 C329.661,115.955 326.471,112.794 326.471,108.792 C326.471,104.79 329.661,101.658 333.721,101.658 C335.78,101.658 337.897,102.644 339.376,104.239 L341.377,101.745 C339.405,99.802 336.534,98.613 333.663,98.613 C327.66,98.613 322.991,103.05 322.991,108.821 C322.991,114.65 327.602,119.145 333.547,119.145 Z M353.963,119.145 C360.024,119.145 364.722,114.65 364.722,108.85 C364.722,103.05 360.024,98.613 353.963,98.613 C347.902,98.613 343.204,103.021 343.204,108.85 C343.204,114.65 347.902,119.145 353.963,119.145 Z M353.992,116.071 C350.019,116.071 346.684,112.881 346.684,108.85 C346.684,104.819 349.99,101.687 353.992,101.687 C357.965,101.687 361.213,104.819 361.213,108.85 C361.213,112.881 357.965,116.071 353.992,116.071 Z M384.094,119 C390.242,119 394.679,114.708 394.679,108.85 C394.679,102.963 390.271,98.7 384.181,98.7 L375.858,98.7 L375.858,119 L384.094,119 Z M384.268,115.926 L379.28,115.926 L379.28,101.774 L384.123,101.774 C388.125,101.774 391.228,104.732 391.228,108.879 C391.228,112.997 388.212,115.926 384.268,115.926 Z M413.181,119 L413.181,115.926 L401.755,115.926 L401.755,110.329 L411.673,110.329 L411.673,107.255 L401.755,107.255 L401.755,101.774 L412.833,101.774 L412.833,98.7 L398.333,98.7 L398.333,119 L413.181,119 Z M433.887,119 L442.094,98.7 L438.527,98.7 L432.205,115.201 L425.941,98.7 L422.258,98.7 L430.349,119 L433.887,119 Z M448.271,119 L448.271,98.7 L444.849,98.7 L444.849,119 L448.271,119 Z M459.987,119.116 C464.453,119.116 467.643057,116.883 467.643057,113.258 C467.672,105.95 456.71,108.328 456.71,103.891 C456.71,102.528 458.015,101.774 460.016,101.774 C461.553,101.774 463.757,102.325 465.961,103.659 L467.382,100.643 C465.497,99.396 462.916,98.555 460.277,98.555 C455.869,98.555 452.882,100.73 452.882,104.21 C452.882,108.098231 456.060331,109.161278 458.994176,110.020586 L459.494087,110.16639 C461.809868,110.842056 463.844,111.4832 463.844,113.432 C463.844,114.998 462.423,115.897 460.045,115.897 C457.87,115.897 455.26,114.853 453.172,112.939 L451.693,115.897 C453.781,117.811 456.797,119.116 459.987,119.116 Z M486.493,119 L486.493,115.926 L475.067,115.926 L475.067,110.329 L484.985,110.329 L484.985,107.255 L475.067,107.255 L475.067,101.774 L486.145,101.774 L486.145,98.7 L471.645,98.7 L471.645,119 L486.493,119 Z M499.108,119.145 C504.589,119.145 507.924,115.897 507.924,110.59 L507.924,98.7 L504.502,98.7 L504.502,110.59 C504.502,114.041 502.443,116.071 499.137,116.071 C495.802,116.071 493.685,114.012 493.685,110.59 L493.685,98.7 L490.263,98.7 L490.263,110.59 C490.263,115.897 493.627,119.145 499.108,119.145 Z" id="POLITÉCNICODEVISEU" fill="#FFFFFF" fill-rule="nonzero" opacity="0.701032366"></path>
        <path d="M186.978651,72.631736 C199.692338,72.631736 207.036269,67.025079 207.036269,59.128379 C207.036269,42.387375 181.371994,49.415438 181.371994,42.150474 C181.371994,39.939398 183.741004,38.202124 189.268694,38.202124 C193.138077,38.202124 197.323328,38.991794 201.508579,41.360804 L205.614863,32.595467 C201.587546,30.226457 195.112252,28.884018 189.268694,28.884018 C176.870875,28.884018 169.605911,34.569642 169.605911,42.624276 C169.605911,59.602181 195.270186,52.495151 195.270186,59.444247 C195.270186,61.813257 193.138077,63.31363 187.452453,63.31363 C182.240631,63.31363 176.47604,61.655323 172.685624,59.207346 L168.57934,68.05165 C172.52769,70.657561 179.792654,72.631736 186.978651,72.631736 Z M227.467722,72.631736 C233.706115,72.631736 238.128267,70.578594 240.41831,66.709211 L240.41831,72 L251.947492,72 L251.947492,47.757131 C251.947492,34.88551 244.445627,28.884018 231.495039,28.884018 C224.703877,28.884018 217.833748,30.700259 213.174695,34.016873 L217.596847,42.624276 C220.67656,40.176299 225.335613,38.675926 229.836732,38.675926 C236.46996,38.675926 239.62864,41.755639 239.62864,47.046428 L229.836732,47.046428 C216.886144,47.046428 211.595355,52.25825 211.595355,59.760115 C211.595355,67.104046 217.51788,72.631736 227.467722,72.631736 Z M230.547435,64.340201 C226.20425,64.340201 223.598339,62.287059 223.598339,59.207346 C223.598339,56.364534 225.41458,54.232425 231.179171,54.232425 L239.62864,54.232425 L239.62864,58.57561 C238.207234,62.444993 234.653719,64.340201 230.547435,64.340201 Z M277.116965,72.631736 C289.830652,72.631736 297.174583,67.025079 297.174583,59.128379 C297.174583,42.387375 271.510308,49.415438 271.510308,42.150474 C271.510308,39.939398 273.879318,38.202124 279.407008,38.202124 C283.276391,38.202124 287.461642,38.991794 291.646893,41.360804 L295.753177,32.595467 C291.72586,30.226457 285.250566,28.884018 279.407008,28.884018 C267.009189,28.884018 259.744225,34.569642 259.744225,42.624276 C259.744225,59.602181 285.4085,52.495151 285.4085,59.444247 C285.4085,61.813257 283.276391,63.31363 277.590767,63.31363 C272.378945,63.31363 266.614354,61.655323 262.823938,59.207346 L258.717654,68.05165 C262.666004,70.657561 269.930968,72.631736 277.116965,72.631736 Z M324.713066,72.631736 C338.216423,72.631736 348.008331,63.550531 348.008331,50.757877 C348.008331,37.965223 338.216423,28.884018 324.713066,28.884018 C311.209709,28.884018 301.338834,37.965223 301.338834,50.757877 C301.338834,63.550531 311.209709,72.631736 324.713066,72.631736 Z M324.713066,62.52396 C318.55364,62.52396 313.81562,58.101808 313.81562,50.757877 C313.81562,43.413946 318.55364,38.991794 324.713066,38.991794 C330.872492,38.991794 335.531545,43.413946 335.531545,50.757877 C335.531545,58.101808 330.872492,62.52396 324.713066,62.52396 Z M376.494418,72.631736 C385.417689,72.631736 392.445752,68.683386 395.525465,61.892224 L385.970458,56.680402 C383.680415,60.786686 380.284834,62.52396 376.415451,62.52396 C370.177058,62.52396 365.281104,58.180775 365.281104,50.757877 C365.281104,43.334979 370.177058,38.991794 376.415451,38.991794 C380.284834,38.991794 383.680415,40.808035 385.970458,44.835352 L395.525465,39.702497 C392.445752,32.753401 385.417689,28.884018 376.494418,28.884018 C362.675193,28.884018 352.804318,37.965223 352.804318,50.757877 C352.804318,63.550531 362.675193,72.631736 376.494418,72.631736 Z M408.53402,23.593229 C413.114106,23.593229 416.193819,20.592483 416.193819,16.486199 C416.193819,12.695783 413.114106,9.852971 408.53402,9.852971 C403.953934,9.852971 400.874221,12.853717 400.874221,16.7231 C400.874221,20.592483 403.953934,23.593229 408.53402,23.593229 Z M414.693446,72 L414.693446,29.515754 L402.374594,29.515754 L402.374594,72 L414.693446,72 Z M438.994282,72.631736 C445.232675,72.631736 449.654827,70.578594 451.94487,66.709211 L451.94487,72 L463.474052,72 L463.474052,47.757131 C463.474052,34.88551 455.972187,28.884018 443.021599,28.884018 C436.230437,28.884018 429.360308,30.700259 424.701255,34.016873 L429.123407,42.624276 C432.20312,40.176299 436.862173,38.675926 441.363292,38.675926 C447.99652,38.675926 451.1552,41.755639 451.1552,47.046428 L441.363292,47.046428 C428.412704,47.046428 423.121915,52.25825 423.121915,59.760115 C423.121915,67.104046 429.04444,72.631736 438.994282,72.631736 Z M442.073995,64.340201 C437.73081,64.340201 435.124899,62.287059 435.124899,59.207346 C435.124899,56.364534 436.94114,54.232425 442.705731,54.232425 L451.1552,54.232425 L451.1552,58.57561 C449.733794,62.444993 446.180279,64.340201 442.073995,64.340201 Z M486.66935,72 L486.66935,13.406486 L474.350498,13.406486 L474.350498,72 L486.66935,72 Z" id="sasocial" fill="#FFFFFF" fill-rule="nonzero"></path>
    </g>
</svg>