<?xml version="1.0" encoding="UTF-8"?>
<svg width="487px" height="156px" viewBox="0 0 487 156" version="1.1" xmlns="http://www.w3.org/2000/svg" xmlns:xlink="http://www.w3.org/1999/xlink">
    <title>Logo-Politecnico-de-Portalegre</title>
    <defs>
        <path d="M70.7107792,1.15891969e-13 C73.0040245,0.0108911338 74.826383,0.65909803 77.2207226,1.5547532 C79.6150623,2.44771872 82.3738736,3.67958079 85.4200057,5.15620148 C91.5202509,8.10944286 98.7484962,12.0605463 105.843723,16.2564084 C112.941609,20.4549601 119.890515,24.8928911 125.429421,28.8224773 C128.196213,30.7859256 130.606515,32.6256498 132.553911,34.2986153 C134.501308,35.9715808 135.956534,37.2545463 137.095175,39.2717877 C138.233817,41.2917187 138.584987,43.2148222 139.018628,45.7646153 C139.45227,48.3144084 139.790138,51.3617877 140.056175,54.7803394 C140.585591,61.6174429 140.825025,69.939236 140.79044,78.2744773 C140.755855,86.6097187 140.452572,94.9261325 139.864628,101.757857 C139.571987,105.176408 139.207515,108.213029 138.752591,110.760133 C138.297666,113.307236 137.941175,115.233029 136.786572,117.242201 C135.631968,119.251374 134.16344,120.523581 132.202742,122.180408 C130.242043,123.837236 127.813119,125.652753 125.027704,127.597374 C119.456874,131.481236 112.462742,135.851926 105.33293,139.988615 C98.2004585,144.127995 90.9535906,148.022615 84.8320623,150.922064 C81.7699679,152.377167 78.9978547,153.574064 76.595534,154.448201 C74.1958736,155.322339 72.3708547,155.959788 70.0802698,155.951794 C67.7870245,155.94096 65.964666,155.281995 63.5703264,154.389029 C61.1759868,153.493374 58.4198359,152.27765 55.368383,150.803719 C49.2707981,147.850477 42.0452132,143.891305 34.9473264,139.695443 C27.8521,135.496891 20.8978736,131.067029 15.3616283,127.137443 C12.5921755,125.168615 10.1765528,123.33427 8.22915661,121.661305 C6.28176038,119.988339 4.8345151,118.705374 3.69853396,116.685443 C2.55989245,114.668201 2.20606227,112.745098 1.77242076,110.195305 C1.33877925,107.645512 1.0035717,104.595443 0.737533964,101.176891 C0.20811887,94.3397877 -0.0313150924,86.0206842 0.00326981326,77.6854429 C0.0378547189,69.3475118 0.341137738,61.0230291 0.926420757,54.1913049 C1.21906227,50.7754429 1.58353396,47.7388222 2.03845849,45.1917187 C2.49338302,42.6446153 2.84987359,40.7268911 4.00447736,38.7177187 C5.15908113,36.7085463 6.62760944,35.4363394 8.58830755,33.7795118 C10.5490057,32.1226842 12.9805906,30.3044773 15.7660057,28.3625463 C21.3341755,24.4786842 28.3123453,20.1079946 35.4421566,15.9713049 C42.5746283,11.8319256 49.8347981,7.93461527 55.9589868,5.03247734 C59.0237415,3.5827532 61.7958547,2.38585665 64.1955151,1.51171872 C66.5951755,0.634891134 68.4228547,-0.0106261076 70.7107792,1.15891969e-13 Z M70.676,8.88887071 C70.6396171,8.90177273 70.4680615,8.93522875 70.193395,8.99602044 L69.9685727,9.04681513 C69.3202163,9.196338 68.2921162,9.46003399 67.1458736,9.87654631 C65.1399491,10.6081325 62.5647038,11.7162704 59.6648925,13.0879946 C53.8599491,15.8368222 46.7567415,19.6453739 39.7971943,23.685236 C32.8349868,27.725098 26.0004774,32.0070291 20.7249491,35.689167 C18.0858547,37.5262015 15.8351755,39.2153049 14.1990434,40.6004773 C12.7382112,41.8372384 11.7460839,43.0096742 11.5938078,43.1739641 L11.578,43.1888707 C11.5492726,43.3042336 11.0518819,44.6826941 10.6996171,46.5448196 L10.6580811,46.7705463 C10.2776472,48.8980635 9.92647736,51.7275808 9.64979812,54.963236 C9.09377925,61.437236 8.79315661,69.5815118 8.76123208,77.7204084 C8.72664717,85.8566153 8.96608113,94.0035808 9.47155283,100.48565 C9.7216283,103.723995 10.0302321,106.545443 10.3920434,108.67565 C10.7304814,110.653699 11.2661945,112.151686 11.2941372,112.273759 L11.294,112.275871 C11.3116557,112.291863 11.3498376,112.335471 11.409468,112.403604 L11.5148021,112.523658 C11.8980469,112.958662 12.7473642,113.898362 13.8931,114.880684 C15.5185906,116.279305 17.7586283,117.992615 20.3817604,119.853857 C25.6306849,123.579029 32.4306094,127.917443 39.3608925,132.013788 C46.2858547,136.112822 53.3544774,139.977857 59.1354774,142.775098 C62.0219868,144.173719 64.5998925,145.308753 66.5978359,146.056477 C68.3126391,146.695078 69.7557581,146.983914 70.0593668,147.053406 L70.111027,147.066285 L70.111027,147.066285 C70.2334044,147.030832 71.7770205,146.757709 73.6371943,146.083374 C75.6431189,145.351788 78.2183642,144.24365 81.1208359,142.869236 C86.9231189,140.123098 94.0263264,136.314546 100.988534,132.274684 C107.948081,128.234822 114.790572,123.950201 120.06876,120.270753 C122.705194,118.428339 124.955874,116.733857 126.592006,115.351374 C128.111271,114.065142 129.118998,112.848485 129.206216,112.763072 L129.207,112.761871 C129.234939,112.645011 129.73865,111.266471 130.091402,109.404342 L130.132968,109.178615 C130.513402,107.051098 130.856591,104.232339 131.13327,100.993995 C131.689289,94.5226842 131.997892,86.3703394 132.032477,78.2314429 C132.067062,70.095236 131.824968,61.9428911 131.322157,55.4662015 C131.072081,52.2278567 130.744855,49.4037187 130.383043,47.2735118 C130.044605,45.2954626 129.515774,43.8021139 129.488814,43.6828565 L129.488,43.6808707 C129.397884,43.5918766 128.475983,42.4672802 127.070772,41.2339071 L126.892628,41.079236 C125.267138,39.6806153 123.032421,37.9646153 120.409289,36.1033739 C115.163025,32.3782015 108.357779,28.0424773 101.432817,23.9461325 C94.502534,19.847098 87.4285906,15.9820635 81.6502509,13.1848222 C78.7610811,11.7862015 76.1858359,10.6484773 74.1852321,9.90344286 C72.3299989,9.20912759 70.7936174,8.92761949 70.6794519,8.89094648 L70.676,8.88887071 Z M40.4830396,92.1606291 C42.057983,90.6893877 44.6412094,90.6893877 46.2134925,92.1606291 C59.5792283,104.637939 81.2160774,104.637939 94.5791528,92.1606291 C96.1514359,90.6893877 98.7346623,90.6893877 100.306945,92.1606291 C101.836662,93.5834567 101.836662,95.8642842 100.306945,97.2871118 C83.7966434,112.704215 56.9960019,112.704215 40.4830396,97.2871118 C38.9586434,95.8642842 38.9586434,93.5834567 40.4830396,92.1606291 Z M49.1734283,51.2851325 C53.4619566,51.2851325 56.9390698,54.8005118 56.9390698,59.136236 C56.9390698,63.4692704 53.4619566,66.9846498 49.1734283,66.9846498 C44.8875604,66.9846498 41.4104472,63.4692704 41.4104472,59.136236 C41.4104472,54.8005118 44.8875604,51.2851325 49.1734283,51.2851325 Z M91.6173547,51.2851325 C95.905883,51.2851325 99.3829962,54.8005118 99.3829962,59.136236 C99.3829962,63.4692704 95.905883,66.9846498 91.6173547,66.9846498 C87.3314868,66.9846498 83.8543736,63.4692704 83.8543736,59.136236 C83.8543736,54.8005118 87.3314868,51.2851325 91.6173547,51.2851325 Z" id="path-1"></path>
    </defs>
    <g id="Logo-Politecnico-de-Portalegre" stroke="none" stroke-width="1" fill="none" fill-rule="evenodd">
        <g id="hive">
            <mask id="mask-2" fill="white">
                <use xlink:href="#path-1"></use>
            </mask>
            <use id="Mask" fill="#BF9F33" xlink:href="#path-1"></use>
        </g>
        <path d="M186.978651,73.631736 C199.692338,73.631736 207.036269,68.025079 207.036269,60.128379 C207.036269,43.387375 181.371994,50.415438 181.371994,43.150474 C181.371994,40.939398 183.741004,39.202124 189.268694,39.202124 C193.138077,39.202124 197.323328,39.991794 201.508579,42.360804 L205.614863,33.595467 C201.587546,31.226457 195.112252,29.884018 189.268694,29.884018 C176.870875,29.884018 169.605911,35.569642 169.605911,43.624276 C169.605911,60.602181 195.270186,53.495151 195.270186,60.444247 C195.270186,62.813257 193.138077,64.31363 187.452453,64.31363 C182.240631,64.31363 176.47604,62.655323 172.685624,60.207346 L168.57934,69.05165 C172.52769,71.657561 179.792654,73.631736 186.978651,73.631736 Z M227.467722,73.631736 C233.706115,73.631736 238.128267,71.578594 240.41831,67.709211 L240.41831,73 L251.947492,73 L251.947492,48.757131 C251.947492,35.88551 244.445627,29.884018 231.495039,29.884018 C224.703877,29.884018 217.833748,31.700259 213.174695,35.016873 L217.596847,43.624276 C220.67656,41.176299 225.335613,39.675926 229.836732,39.675926 C236.46996,39.675926 239.62864,42.755639 239.62864,48.046428 L229.836732,48.046428 C216.886144,48.046428 211.595355,53.25825 211.595355,60.760115 C211.595355,68.104046 217.51788,73.631736 227.467722,73.631736 Z M230.547435,65.340201 C226.20425,65.340201 223.598339,63.287059 223.598339,60.207346 C223.598339,57.364534 225.41458,55.232425 231.179171,55.232425 L239.62864,55.232425 L239.62864,59.57561 C238.207234,63.444993 234.653719,65.340201 230.547435,65.340201 Z M277.116965,73.631736 C289.830652,73.631736 297.174583,68.025079 297.174583,60.128379 C297.174583,43.387375 271.510308,50.415438 271.510308,43.150474 C271.510308,40.939398 273.879318,39.202124 279.407008,39.202124 C283.276391,39.202124 287.461642,39.991794 291.646893,42.360804 L295.753177,33.595467 C291.72586,31.226457 285.250566,29.884018 279.407008,29.884018 C267.009189,29.884018 259.744225,35.569642 259.744225,43.624276 C259.744225,60.602181 285.4085,53.495151 285.4085,60.444247 C285.4085,62.813257 283.276391,64.31363 277.590767,64.31363 C272.378945,64.31363 266.614354,62.655323 262.823938,60.207346 L258.717654,69.05165 C262.666004,71.657561 269.930968,73.631736 277.116965,73.631736 Z M324.713066,73.631736 C338.216423,73.631736 348.008331,64.550531 348.008331,51.757877 C348.008331,38.965223 338.216423,29.884018 324.713066,29.884018 C311.209709,29.884018 301.338834,38.965223 301.338834,51.757877 C301.338834,64.550531 311.209709,73.631736 324.713066,73.631736 Z M324.713066,63.52396 C318.55364,63.52396 313.81562,59.101808 313.81562,51.757877 C313.81562,44.413946 318.55364,39.991794 324.713066,39.991794 C330.872492,39.991794 335.531545,44.413946 335.531545,51.757877 C335.531545,59.101808 330.872492,63.52396 324.713066,63.52396 Z M376.494418,73.631736 C385.417689,73.631736 392.445752,69.683386 395.525465,62.892224 L385.970458,57.680402 C383.680415,61.786686 380.284834,63.52396 376.415451,63.52396 C370.177058,63.52396 365.281104,59.180775 365.281104,51.757877 C365.281104,44.334979 370.177058,39.991794 376.415451,39.991794 C380.284834,39.991794 383.680415,41.808035 385.970458,45.835352 L395.525465,40.702497 C392.445752,33.753401 385.417689,29.884018 376.494418,29.884018 C362.675193,29.884018 352.804318,38.965223 352.804318,51.757877 C352.804318,64.550531 362.675193,73.631736 376.494418,73.631736 Z M408.53402,24.593229 C413.114106,24.593229 416.193819,21.592483 416.193819,17.486199 C416.193819,13.695783 413.114106,10.852971 408.53402,10.852971 C403.953934,10.852971 400.874221,13.853717 400.874221,17.7231 C400.874221,21.592483 403.953934,24.593229 408.53402,24.593229 Z M414.693446,73 L414.693446,30.515754 L402.374594,30.515754 L402.374594,73 L414.693446,73 Z M438.994282,73.631736 C445.232675,73.631736 449.654827,71.578594 451.94487,67.709211 L451.94487,73 L463.474052,73 L463.474052,48.757131 C463.474052,35.88551 455.972187,29.884018 443.021599,29.884018 C436.230437,29.884018 429.360308,31.700259 424.701255,35.016873 L429.123407,43.624276 C432.20312,41.176299 436.862173,39.675926 441.363292,39.675926 C447.99652,39.675926 451.1552,42.755639 451.1552,48.046428 L441.363292,48.046428 C428.412704,48.046428 423.121915,53.25825 423.121915,60.760115 C423.121915,68.104046 429.04444,73.631736 438.994282,73.631736 Z M442.073995,65.340201 C437.73081,65.340201 435.124899,63.287059 435.124899,60.207346 C435.124899,57.364534 436.94114,55.232425 442.705731,55.232425 L451.1552,55.232425 L451.1552,59.57561 C449.733794,63.444993 446.180279,65.340201 442.073995,65.340201 Z M486.66935,73 L486.66935,14.406486 L474.350498,14.406486 L474.350498,73 L486.66935,73 Z" id="sasocial" fill="#BF9F33" fill-rule="nonzero"></path>
        <path d="M172.25,116 L172.25,110.725 L176.275,110.725 C180.675,110.725 183.2,108.425 183.2,104.475 C183.2,100.675 180.675,98.5 176.275,98.5 L169.3,98.5 L169.3,116 L172.25,116 Z M176.15,108.075 L172.25,108.075 L172.25,101.15 L176.15,101.15 C178.85,101.15 180.375,102.25 180.375,104.55 C180.375,106.925 178.85,108.075 176.15,108.075 Z M193.95,116.125 C199.175,116.125 203.225,112.25 203.225,107.25 C203.225,102.25 199.175,98.425 193.95,98.425 C188.725,98.425 184.675,102.225 184.675,107.25 C184.675,112.25 188.725,116.125 193.95,116.125 Z M193.975,113.475 C190.55,113.475 187.675,110.725 187.675,107.25 C187.675,103.775 190.525,101.075 193.975,101.075 C197.4,101.075 200.2,103.775 200.2,107.25 C200.2,110.725 197.4,113.475 193.975,113.475 Z M216.9,116 L216.9,113.325 L209.325,113.325 L209.325,98.5 L206.375,98.5 L206.375,116 L216.9,116 Z M222.675,116 L222.675,98.5 L219.725,98.5 L219.725,116 L222.675,116 Z M233.675,116 L233.675,101.15 L239.225,101.15 L239.225,98.5 L225.2,98.5 L225.2,101.15 L230.725,101.15 L230.725,116 L233.675,116 Z M248.925,96.6 L251.975,94.15 L249.025,92.9 L246.375,96.6 L248.925,96.6 Z M254.55,116 L254.55,113.35 L244.7,113.35 L244.7,108.525 L253.25,108.525 L253.25,105.875 L244.7,105.875 L244.7,101.15 L254.25,101.15 L254.25,98.5 L241.75,98.5 L241.75,116 L254.55,116 Z M265.8,116.125 C268.275,116.125 270.8,115 272.575,113.25 L270.825,111.3 C269.5,112.575 267.7,113.375 265.95,113.375 C262.45,113.375 259.7,110.65 259.7,107.2 C259.7,103.75 262.45,101.05 265.95,101.05 C267.725,101.05 269.55,101.9 270.825,103.275 L272.55,101.125 C270.85,99.45 268.375,98.425 265.9,98.425 C260.725,98.425 256.7,102.25 256.7,107.225 C256.7,112.25 260.675,116.125 265.8,116.125 Z M278.525,116 L278.525,103.45 L287.85,116 L290.75,116 L290.75,98.5 L287.85,98.5 L287.85,111.075 L278.475,98.5 L275.575,98.5 L275.575,116 L278.525,116 Z M298.325,116 L298.325,98.5 L295.375,98.5 L295.375,116 L298.325,116 Z M310.575,116.125 C313.05,116.125 315.575,115 317.35,113.25 L315.6,111.3 C314.275,112.575 312.475,113.375 310.725,113.375 C307.225,113.375 304.475,110.65 304.475,107.2 C304.475,103.75 307.225,101.05 310.725,101.05 C312.5,101.05 314.325,101.9 315.6,103.275 L317.325,101.125 C315.625,99.45 313.15,98.425 310.675,98.425 C305.5,98.425 301.475,102.25 301.475,107.225 C301.475,112.25 305.45,116.125 310.575,116.125 Z M328.175,116.125 C333.4,116.125 337.45,112.25 337.45,107.25 C337.45,102.25 333.4,98.425 328.175,98.425 C322.95,98.425 318.9,102.225 318.9,107.25 C318.9,112.25 322.95,116.125 328.175,116.125 Z M328.2,113.475 C324.775,113.475 321.9,110.725 321.9,107.25 C321.9,103.775 324.75,101.075 328.2,101.075 C331.625,101.075 334.425,103.775 334.425,107.25 C334.425,110.725 331.625,113.475 328.2,113.475 Z M354.15,116 C359.45,116 363.275,112.3 363.275,107.25 C363.275,102.175 359.475,98.5 354.225,98.5 L347.05,98.5 L347.05,116 L354.15,116 Z M354.3,113.35 L350,113.35 L350,101.15 L354.175,101.15 C357.625,101.15 360.3,103.7 360.3,107.275 C360.3,110.825 357.7,113.35 354.3,113.35 Z M379.225,116 L379.225,113.35 L369.375,113.35 L369.375,108.525 L377.925,108.525 L377.925,105.875 L369.375,105.875 L369.375,101.15 L378.925,101.15 L378.925,98.5 L366.425,98.5 L366.425,116 L379.225,116 Z M172.25,146 L172.25,140.725 L176.275,140.725 C180.675,140.725 183.2,138.425 183.2,134.475 C183.2,130.675 180.675,128.5 176.275,128.5 L169.3,128.5 L169.3,146 L172.25,146 Z M176.15,138.075 L172.25,138.075 L172.25,131.15 L176.15,131.15 C178.85,131.15 180.375,132.25 180.375,134.55 C180.375,136.925 178.85,138.075 176.15,138.075 Z M193.95,146.125 C199.175,146.125 203.225,142.25 203.225,137.25 C203.225,132.25 199.175,128.425 193.95,128.425 C188.725,128.425 184.675,132.225 184.675,137.25 C184.675,142.25 188.725,146.125 193.95,146.125 Z M193.975,143.475 C190.55,143.475 187.675,140.725 187.675,137.25 C187.675,133.775 190.525,131.075 193.975,131.075 C197.4,131.075 200.2,133.775 200.2,137.25 C200.2,140.725 197.4,143.475 193.975,143.475 Z M209.325,146 L209.325,140.725 L213.475,140.725 C213.75,140.725 214.025,140.725 214.275,140.7 L217.475,146 L220.825,146 L216.9,140.15 C219.225,139.25 220.525,137.275 220.525,134.475 C220.525,130.675 217.95,128.5 213.475,128.5 L206.375,128.5 L206.375,146 L209.325,146 Z M213.475,138.075 L209.325,138.075 L209.325,131.15 L213.475,131.15 C216.175,131.15 217.725,132.25 217.725,134.55 C217.725,136.925 216.175,138.075 213.475,138.075 Z M230.85,146 L230.85,131.15 L236.4,131.15 L236.4,128.5 L222.375,128.5 L222.375,131.15 L227.9,131.15 L227.9,146 L230.85,146 Z M239.725,146 L241.4,142.05 L250.225,142.05 L251.9,146 L255.05,146 L247.4,128.5 L244.375,128.5 L236.65,146 L239.725,146 Z M249.1,139.425 L242.5,139.425 L245.8,131.65 L249.1,139.425 Z M267.9,146 L267.9,143.325 L260.325,143.325 L260.325,128.5 L257.375,128.5 L257.375,146 L267.9,146 Z M283.525,146 L283.525,143.35 L273.675,143.35 L273.675,138.525 L282.225,138.525 L282.225,135.875 L273.675,135.875 L273.675,131.15 L283.225,131.15 L283.225,128.5 L270.725,128.5 L270.725,146 L283.525,146 Z M294.875,146.125 C297.275,146.125 299.9,145.2 301.675,143.85 L301.675,137.4 L299.1,137.4 L299.1,142.275 C297.85,143.025 296.375,143.475 295.075,143.475 C291.5,143.475 288.675,140.75 288.675,137.25 C288.675,133.775 291.475,131.05 295.05,131.05 C296.875,131.05 298.75,131.8 300.1,133.05 L301.775,130.875 C300.05,129.375 297.55,128.425 295.05,128.425 C289.75,128.425 285.675,132.25 285.675,137.25 C285.675,142.25 289.7,146.125 294.875,146.125 Z M308.8,146 L308.8,140.725 L312.95,140.725 C313.225,140.725 313.5,140.725 313.75,140.7 L316.95,146 L320.3,146 L316.375,140.15 C318.7,139.25 320,137.275 320,134.475 C320,130.675 317.425,128.5 312.95,128.5 L305.85,128.5 L305.85,146 L308.8,146 Z M312.95,138.075 L308.8,138.075 L308.8,131.15 L312.95,131.15 C315.65,131.15 317.2,132.25 317.2,134.55 C317.2,136.925 315.65,138.075 312.95,138.075 Z M336.725,146 L336.725,143.35 L326.875,143.35 L326.875,138.525 L335.425,138.525 L335.425,135.875 L326.875,135.875 L326.875,131.15 L336.425,131.15 L336.425,128.5 L323.925,128.5 L323.925,146 L336.725,146 Z" id="POLITÉCNICODEPORTALEGRE" fill="#BF9F33" fill-rule="nonzero" opacity="0.701032366"></path>
    </g>
</svg>