{

  "TICKER": {
    "1": {
      "SCOPE": "Notícias",
      "RESUME": "José Socrates foi preso esta tarde"
    },
    "2": {
      "SCOPE": "Notícias",
      "RESUME": "França é campeã do mundo"
    },
    "3": {
      "SCOPE": "Avisos",
      "RESUME": "ESTG fechada dia 12 de Agosto"
    },
    "4": {
      "SCOPE": "Ofertas de Emprego",
      "RESUME": "Google procura novos talentos"
    },
    "5": {
      "SCOPE": "Ofertas de Emprego",
      "RESUME": "Vem trabalhar na NQDA"
    },
    "6": {
      "SCOPE": "Ofertas de Emprego",
      "RESUME": "CM Viana do Castelo procura jardineiro"
    }
  },

  "MENU": {
    "INFORMATION": "Informação",
    "SERVICES": "Serviços ",
    "ACCOUNT": "Conta"
  }

}
