<?xml version="1.0" encoding="UTF-8"?>
<svg width="487px" height="156px" viewBox="0 0 487 156" version="1.1" xmlns="http://www.w3.org/2000/svg" xmlns:xlink="http://www.w3.org/1999/xlink">
    <title>Logo-Instituto-Politecnico-do-Cavado-e-do-Ave</title>
    <defs>
        <path d="M70.7107792,1.15891969e-13 C73.0040245,0.0108911338 74.826383,0.65909803 77.2207226,1.5547532 C79.6150623,2.44771872 82.3738736,3.67958079 85.4200057,5.15620148 C91.5202509,8.10944286 98.7484962,12.0605463 105.843723,16.2564084 C112.941609,20.4549601 119.890515,24.8928911 125.429421,28.8224773 C128.196213,30.7859256 130.606515,32.6256498 132.553911,34.2986153 C134.501308,35.9715808 135.956534,37.2545463 137.095175,39.2717877 C138.233817,41.2917187 138.584987,43.2148222 139.018628,45.7646153 C139.45227,48.3144084 139.790138,51.3617877 140.056175,54.7803394 C140.585591,61.6174429 140.825025,69.939236 140.79044,78.2744773 C140.755855,86.6097187 140.452572,94.9261325 139.864628,101.757857 C139.571987,105.176408 139.207515,108.213029 138.752591,110.760133 C138.297666,113.307236 137.941175,115.233029 136.786572,117.242201 C135.631968,119.251374 134.16344,120.523581 132.202742,122.180408 C130.242043,123.837236 127.813119,125.652753 125.027704,127.597374 C119.456874,131.481236 112.462742,135.851926 105.33293,139.988615 C98.2004585,144.127995 90.9535906,148.022615 84.8320623,150.922064 C81.7699679,152.377167 78.9978547,153.574064 76.595534,154.448201 C74.1958736,155.322339 72.3708547,155.959788 70.0802698,155.951794 C67.7870245,155.94096 65.964666,155.281995 63.5703264,154.389029 C61.1759868,153.493374 58.4198359,152.27765 55.368383,150.803719 C49.2707981,147.850477 42.0452132,143.891305 34.9473264,139.695443 C27.8521,135.496891 20.8978736,131.067029 15.3616283,127.137443 C12.5921755,125.168615 10.1765528,123.33427 8.22915661,121.661305 C6.28176038,119.988339 4.8345151,118.705374 3.69853396,116.685443 C2.55989245,114.668201 2.20606227,112.745098 1.77242076,110.195305 C1.33877925,107.645512 1.0035717,104.595443 0.737533964,101.176891 C0.20811887,94.3397877 -0.0313150924,86.0206842 0.00326981326,77.6854429 C0.0378547189,69.3475118 0.341137738,61.0230291 0.926420757,54.1913049 C1.21906227,50.7754429 1.58353396,47.7388222 2.03845849,45.1917187 C2.49338302,42.6446153 2.84987359,40.7268911 4.00447736,38.7177187 C5.15908113,36.7085463 6.62760944,35.4363394 8.58830755,33.7795118 C10.5490057,32.1226842 12.9805906,30.3044773 15.7660057,28.3625463 C21.3341755,24.4786842 28.3123453,20.1079946 35.4421566,15.9713049 C42.5746283,11.8319256 49.8347981,7.93461527 55.9589868,5.03247734 C59.0237415,3.5827532 61.7958547,2.38585665 64.1955151,1.51171872 C66.5951755,0.634891134 68.4228547,-0.0106261076 70.7107792,1.15891969e-13 Z M70.676,8.88887071 C70.6396171,8.90177273 70.4680615,8.93522875 70.193395,8.99602044 L69.9685727,9.04681513 C69.3202163,9.196338 68.2921162,9.46003399 67.1458736,9.87654631 C65.1399491,10.6081325 62.5647038,11.7162704 59.6648925,13.0879946 C53.8599491,15.8368222 46.7567415,19.6453739 39.7971943,23.685236 C32.8349868,27.725098 26.0004774,32.0070291 20.7249491,35.689167 C18.0858547,37.5262015 15.8351755,39.2153049 14.1990434,40.6004773 C12.7382112,41.8372384 11.7460839,43.0096742 11.5938078,43.1739641 L11.578,43.1888707 C11.5492726,43.3042336 11.0518819,44.6826941 10.6996171,46.5448196 L10.6580811,46.7705463 C10.2776472,48.8980635 9.92647736,51.7275808 9.64979812,54.963236 C9.09377925,61.437236 8.79315661,69.5815118 8.76123208,77.7204084 C8.72664717,85.8566153 8.96608113,94.0035808 9.47155283,100.48565 C9.7216283,103.723995 10.0302321,106.545443 10.3920434,108.67565 C10.7304814,110.653699 11.2661945,112.151686 11.2941372,112.273759 L11.294,112.275871 C11.3116557,112.291863 11.3498376,112.335471 11.409468,112.403604 L11.5148021,112.523658 C11.8980469,112.958662 12.7473642,113.898362 13.8931,114.880684 C15.5185906,116.279305 17.7586283,117.992615 20.3817604,119.853857 C25.6306849,123.579029 32.4306094,127.917443 39.3608925,132.013788 C46.2858547,136.112822 53.3544774,139.977857 59.1354774,142.775098 C62.0219868,144.173719 64.5998925,145.308753 66.5978359,146.056477 C68.3126391,146.695078 69.7557581,146.983914 70.0593668,147.053406 L70.111027,147.066285 L70.111027,147.066285 C70.2334044,147.030832 71.7770205,146.757709 73.6371943,146.083374 C75.6431189,145.351788 78.2183642,144.24365 81.1208359,142.869236 C86.9231189,140.123098 94.0263264,136.314546 100.988534,132.274684 C107.948081,128.234822 114.790572,123.950201 120.06876,120.270753 C122.705194,118.428339 124.955874,116.733857 126.592006,115.351374 C128.111271,114.065142 129.118998,112.848485 129.206216,112.763072 L129.207,112.761871 C129.234939,112.645011 129.73865,111.266471 130.091402,109.404342 L130.132968,109.178615 C130.513402,107.051098 130.856591,104.232339 131.13327,100.993995 C131.689289,94.5226842 131.997892,86.3703394 132.032477,78.2314429 C132.067062,70.095236 131.824968,61.9428911 131.322157,55.4662015 C131.072081,52.2278567 130.744855,49.4037187 130.383043,47.2735118 C130.044605,45.2954626 129.515774,43.8021139 129.488814,43.6828565 L129.488,43.6808707 C129.397884,43.5918766 128.475983,42.4672802 127.070772,41.2339071 L126.892628,41.079236 C125.267138,39.6806153 123.032421,37.9646153 120.409289,36.1033739 C115.163025,32.3782015 108.357779,28.0424773 101.432817,23.9461325 C94.502534,19.847098 87.4285906,15.9820635 81.6502509,13.1848222 C78.7610811,11.7862015 76.1858359,10.6484773 74.1852321,9.90344286 C72.3299989,9.20912759 70.7936174,8.92761949 70.6794519,8.89094648 L70.676,8.88887071 Z M40.4830396,92.1606291 C42.057983,90.6893877 44.6412094,90.6893877 46.2134925,92.1606291 C59.5792283,104.637939 81.2160774,104.637939 94.5791528,92.1606291 C96.1514359,90.6893877 98.7346623,90.6893877 100.306945,92.1606291 C101.836662,93.5834567 101.836662,95.8642842 100.306945,97.2871118 C83.7966434,112.704215 56.9960019,112.704215 40.4830396,97.2871118 C38.9586434,95.8642842 38.9586434,93.5834567 40.4830396,92.1606291 Z M49.1734283,51.2851325 C53.4619566,51.2851325 56.9390698,54.8005118 56.9390698,59.136236 C56.9390698,63.4692704 53.4619566,66.9846498 49.1734283,66.9846498 C44.8875604,66.9846498 41.4104472,63.4692704 41.4104472,59.136236 C41.4104472,54.8005118 44.8875604,51.2851325 49.1734283,51.2851325 Z M91.6173547,51.2851325 C95.905883,51.2851325 99.3829962,54.8005118 99.3829962,59.136236 C99.3829962,63.4692704 95.905883,66.9846498 91.6173547,66.9846498 C87.3314868,66.9846498 83.8543736,63.4692704 83.8543736,59.136236 C83.8543736,54.8005118 87.3314868,51.2851325 91.6173547,51.2851325 Z" id="path-1"></path>
    </defs>
    <g id="Logo-Instituto-Politecnico-do-Cavado-e-do-Ave" stroke="none" stroke-width="1" fill="none" fill-rule="evenodd">
        <g id="hive">
            <mask id="mask-2" fill="white">
                <use xlink:href="#path-1"></use>
            </mask>
            <use id="Mask" fill="#007A49" xlink:href="#path-1"></use>
        </g>
        <path d="M186.978651,73.631736 C199.692338,73.631736 207.036269,68.025079 207.036269,60.128379 C207.036269,43.387375 181.371994,50.415438 181.371994,43.150474 C181.371994,40.939398 183.741004,39.202124 189.268694,39.202124 C193.138077,39.202124 197.323328,39.991794 201.508579,42.360804 L205.614863,33.595467 C201.587546,31.226457 195.112252,29.884018 189.268694,29.884018 C176.870875,29.884018 169.605911,35.569642 169.605911,43.624276 C169.605911,60.602181 195.270186,53.495151 195.270186,60.444247 C195.270186,62.813257 193.138077,64.31363 187.452453,64.31363 C182.240631,64.31363 176.47604,62.655323 172.685624,60.207346 L168.57934,69.05165 C172.52769,71.657561 179.792654,73.631736 186.978651,73.631736 Z M227.467722,73.631736 C233.706115,73.631736 238.128267,71.578594 240.41831,67.709211 L240.41831,73 L251.947492,73 L251.947492,48.757131 C251.947492,35.88551 244.445627,29.884018 231.495039,29.884018 C224.703877,29.884018 217.833748,31.700259 213.174695,35.016873 L217.596847,43.624276 C220.67656,41.176299 225.335613,39.675926 229.836732,39.675926 C236.46996,39.675926 239.62864,42.755639 239.62864,48.046428 L229.836732,48.046428 C216.886144,48.046428 211.595355,53.25825 211.595355,60.760115 C211.595355,68.104046 217.51788,73.631736 227.467722,73.631736 Z M230.547435,65.340201 C226.20425,65.340201 223.598339,63.287059 223.598339,60.207346 C223.598339,57.364534 225.41458,55.232425 231.179171,55.232425 L239.62864,55.232425 L239.62864,59.57561 C238.207234,63.444993 234.653719,65.340201 230.547435,65.340201 Z M277.116965,73.631736 C289.830652,73.631736 297.174583,68.025079 297.174583,60.128379 C297.174583,43.387375 271.510308,50.415438 271.510308,43.150474 C271.510308,40.939398 273.879318,39.202124 279.407008,39.202124 C283.276391,39.202124 287.461642,39.991794 291.646893,42.360804 L295.753177,33.595467 C291.72586,31.226457 285.250566,29.884018 279.407008,29.884018 C267.009189,29.884018 259.744225,35.569642 259.744225,43.624276 C259.744225,60.602181 285.4085,53.495151 285.4085,60.444247 C285.4085,62.813257 283.276391,64.31363 277.590767,64.31363 C272.378945,64.31363 266.614354,62.655323 262.823938,60.207346 L258.717654,69.05165 C262.666004,71.657561 269.930968,73.631736 277.116965,73.631736 Z M324.713066,73.631736 C338.216423,73.631736 348.008331,64.550531 348.008331,51.757877 C348.008331,38.965223 338.216423,29.884018 324.713066,29.884018 C311.209709,29.884018 301.338834,38.965223 301.338834,51.757877 C301.338834,64.550531 311.209709,73.631736 324.713066,73.631736 Z M324.713066,63.52396 C318.55364,63.52396 313.81562,59.101808 313.81562,51.757877 C313.81562,44.413946 318.55364,39.991794 324.713066,39.991794 C330.872492,39.991794 335.531545,44.413946 335.531545,51.757877 C335.531545,59.101808 330.872492,63.52396 324.713066,63.52396 Z M376.494418,73.631736 C385.417689,73.631736 392.445752,69.683386 395.525465,62.892224 L385.970458,57.680402 C383.680415,61.786686 380.284834,63.52396 376.415451,63.52396 C370.177058,63.52396 365.281104,59.180775 365.281104,51.757877 C365.281104,44.334979 370.177058,39.991794 376.415451,39.991794 C380.284834,39.991794 383.680415,41.808035 385.970458,45.835352 L395.525465,40.702497 C392.445752,33.753401 385.417689,29.884018 376.494418,29.884018 C362.675193,29.884018 352.804318,38.965223 352.804318,51.757877 C352.804318,64.550531 362.675193,73.631736 376.494418,73.631736 Z M408.53402,24.593229 C413.114106,24.593229 416.193819,21.592483 416.193819,17.486199 C416.193819,13.695783 413.114106,10.852971 408.53402,10.852971 C403.953934,10.852971 400.874221,13.853717 400.874221,17.7231 C400.874221,21.592483 403.953934,24.593229 408.53402,24.593229 Z M414.693446,73 L414.693446,30.515754 L402.374594,30.515754 L402.374594,73 L414.693446,73 Z M438.994282,73.631736 C445.232675,73.631736 449.654827,71.578594 451.94487,67.709211 L451.94487,73 L463.474052,73 L463.474052,48.757131 C463.474052,35.88551 455.972187,29.884018 443.021599,29.884018 C436.230437,29.884018 429.360308,31.700259 424.701255,35.016873 L429.123407,43.624276 C432.20312,41.176299 436.862173,39.675926 441.363292,39.675926 C447.99652,39.675926 451.1552,42.755639 451.1552,48.046428 L441.363292,48.046428 C428.412704,48.046428 423.121915,53.25825 423.121915,60.760115 C423.121915,68.104046 429.04444,73.631736 438.994282,73.631736 Z M442.073995,65.340201 C437.73081,65.340201 435.124899,63.287059 435.124899,60.207346 C435.124899,57.364534 436.94114,55.232425 442.705731,55.232425 L451.1552,55.232425 L451.1552,59.57561 C449.733794,63.444993 446.180279,65.340201 442.073995,65.340201 Z M486.66935,73 L486.66935,14.406486 L474.350498,14.406486 L474.350498,73 L486.66935,73 Z" id="sasocial" fill="#007A49" fill-rule="nonzero"></path>
        <path d="M172.25,116 L172.25,98.5 L169.3,98.5 L169.3,116 L172.25,116 Z M179.8,116 L179.8,103.45 L189.125,116 L192.025,116 L192.025,98.5 L189.125,98.5 L189.125,111.075 L179.75,98.5 L176.85,98.5 L176.85,116 L179.8,116 Z M202.15,116.1 C206,116.1 208.75005,114.175 208.75005,111.05 C208.775,104.75 199.325,106.8 199.325,102.975 C199.325,101.8 200.45,101.15 202.175,101.15 C203.5,101.15 205.4,101.625 207.3,102.775 L208.525,100.175 C206.9,99.1 204.675,98.375 202.4,98.375 C198.6,98.375 196.025,100.25 196.025,103.25 C196.025,106.46625 198.547625,107.440167 200.986162,108.168161 L201.456387,108.306528 C203.561375,108.920187 205.475,109.445 205.475,111.2 C205.475,112.55 204.25,113.325 202.2,113.325 C200.325,113.325 198.075,112.425 196.275,110.775 L195,113.325 C196.8,114.975 199.4,116.1 202.15,116.1 Z M218.6,116 L218.6,101.15 L224.15,101.15 L224.15,98.5 L210.125,98.5 L210.125,101.15 L215.65,101.15 L215.65,116 L218.6,116 Z M229.625,116 L229.625,98.5 L226.675,98.5 L226.675,116 L229.625,116 Z M240.625,116 L240.625,101.15 L246.175,101.15 L246.175,98.5 L232.15,98.5 L232.15,101.15 L237.675,101.15 L237.675,116 L240.625,116 Z M255.975,116.125 C260.7,116.125 263.575,113.325 263.575,108.75 L263.575,98.5 L260.625,98.5 L260.625,108.75 C260.625,111.725 258.85,113.475 256,113.475 C253.125,113.475 251.3,111.7 251.3,108.75 L251.3,98.5 L248.35,98.5 L248.35,108.75 C248.35,113.325 251.25,116.125 255.975,116.125 Z M274.2,116 L274.2,101.15 L279.75,101.15 L279.75,98.5 L265.725,98.5 L265.725,101.15 L271.25,101.15 L271.25,116 L274.2,116 Z M290.1,116.125 C295.325,116.125 299.375,112.25 299.375,107.25 C299.375,102.25 295.325,98.425 290.1,98.425 C284.875,98.425 280.825,102.225 280.825,107.25 C280.825,112.25 284.875,116.125 290.1,116.125 Z M290.125,113.475 C286.7,113.475 283.825,110.725 283.825,107.25 C283.825,103.775 286.675,101.075 290.125,101.075 C293.55,101.075 296.35,103.775 296.35,107.25 C296.35,110.725 293.55,113.475 290.125,113.475 Z M311.925,116 L311.925,110.725 L315.95,110.725 C320.35,110.725 322.875,108.425 322.875,104.475 C322.875,100.675 320.35,98.5 315.95,98.5 L308.975,98.5 L308.975,116 L311.925,116 Z M315.825,108.075 L311.925,108.075 L311.925,101.15 L315.825,101.15 C318.525,101.15 320.05,102.25 320.05,104.55 C320.05,106.925 318.525,108.075 315.825,108.075 Z M333.625,116.125 C338.85,116.125 342.9,112.25 342.9,107.25 C342.9,102.25 338.85,98.425 333.625,98.425 C328.4,98.425 324.35,102.225 324.35,107.25 C324.35,112.25 328.4,116.125 333.625,116.125 Z M333.65,113.475 C330.225,113.475 327.35,110.725 327.35,107.25 C327.35,103.775 330.2,101.075 333.65,101.075 C337.075,101.075 339.875,103.775 339.875,107.25 C339.875,110.725 337.075,113.475 333.65,113.475 Z M356.575,116 L356.575,113.325 L349,113.325 L349,98.5 L346.05,98.5 L346.05,116 L356.575,116 Z M362.35,116 L362.35,98.5 L359.4,98.5 L359.4,116 L362.35,116 Z M373.35,116 L373.35,101.15 L378.9,101.15 L378.9,98.5 L364.875,98.5 L364.875,101.15 L370.4,101.15 L370.4,116 L373.35,116 Z M388.6,96.6 L391.65,94.15 L388.7,92.9 L386.05,96.6 L388.6,96.6 Z M394.225,116 L394.225,113.35 L384.375,113.35 L384.375,108.525 L392.925,108.525 L392.925,105.875 L384.375,105.875 L384.375,101.15 L393.925,101.15 L393.925,98.5 L381.425,98.5 L381.425,116 L394.225,116 Z M405.475,116.125 C407.95,116.125 410.475,115 412.25,113.25 L410.5,111.3 C409.175,112.575 407.375,113.375 405.625,113.375 C402.125,113.375 399.375,110.65 399.375,107.2 C399.375,103.75 402.125,101.05 405.625,101.05 C407.4,101.05 409.225,101.9 410.5,103.275 L412.225,101.125 C410.525,99.45 408.05,98.425 405.575,98.425 C400.4,98.425 396.375,102.25 396.375,107.225 C396.375,112.25 400.35,116.125 405.475,116.125 Z M418.2,116 L418.2,103.45 L427.525,116 L430.425,116 L430.425,98.5 L427.525,98.5 L427.525,111.075 L418.15,98.5 L415.25,98.5 L415.25,116 L418.2,116 Z M438,116 L438,98.5 L435.05,98.5 L435.05,116 L438,116 Z M450.25,116.125 C452.725,116.125 455.25,115 457.025,113.25 L455.275,111.3 C453.95,112.575 452.15,113.375 450.4,113.375 C446.9,113.375 444.15,110.65 444.15,107.2 C444.15,103.75 446.9,101.05 450.4,101.05 C452.175,101.05 454,101.9 455.275,103.275 L457,101.125 C455.3,99.45 452.825,98.425 450.35,98.425 C445.175,98.425 441.15,102.25 441.15,107.225 C441.15,112.25 445.125,116.125 450.25,116.125 Z M467.85,116.125 C473.075,116.125 477.125,112.25 477.125,107.25 C477.125,102.25 473.075,98.425 467.85,98.425 C462.625,98.425 458.575,102.225 458.575,107.25 C458.575,112.25 462.625,116.125 467.85,116.125 Z M467.875,113.475 C464.45,113.475 461.575,110.725 461.575,107.25 C461.575,103.775 464.425,101.075 467.875,101.075 C471.3,101.075 474.1,103.775 474.1,107.25 C474.1,110.725 471.3,113.475 467.875,113.475 Z M176.4,146 C181.7,146 185.525,142.3 185.525,137.25 C185.525,132.175 181.725,128.5 176.475,128.5 L169.3,128.5 L169.3,146 L176.4,146 Z M176.55,143.35 L172.25,143.35 L172.25,131.15 L176.425,131.15 C179.875,131.15 182.55,133.7 182.55,137.275 C182.55,140.825 179.95,143.35 176.55,143.35 Z M196.5,146.125 C201.725,146.125 205.775,142.25 205.775,137.25 C205.775,132.25 201.725,128.425 196.5,128.425 C191.275,128.425 187.225,132.225 187.225,137.25 C187.225,142.25 191.275,146.125 196.5,146.125 Z M196.525,143.475 C193.1,143.475 190.225,140.725 190.225,137.25 C190.225,133.775 193.075,131.075 196.525,131.075 C199.95,131.075 202.75,133.775 202.75,137.25 C202.75,140.725 199.95,143.475 196.525,143.475 Z M223.025,146.125 C225.5,146.125 228.025,145 229.8,143.25 L228.05,141.3 C226.725,142.575 224.925,143.375 223.175,143.375 C219.675,143.375 216.925,140.65 216.925,137.2 C216.925,133.75 219.675,131.05 223.175,131.05 C224.95,131.05 226.775,131.9 228.05,133.275 L229.775,131.125 C228.075,129.45 225.6,128.425 223.125,128.425 C217.95,128.425 213.925,132.25 213.925,137.225 C213.925,142.25 217.9,146.125 223.025,146.125 Z M240.6,126.6 L243.65,124.15 L240.7,122.9 L238.05,126.6 L240.6,126.6 Z M233.6,146 L235.275,142.05 L244.1,142.05 L245.775,146 L248.925,146 L241.275,128.5 L238.25,128.5 L230.525,146 L233.6,146 Z M242.975,139.425 L236.375,139.425 L239.675,131.65 L242.975,139.425 Z M259.05,146 L266.125,128.5 L263.05,128.5 L257.6,142.725 L252.2,128.5 L249.025,128.5 L256,146 L259.05,146 Z M269.3,146 L270.975,142.05 L279.8,142.05 L281.475,146 L284.625,146 L276.975,128.5 L273.95,128.5 L266.225,146 L269.3,146 Z M278.675,139.425 L272.075,139.425 L275.375,131.65 L278.675,139.425 Z M294.05,146 C299.35,146 303.175,142.3 303.175,137.25 C303.175,132.175 299.375,128.5 294.125,128.5 L286.95,128.5 L286.95,146 L294.05,146 Z M294.2,143.35 L289.9,143.35 L289.9,131.15 L294.075,131.15 C297.525,131.15 300.2,133.7 300.2,137.275 C300.2,140.825 297.6,143.35 294.2,143.35 Z M314.15,146.125 C319.375,146.125 323.425,142.25 323.425,137.25 C323.425,132.25 319.375,128.425 314.15,128.425 C308.925,128.425 304.875,132.225 304.875,137.25 C304.875,142.25 308.925,146.125 314.15,146.125 Z M314.175,143.475 C310.75,143.475 307.875,140.725 307.875,137.25 C307.875,133.775 310.725,131.075 314.175,131.075 C317.6,131.075 320.4,133.775 320.4,137.25 C320.4,140.725 317.6,143.475 314.175,143.475 Z M345.825,146 L345.825,143.35 L335.975,143.35 L335.975,138.525 L344.525,138.525 L344.525,135.875 L335.975,135.875 L335.975,131.15 L345.525,131.15 L345.525,128.5 L333.025,128.5 L333.025,146 L345.825,146 Z M362.975,146 C368.275,146 372.1,142.3 372.1,137.25 C372.1,132.175 368.3,128.5 363.05,128.5 L355.875,128.5 L355.875,146 L362.975,146 Z M363.125,143.35 L358.825,143.35 L358.825,131.15 L363,131.15 C366.45,131.15 369.125,133.7 369.125,137.275 C369.125,140.825 366.525,143.35 363.125,143.35 Z M383.075,146.125 C388.3,146.125 392.35,142.25 392.35,137.25 C392.35,132.25 388.3,128.425 383.075,128.425 C377.85,128.425 373.8,132.225 373.8,137.25 C373.8,142.25 377.85,146.125 383.075,146.125 Z M383.1,143.475 C379.675,143.475 376.8,140.725 376.8,137.25 C376.8,133.775 379.65,131.075 383.1,131.075 C386.525,131.075 389.325,133.775 389.325,137.25 C389.325,140.725 386.525,143.475 383.1,143.475 Z M402.75,146 L404.425,142.05 L413.25,142.05 L414.925,146 L418.075,146 L410.425,128.5 L407.4,128.5 L399.675,146 L402.75,146 Z M412.125,139.425 L405.525,139.425 L408.825,131.65 L412.125,139.425 Z M428.2,146 L435.275,128.5 L432.2,128.5 L426.75,142.725 L421.35,128.5 L418.175,128.5 L425.15,146 L428.2,146 Z M450.45,146 L450.45,143.35 L440.6,143.35 L440.6,138.525 L449.15,138.525 L449.15,135.875 L440.6,135.875 L440.6,131.15 L450.15,131.15 L450.15,128.5 L437.65,128.5 L437.65,146 L450.45,146 Z" id="INSTITUTOPOLITÉCNICODOCÁVADOEDOAVE" fill="#007A49" fill-rule="nonzero" opacity="0.701032366"></path>
    </g>
</svg>