<svg xmlns="http://www.w3.org/2000/svg" width="108" height="108" viewBox="0 0 108 108">
    <path fill="#B4B4B4" fill-rule="evenodd" d="M54 102C27.49 102 6 80.51 6 54S27.49 6 54 6s48 21.49 48 48-21.49 48-48 48zm0-9c21.54 0 39-17.46 39-39S75.54 15 54 15 15 32.46 15 54s17.46 39 39 39zm0-44.864l13.789-13.789 6.364 6.364L60.364 54.5l13.789 13.789-6.364 6.364L54 60.864 40.211 74.653l-6.364-6.364L47.636 54.5 33.847 40.711l6.364-6.364L54 48.136z"/>
</svg>
