<svg xmlns="http://www.w3.org/2000/svg" width="108" height="108" viewBox="0 0 108 108">
    <path fill="#000" fill-rule="evenodd" d="M94 45.316c0-1.227-.525-2.399-1.455-3.27L61.05 12.73c-3.9-3.627-10.235-3.64-14.15-.028L15.47 41.717c-.94.871-1.47 2.048-1.47 3.28v44.722C14 94.837 18.475 98 24 98h15c5.525 0 10-3.163 10-8.281v-4.632c0-2.556 2.24-4.631 5-4.631s5 2.075 5 4.631v4.632C59 94.837 63.475 98 69 98h15c5.525 0 10-3.163 10-8.281V45.316zM86.533 89.72c0 .775-.64 1.281-2.533 1.281H69c-1.893 0-2.533-.506-2.533-1.281v-4.632c0-6.441-5.603-11.631-12.467-11.631-6.864 0-12.467 5.19-12.467 11.631v4.632c0 .775-.64 1.281-2.533 1.281H24c-1.893 0-2.533-.506-2.533-1.281V46.006l30.672-28.318c.999-.921 2.655-.918 3.653.01l30.741 28.617v43.404z"/>
</svg>
