<svg xmlns="http://www.w3.org/2000/svg" width="108" height="108" viewBox="0 0 108 108">
  <path fill="currentColor" fill-rule="evenodd" d="M55.693609,21.9501986 C55.41974,21.4851574 55.1575743,21.1115124 54.9196096,20.8235495 C54.701031,21.0957655 54.4614858,21.4451722 54.2117605,21.8772328 L16.839441,86.5045768 C16.6007174,86.9173665 16.4232873,87.2842976 16.2982161,87.5991543 C16.6505683,87.6535259 17.0805173,87.6867689 17.5868202,87.6867689 L92.2335492,87.6867689 C92.7398726,87.6867689 93.1698387,87.653522 93.5222035,87.599144 C93.3971381,87.2843383 93.219725,86.917471 92.9810315,86.5047552 L89.5181838,80.5172778 L55.693609,21.9501986 Z M100.772082,81.9987333 C105.441235,90.0725089 101.613006,96.6867689 92.2335492,96.6867689 L17.5868202,96.6867689 C8.20735342,96.6867689 4.37932561,90.0726044 9.0484785,81.9989244 L46.4206505,17.3718356 C48.7570931,13.3294533 51.8299544,11.3138044 54.9103761,11.3138044 C57.9907978,11.3138044 61.0636591,13.33318 63.4487178,17.3831111 L100.772082,81.9987333 Z M50.0391028,43.8921333 L59.7814579,43.8921333 L59.7814579,66.4967556 L50.0391028,66.4967556 L50.0391028,43.8921333 Z M54.910089,81.1588 C52.7530856,81.1588 50.8091125,79.8598178 49.9867544,77.8703511 C49.1605874,75.8808844 49.6166597,73.5927111 51.1418647,72.0698422 C52.6671462,70.5507 54.958705,70.0952822 56.9511985,70.9164867 C58.943692,71.7413987 60.2409181,73.6823422 60.2409181,75.8360689 C60.2446572,77.2470422 59.68391,78.6056511 58.6820456,79.6060222 C57.6838849,80.6026667 56.3269413,81.1662533 54.910089,81.1662533 L54.910089,81.1588 Z"/>
</svg>
