<svg xmlns="http://www.w3.org/2000/svg" width="108" height="108" viewBox="0 0 108 108">
  <path fill="currentColor" fill-rule="evenodd" d="M54,101.5 C27.7664744,101.5 6.5,80.2335256 6.5,54 C6.5,27.7664744 27.7664744,6.5 54,6.5 C80.2335256,6.5 101.5,27.7664744 101.5,54 C101.5,80.2335256 80.2335256,101.5 54,101.5 Z M54,92.5 C75.2629629,92.5 92.5,75.2629629 92.5,54 C92.5,32.7370371 75.2629629,15.5 54,15.5 C32.7370371,15.5 15.5,32.7370371 15.5,54 C15.5,75.2629629 32.7370371,92.5 54,92.5 Z"/>
</svg>
