<svg xmlns="http://www.w3.org/2000/svg" width="108" height="108" viewBox="0 0 108 108">
  <path fill="currentColor" fill-rule="evenodd" d="M54.5420608,71.25 L69.5793677,71.25 C71.6456183,66.4000384 76.4561055,63 82.0607142,63 C89.5500899,63 95.6214285,69.0713386 95.6214285,76.5607142 C95.6214285,84.0500899 89.5500899,90.1214285 82.0607142,90.1214285 C75.8501675,90.1214285 70.6147362,85.946463 69.0078883,80.25 L55.1135402,80.25 C53.5066923,85.946463 48.271261,90.1214285 42.0607142,90.1214285 C34.5713386,90.1214285 28.5,84.0500899 28.5,76.5607142 C28.5,73.2099791 29.7152718,70.1430859 31.7290951,67.7767549 L21.2062313,21 L6,21 L6,12 L28.4065175,12 L30.6561101,22 L97.7126334,22 L88.4621494,60.3590023 L39.2853226,60.3590023 L39.9173307,63.168436 C40.6154788,63.0575778 41.3313725,63 42.0607142,63 C47.665323,63 52.4758102,66.4000384 54.5420608,71.25 Z M32.6807433,31 L37.2606893,51.3590023 L81.3745451,51.3590023 L86.2842302,31 L32.6807433,31 Z M42.0607142,81.1214285 C44.5795272,81.1214285 46.6214285,79.0795272 46.6214285,76.5607142 C46.6214285,74.0419013 44.5795272,72 42.0607142,72 C39.5419013,72 37.5,74.0419013 37.5,76.5607142 C37.5,79.0795272 39.5419013,81.1214285 42.0607142,81.1214285 Z M82.0607142,81.1214285 C84.5795272,81.1214285 86.6214285,79.0795272 86.6214285,76.5607142 C86.6214285,74.0419013 84.5795272,72 82.0607142,72 C79.5419013,72 77.5,74.0419013 77.5,76.5607142 C77.5,79.0795272 79.5419013,81.1214285 82.0607142,81.1214285 Z"/>
</svg>
