{
  "BUTTONS": {
    "SHOP": {
      "BUY": "Adicionar",
      "STOCK": "S/Stock",
      "LUNCH": "Almoço",
      "DINNER": "Jantar"
    }
  },
  "MODAL": {
    "ERROR": "Não pode realizar esta operação, sem estar autenticado"
  }
}
