{
    "mobility": {
      "departure": "Partida",
      "arrival": "Chegada",
      "stops": "Paragens",
      "noContent": "Não foram encontrados resultados para os locais e data especificados!",
      "today": "Hoje"
    }
}