<svg xmlns="http://www.w3.org/2000/svg" width="22" height="22" viewBox="0 0 22 22">
    <g fill="none" fill-rule="evenodd">
        <g fill="#FFF">
            <g>
                <g>
                    <g>
                        <path d="M11 1.222c5.4 0 9.778 4.378 9.778 9.778S16.4 20.778 11 20.778 1.222 16.4 1.222 11 5.6 1.222 11 1.222zm0 1.853c-4.377 0-7.925 3.548-7.925 7.925S6.623 18.925 11 18.925s7.925-3.548 7.925-7.925S15.377 3.075 11 3.075zm-.815 3.85h1.834v4.89h-1.834v-4.89zm.917 7.943c-.371 0-.705-.224-.847-.566-.142-.342-.064-.735.199-.997.262-.261.656-.34.999-.199.342.142.566.476.566.846 0 .243-.096.477-.269.649-.171.171-.405.268-.648.268v-.001z" transform="translate(-561 -596) translate(351 445) translate(200 147) translate(10 4)"/>
                    </g>
                </g>
            </g>
        </g>
    </g>
</svg>
