{
  "record": {
      "title": "Manual record of km",
      "distance": "Distance",
      "distanceDesc": "Aproximate travelled distance (in km)",
      "time": "Time of travel",
      "timeDesc": "The time you took to do the course (in minutes)",
      "date": "Date",
      "dateDesc": "Select the day of the travel",
      "description": "Description or name",
      "descriptionDesc": "Insert a short description in order to identify the record (this record is only visible to you)",
      "continue": "Submit",
      "delete": "Delete record",
      "send": "Submit",
      "error": "You must fill all fields!"
  }
}
