{
   "status": "success",
   "link": {
      "total": 3
    },
    "data": [
        {
            "id": 1,
            "name": "Lorem Ipsum is simply dummy text of the printing and typesetting industry.",
            "forever": true,
            "priority": 10,
            "date_begin": "",
            "date_end": "",
            "file": {
                "id": 1,
                "name": "Lorem Ipsum is simply dummy text of the printing and typesetting industry.",
                "path": "https://dummyimage.com/1080x1604/ffffff/000000/jpg",
                "mime_type": "image/jpeg",
                "width": "1080",
                "height": "1920",
                "extension": "jpg"
            }
        },
        {
            "id": 2,
            "name": "Lorem Ipsum is simply dummy text of the printing and typesetting industry.",
            "forever": false,
            "priority": 10,
            "date_begin": "2018-06-01T17:00:00+01:00",
            "date_end": "2018-08-01T17:00:00+01:00",
            "file": {
                "id": 1,
                "name": "Lorem Ipsum is simply dummy text of the printing and typesetting industry.",
                "path": "https://dummyimage.com/1080x1604/0099ff/ffffff/jpg",
                "mime_type": "image/jpeg",
                "width": "1080",
                "height": "1920",
                "extension": "jpg"
            }
        },
        {
            "id": 3,
            "name": "Lorem Ipsum is simply dummy text of the printing and typesetting industry.",
            "forever": true,
            "priority": 10,
            "date_begin": "",
            "date_end": "",
            "file": {
                "id": 1,
                "name": "Lorem Ipsum is simply dummy text of the printing and typesetting industry.",
                "path": "https://dummyimage.com/1080x1604/477647/ffffff/jpg",
                "mime_type": "image/jpeg",
                "width": "1080",
                "height": "1920",
                "extension": "jpg"
            }
        }
    ],
    "error": []
}