{
   "status": "success",
   "link": {
      "total": 3
    },
    "data": [
        {
            "id": 1,
            "summary": "Lorem Ipsum is simply dummy text of the printing and typesetting industry.",
            "forever": false,
            "date_begin": "2018-06-01T17:00:00+01:00",
            "date_end": "2018-08-01T17:00:00+01:00",
            "category": {
                "id": 1,
                "name": "Lorem Ipsum"
            }
        },
        {
            "id": 2,
            "summary": "Lorem Ipsum is simply dummy text of the printing and typesetting industry.",
            "forever": true,
            "date_begin": "",
            "date_end": "",
            "category": {
                "id": 1,
                "name": "Lorem Ipsum"
            }
        },
        {
            "id": 3,
            "summary": "Lorem Ipsum is simply dummy text of the printing and typesetting industry.",
            "forever": true,
            "date_begin": "",
            "date_end": "",
            "category": {
                "id": 2,
                "name": "Lorem Ipsum"
            }
        }
    ],
    "error": []
}