{
    "type": "object",
    "properties": {
        "status": {
            "type": "string",
            "enum": [
                "error"
            ]
        },
        "link": {
            "type": "object",
            "example": {}
        },
        "errors": {
            "type": "array",
            "items": {
                "$ref": "#/components/schemas/Error"
            }
        },
        "data": {
            "type": "array",
            "items": {},
            "maxItems": 0,
            "example": []
        }
    }
  }
  