{
  "MS_AUTH_ENDPOINT": {
    "name": "Authorization Microservice API",
    "secret": "fisas_secret_jwt_key"
  },
  "MS_CONG_ENDPOINT": {
    "name": "Configuration Microservice API"
  },
  "MS_CURRENT_ACCOUNT_ENDPOINT": {
    "name": "Current Account Microservice API"
  },
  "MS_INFRASTRUCTURE_ENDPOINT": {
    "name": "Infrastructure Microservice API"
  },
  "MS_MEDIA_ENDPOINT": {
    "name": "Media Microservice API"
  },
  "LOGS_ENDPOINT": {
    "name": "Logstash API"
  },
  "GOOGLE_DIRECTIONS": {
    "name": "Google Directions API",
    "base_url": "https://maps.googleapis.com/maps/api/directions/json?",
    "language": "pt",
    "region": "pt",
    "mode": "transit",
    "alternatives": "true"
  },
  "GOOGLE_GEOCODE":{
    "name": "Geocode API",
    "base_url": "https://maps.googleapis.com/maps/api/geocode/json?",
    "language" : "pt"
  },

  "GOOGLE_PLACES": {
    "name": "Google Places API",
    "base_url": "https://maps.googleapis.com/maps/api/place/nearbysearch/json?",
    "language" : "pt",
    "type" : "transit_station"
  },

  "GOOGLE_DISTANCES": {
    "name": "Google Distances API",
    "base_url": "https://maps.googleapis.com/maps/api/distancematrix/json?",
    "language" : "pt",
    "mode": "transit"
  },
  "RADIUS": {
    "limit": 2
  }
}