{
  "LAST_TICKET": {
    "DESK_OPERATOR": "DESK OPERATOR",
    "SERVICE": "SERVICE",
    "TICKET": "TICKET",
    "DESK": "DESK",
    "SERVICED_BY": "Serviced by:",
    "TICKET_AND_QUEUE": "TICKET",
    "TIME": "Time"
  }
}
