{
  "FOOTER-MODAL": {
    "TITLE": "Confirm Purchase",
    "TITLE2": "Confirm Annulment",
    "BUY": "Pay",
    "CANCEL": "Cancel",
    "CANCELTICKET": "Cancel ticket",
    "SUCCESS": "Successful purchase!",
    "SUCCESS2": "Successful ticket annulment!",
    "EXIT": "Exit",
    "ERROR": "An error has occurred. Try again!",
    "NO_BALANCE": "Insufficient funds!",
    "NO_BALANCE_RESUME": "Make a deposit in your account to be able to make purchases",
    "UBIKE_TITLE": "UBike Application",
    "UBIKE_DESC": "Confirm the cancellation of your UBike application by pressing the button!",
    "UBIKE_BUTTON": "Cancel application",
    "SUCCESSUBIKE": "Your UBike Application was cancelled with success"
  }
}
