<svg xmlns="http://www.w3.org/2000/svg" width="108" height="108" viewBox="0 0 108 108">
    <path fill="#000" fill-rule="evenodd" d="M54 47.636l22.274-22.274 6.364 6.364L60.364 54l22.274 22.274-6.364 6.364L54 60.364 31.726 82.638l-6.364-6.364L47.636 54 25.362 31.726l6.364-6.364z"/>
</svg>
