<svg xmlns="http://www.w3.org/2000/svg" width="108" height="108" viewBox="0 0 108 108">
    <path fill="#1BA974" fill-rule="evenodd" d="M54 6.5c26.234 0 47.5 21.266 47.5 47.5S80.234 101.5 54 101.5 6.5 80.234 6.5 54 27.766 6.5 54 6.5zm0 9c-21.263 0-38.5 17.237-38.5 38.5S32.737 92.5 54 92.5 92.5 75.263 92.5 54 75.263 15.5 54 15.5zm21.205 18.35l6.364 6.363L46.213 75.57 25 54.355l6.364-6.364 14.85 14.85 28.99-28.992z"/>
</svg>
