<svg xmlns="http://www.w3.org/2000/svg" width="25" height="25" viewBox="0 0 25 25">
    <g fill="none" fill-rule="evenodd">
        <g fill="#FFF">
            <g>
                <g>
                    <g>
                        <path d="M12 20.667c4.786 0 8.667-3.88 8.667-8.667 0-4.786-3.88-8.667-8.667-8.667-4.786 0-8.667 3.88-8.667 8.667 0 4.786 3.88 8.667 8.667 8.667zm0 2C6.109 22.667 1.333 17.89 1.333 12S6.11 1.333 12 1.333 22.667 6.11 22.667 12 17.89 22.667 12 22.667z" transform="translate(-870 -254) translate(276.5 236.08) translate(588 12) translate(6 6)"/>
                        <path d="M6.667 11.111H17.334V13.111H6.667z" transform="translate(-870 -254) translate(276.5 236.08) translate(588 12) translate(6 6)"/>
                    </g>
                </g>
            </g>
        </g>
    </g>
</svg>
