<svg xmlns="http://www.w3.org/2000/svg" width="108" height="108" viewBox="0 0 108 108">
    <path fill="#000" fill-rule="evenodd" d="M60.167 10c3.963 0 7.291 3.199 7.291 7.284l-.001 1.25c.815.305 1.619.637 2.409.995l.904-.901c1.553-1.548 3.384-2.095 5.151-2.095 1.77 0 3.588.53 5.159 2.095l8.543 8.514a7.248 7.248 0 0 1 2.129 5.138 7.24 7.24 0 0 1-2.14 5.15l-.9.896c.36.787.691 1.583.994 2.387h1.279c1.91 0 3.757.732 5.166 2.137a7.245 7.245 0 0 1 2.125 5.138v12.02c0 1.928-.751 3.77-2.148 5.162a7.281 7.281 0 0 1-5.143 2.117h-1.279a37.84 37.84 0 0 1-.993 2.388l.91.907a7.241 7.241 0 0 1 2.129 5.138 7.24 7.24 0 0 1-2.14 5.15l-8.523 8.493c-2.789 2.785-7.522 2.785-10.311.005l-.907-.904c-.795.36-1.598.693-2.41.996v1.265c0 4.076-3.326 7.275-7.29 7.275H48.106c-1.92 0-3.762-.74-5.163-2.137a7.258 7.258 0 0 1-2.129-5.142v-1.264a38.037 38.037 0 0 1-2.406-.995l-.911.908c-2.786 2.77-7.515 2.77-10.3-.005l-8.544-8.514a7.248 7.248 0 0 1-2.128-5.139 7.24 7.24 0 0 1 2.14-5.15l.898-.894a37.906 37.906 0 0 1-.992-2.385h-1.287l-.18-.002c-3.886-.1-7.104-3.266-7.104-7.273V47.984c0-4.076 3.327-7.275 7.291-7.275h1.28c.302-.805.632-1.6.989-2.383l-.91-.908a7.245 7.245 0 0 1-2.125-5.138c0-1.99.799-3.81 2.145-5.151l8.517-8.484c1.556-1.557 3.387-2.105 5.16-2.105 1.769 0 3.555.494 5.148 2.088l.91.906c.79-.359 1.593-.69 2.405-.994v-1.265C40.81 13.2 44.138 10 48.102 10h12.065zm0 7H48.102c-.16 0-.292.13-.292.275v6.342l-3.033.958a31.078 31.078 0 0 0-4.918 2.032l-2.814 1.455-2.245-2.236-2.246-2.24a.408.408 0 0 0-.207-.046.373.373 0 0 0-.21.054l-8.527 8.494a.247.247 0 0 0-.085.192c0 .08.023.137.077.192l4.501 4.485-1.47 2.827a31.007 31.007 0 0 0-2.034 4.9l-.962 3.025H17.29c-.16 0-.291.13-.291.275v12.024c0 .143.127.271.284.275h6.355l.96 3.029c.53 1.67 1.214 3.31 2.038 4.896l1.47 2.827-4.5 4.486a.245.245 0 0 0-.082.191c0 .077.024.134.081.192l8.532 8.502c.054.054.369.054.423 0l4.488-4.472 2.814 1.456c1.581.818 3.232 1.5 4.915 2.03l3.036.958v6.343c0 .078.026.139.082.195.06.06.118.084.21.084H60.17c.16 0 .29-.13.29-.275V84.38l3.037-.956a31.328 31.328 0 0 0 4.926-2.035l2.811-1.448 4.484 4.468c.057.057.367.057.423 0l8.528-8.498a.245.245 0 0 0 .082-.192.246.246 0 0 0-.082-.192l-4.503-4.487 1.474-2.829a30.771 30.771 0 0 0 2.036-4.897l.96-3.028h6.348a.283.283 0 0 0 .213-.087.242.242 0 0 0 .078-.192v-12.02a.248.248 0 0 0-.078-.192.273.273 0 0 0-.213-.083h-6.348l-.96-3.028a31.07 31.07 0 0 0-2.04-4.904l-1.466-2.826 4.499-4.483a.245.245 0 0 0 .082-.192.252.252 0 0 0-.082-.192l-8.532-8.502a.4.4 0 0 0-.217-.053.39.39 0 0 0-.21.053l-4.491 4.477-2.817-1.464a30.53 30.53 0 0 0-4.91-2.027l-3.043-.956.004-3.19.004-3.15c0-.146-.13-.276-.291-.276zM54.5 37C64.165 37 72 44.835 72 54.5S64.165 72 54.5 72 37 64.165 37 54.5 44.835 37 54.5 37zm0 5C47.596 42 42 47.596 42 54.5S47.596 67 54.5 67 67 61.404 67 54.5 61.404 42 54.5 42z"/>
</svg>
