<svg xmlns="http://www.w3.org/2000/svg" width="108" height="108" viewBox="0 0 108 108">
    <path fill="#000" fill-rule="evenodd" d="M65.454 54L38.636 27.182 45 20.818 78.182 54 45 87.182l-6.364-6.364z"/>
</svg>
