{
	"profiles": [
		{
			"name": "*",
			"scopes": [
				"configuration:apresentation_texts:read",
				"configuration:terms:read",
				"configuration:form_informations:read",
				"configuration:services:read",
				"configuration:privacy_policies:read",
				"configuration:informations:read",
				"configuration:languages:read",
				"communication",
				"communication:posts:tickers",
				"communication:posts:medias-tv",
				"communication:posts:medias-kiosk",
				"communication:posts:medias-webpage",
				"communication:posts:events",
				"communication:posts:mobile",
				"communication:posts:read",
				"authorization:document-types:read",
				"payments:cart:read",
				"reports:reports:read",
				"media:files:read",
				"media:files:create",
				"media:files:delete",
				"bus",
				"bus:route_search",
				"bus:locals:read",
				"bus:routes:read",
				"alimentation",
				"private_accommodation",
				"private_accommodation:listings",
				"private_accommodation:listings:read",
				"private_accommodation:typologies:list",
				"current_account:accounts:charge",
				"current_account:movements:pay",
				"payments:payments:read",
				"calendar:categorys:read",
				"calendar:events:read",
				"volunteering:experiences:list",
				"volunteering:experiences:read"
			]
		},
		{
			"name": "Alunos",
			"scopes": [
				"sasocial:is_student",
				"accommodation:absences",
				"accommodation:application-phases",
				"accommodation:applications",
				"accommodation:billings",
				"accommodation:bookings",
				"accommodation:extensions",
				"accommodation:extras",
				"accommodation:configurations",
				"accommodation:oppositions",
				"accommodation:residences",
				"accommodation:services",
				"accommodation:typologies",
				"accommodation:regimes",
				"accommodation:withdrawals",
				"accommodation:accommodation-periods",
				"communication:posts",
				"accommodation:application-phases:read",
				"accommodation:applications:list",
				"accommodation:bookings:list",
				"accommodation:extensions:read",
				"accommodation:billings:list",
				"accommodation:typologies:read",
				"accommodation:regimes:read",
				"accommodation:patrimony-categories:read",
				"accommodation:withdrawals:read",
				"accommodation:absences:update",
				"accommodation:application-phases:list",
				"accommodation:applications:create",
				"accommodation:extensions:list",
				"accommodation:typologies:list",
				"accommodation:rooms:read",
				"accommodation:patrimony-categories:list",
				"accommodation:withdrawals:list",
				"accommodation:absences:create",
				"accommodation:absences:list",
				"accommodation:configurations:read",
				"accommodation:oppositions:read",
				"accommodation:residences:list",
				"accommodation:rooms:list",
				"accommodation:accommodation-periods:read",
				"accommodation:withdrawals:create",
				"accommodation:application-phases:open",
				"accommodation:applications:read",
				"accommodation:bookings:read",
				"accommodation:extras:list",
				"accommodation:billings:read",
				"accommodation:oppositions:create",
				"accommodation:oppositions:list",
				"accommodation:residences:read",
				"accommodation:services:list",
				"configuration:form_informations:read",
				"accommodation:absences:read",
				"accommodation:absences:delete",
				"accommodation:applications:update",
				"accommodation:extensions:create",
				"accommodation:extras:read",
				"accommodation:services:read",
				"accommodation:regimes:list",
				"accommodation:accommodation-periods:list",
				"configuration:courses:read",
				"configuration:course-degrees:read",
				"infrastructure:organic-units:read",
				"accommodation",
				"accommodation:rooms",
				"accommodation:patrimony-categories",
				"current_account",
				"current_account:movements:list",
				"current_account:movements:read",
				"current_account:movements:charges-history",
				"payments:cart:create",
				"alimentation",
				"social_scholarship",
				"social_scholarship:applications:create",
				"social_scholarship:applications:list",
				"social_scholarship:applications:read",
				"social_scholarship:applications:cancel",
				"social_scholarship:experience-user-interest:create",
				"social_scholarship:experiences:list",
				"social_scholarship:experiences:read",
				"social_scholarship:activities:read",
				"bus",
				"bus:applications",
				"bus:applications:read",
				"bus:applications:create",
				"bus:absences",
				"bus:absences:create",
				"bus:absences:read",
				"bus:absences:list",
				"bus:withdrawals",
				"bus:withdrawals:create",
				"bus:withdrawals:read",
				"bus:withdrawals:list",
				"bus:sub23_declarations",
				"bus:sub23_declarations:create",
				"bus:sub23_declarations:read",
				"bus:sub23_declarations:list",
				"bus:tickets_bought:list",
				"bus:tickets_bought:read",
				"private_accommodation",
				"private_accommodation:typologies:list",
				"private_accommodation:typologies:read",
				"private_accommodation:listings:read",
				"volunteering",
				"queue",
				"queue:ticket_history:read",
				"queue:services:read",
				"u_bike",
				"u_bike:configs:read",
				"u_bike:applications",
				"u_bike:applications:read",
				"u_bike:applications:create",
				"u_bike:applications:update",
				"u_bike:application-forms",
				"u_bike:application-forms:read",
				"u_bike:application-forms:create",
				"u_bike:typologies:read",
				"alimentation:menu",
				"health",
				"health:specialty:list",
				"health:specialty:read",
				"health:specialty:schedule",
				"health:appointment:list",
				"health:appointment:read",
				"health:appointment:create",
				"health:appointment:historic",
				"health:appointment:complaint:create",
				"health:appointment:complaint:read",
				"health:doctor:list",
				"health:doctor:read",
				"health:appointment-type:list",
				"health:appointment-type:read",
				"health:tariff:list",
				"health:tariff:read",
				"health:appointment:doctor_appointments"
			]
		},
		{
			"name": "Funcionários",
			"scopes": [
				"sasocial:is_employee",
				"current_account",
				"current_account:movements:list",
				"current_account:movements:read",
				"current_account:movements:charges-history",
				"configuration:devices:read",
				"payments:cart:create",
				"alimentation:menu",
				"health",
				"health:specialty:list",
				"health:specialty:read",
				"health:specialty:schedule",
				"health:appointment:list",
				"health:appointment:read",
				"health:appointment:create",
				"health:appointment:historic",
				"health:appointment:complaint:create",
				"health:appointment:complaint:read"
			]
		},
		{
			"name": "Docentes",
			"scopes": [
				"sasocial:is_employee",
				"current_account",
				"current_account:movements:list",
				"current_account:movements:read",
				"current_account:movements:charges-history",
				"configuration:devices:read",
				"payments:cart:create",
				"alimentation:menu",
				"health",
				"health:specialty:list",
				"health:specialty:read",
				"health:specialty:schedule",
				"health:appointment:list",
				"health:appointment:read",
				"health:appointment:create",
				"health:appointment:historic",
				"health:appointment:complaint:create",
				"health:appointment:complaint:read"
			]
		},
		{
			"name": "External",
			"scopes": [
				"private_accommodation:owners",
				"private_accommodation:owners:create",
				"private_accommodation:configurations:is_configured",
				"private_accommodation:configurations:get-owner_profile_id",
				"private_accommodation:configurations:get-owner_regulation"
			]
		},
		{
			"name": "Proprietários",
			"scopes": [
				"sasocial:is_private_accommodation_owner",
				"private_accommodation:listings:create",
				"private_accommodation:listings:update",
				"private_accommodation:listings:owner",
				"private_accommodation:configurations:get-max_listing_publish_days",
				"private_accommodation:configurations:get-max_medias_per_listing"
			]
		}
	],
	"user_groups": [
		{
			"name": "Alojamento - Gestão",
			"scopes": [
				"authorization",
				"accommodation",
				"configuration",
				"current_account",
				"media",
				"notifications",
				"reports",
				"payments",
				"infrastructure",
				"accommodation:absences",
				"accommodation:application-phases",
				"accommodation:applications",
				"accommodation:billings",
				"accommodation:bookings",
				"accommodation:extensions",
				"accommodation:extras",
				"accommodation:occupation-map",
				"accommodation:configurations",
				"accommodation:oppositions",
				"accommodation:regimes",
				"accommodation:residences",
				"accommodation:rooms",
				"accommodation:services",
				"accommodation:typologies",
				"accommodation:withdrawals",
				"authorization:profiles",
				"authorization:scopes",
				"authorization:user-groups",
				"authorization:targets",
				"authorization:users",
				"accommodation:accommodation-periods",
				"accommodation:patrimony-categories",
				"authorization:document-types",
				"configuration:terms",
				"configuration:regulations",
				"configuration:informations",
				"configuration:academic_years",
				"configuration:apresentation_texts",
				"configuration:apresentation_text_files",
				"configuration:privacy_policies",
				"configuration:privacy_policy_files",
				"configuration:components",
				"configuration:course-degrees",
				"configuration:devices",
				"configuration:courses",
				"configuration:contacts",
				"configuration:groups",
				"configuration:footers",
				"configuration:languages",
				"configuration:taxes",
				"configuration:schools",
				"configuration:services",
				"notifications:alert-templates",
				"notifications:notifications",
				"notifications:notification-methods",
				"notifications:alerts",
				"notifications:alert-types",
				"current_account:documents",
				"current_account:accounts",
				"current_account:default_item_configuration",
				"current_account:document_types",
				"current_account:cash_account",
				"media:categories",
				"current_account:movements",
				"reports:templates",
				"media:types",
				"media:translations",
				"media:files",
				"infrastructure:configuration",
				"infrastructure:assets",
				"infrastructure:buildings",
				"reports:reports",
				"infrastructure:locations",
				"infrastructure:organic-units",
				"infrastructure:rooms",
				"infrastructure:services",
				"infrastructure:floors",
				"infrastructure:wings",
				"infrastructure:areas",
				"infrastructure:document-types",
				"infrastructure:categories",
				"payments:payment-methods",
				"payments:cart",
				"accommodation:absences:list",
				"accommodation:absences:create",
				"accommodation:absences:update",
				"accommodation:absences:read",
				"accommodation:absences:delete",
				"accommodation:application-phases:create",
				"accommodation:application-phases:update",
				"accommodation:application-phases:open",
				"accommodation:applications:create",
				"accommodation:application-phases:read",
				"accommodation:application-phases:list",
				"accommodation:applications:update",
				"accommodation:applications:read",
				"accommodation:applications:list",
				"accommodation:applications:delete",
				"accommodation:application-phases:delete",
				"accommodation:applications:status",
				"accommodation:applications:rollback",
				"accommodation:applications:dispatch",
				"accommodation:applications:all-applications",
				"accommodation:applications:applications-selection",
				"accommodation:applications:applications-analyse",
				"accommodation:applications:applications-queued",
				"accommodation:applications:applications-unassigned",
				"accommodation:applications:applications-dispatches",
				"accommodation:applications:applications-oppositions",
				"accommodation:applications:applications-contracteds",
				"accommodation:applications:applications-assigned",
				"accommodation:applications:applications-confirmeds",
				"accommodation:billings:create",
				"accommodation:billings:update",
				"accommodation:billings:read",
				"accommodation:applications:applications-closed",
				"accommodation:billings:delete",
				"accommodation:extensions:create",
				"accommodation:extensions:update",
				"accommodation:billings:list",
				"accommodation:extensions:list",
				"accommodation:extensions:status",
				"accommodation:extensions:delete",
				"accommodation:bookings:create",
				"accommodation:extensions:read",
				"accommodation:bookings:read",
				"accommodation:bookings:update",
				"accommodation:bookings:list",
				"accommodation:bookings:delete",
				"accommodation:extras:create",
				"accommodation:extras:update",
				"accommodation:extras:read",
				"accommodation:extras:list",
				"accommodation:extras:delete",
				"accommodation:configurations:read",
				"accommodation:oppositions:create",
				"accommodation:oppositions:update",
				"accommodation:configurations:create",
				"accommodation:oppositions:list",
				"accommodation:oppositions:delete",
				"accommodation:regimes:create",
				"accommodation:oppositions:read",
				"accommodation:regimes:read",
				"accommodation:regimes:update",
				"accommodation:residences:read",
				"accommodation:residences:create",
				"accommodation:regimes:list",
				"accommodation:regimes:delete",
				"accommodation:rooms:create",
				"accommodation:residences:delete",
				"accommodation:residences:update",
				"accommodation:rooms:read",
				"accommodation:rooms:list",
				"accommodation:rooms:update",
				"accommodation:services:create",
				"accommodation:rooms:delete",
				"accommodation:services:update",
				"accommodation:residences:list",
				"accommodation:services:list",
				"accommodation:services:read",
				"accommodation:services:delete",
				"accommodation:typologies:read",
				"accommodation:typologies:create",
				"accommodation:typologies:delete",
				"accommodation:withdrawals:create",
				"accommodation:typologies:update",
				"accommodation:typologies:list",
				"accommodation:withdrawals:read",
				"accommodation:withdrawals:list",
				"accommodation:withdrawals:delete",
				"accommodation:withdrawals:update",
				"authorization:scopes:create",
				"authorization:scopes:update",
				"authorization:scopes:read",
				"accommodation:withdrawals:status",
				"authorization:scopes:delete",
				"authorization:profiles:create",
				"authorization:profiles:update",
				"authorization:scopes:list",
				"authorization:profiles:list",
				"authorization:user-groups:read",
				"authorization:profiles:delete",
				"authorization:user-groups:create",
				"authorization:user-groups:update",
				"authorization:user-groups:delete",
				"authorization:targets:create",
				"authorization:user-groups:list",
				"authorization:profiles:read",
				"authorization:targets:read",
				"authorization:targets:list",
				"authorization:targets:delete",
				"authorization:targets:update",
				"authorization:users:update",
				"authorization:users:read",
				"authorization:users:list",
				"authorization:users:change-status",
				"accommodation:accommodation-periods:create",
				"authorization:users:create",
				"authorization:users:delete",
				"accommodation:accommodation-periods:update",
				"accommodation:patrimony-categories:create",
				"accommodation:accommodation-periods:read",
				"accommodation:accommodation-periods:list",
				"accommodation:accommodation-periods:delete",
				"accommodation:patrimony-categories:read",
				"accommodation:patrimony-categories:update",
				"authorization:document-types:update",
				"accommodation:patrimony-categories:list",
				"accommodation:patrimony-categories:delete",
				"authorization:document-types:create",
				"authorization:document-types:list",
				"authorization:document-types:delete",
				"authorization:document-types:read",
				"configuration:informations:create",
				"configuration:informations:update",
				"configuration:informations:read",
				"configuration:regulations:create",
				"configuration:informations:delete",
				"configuration:informations:list",
				"configuration:regulations:read",
				"configuration:regulations:delete",
				"configuration:regulations:list",
				"configuration:regulations:update",
				"configuration:terms:update",
				"configuration:terms:read",
				"configuration:terms:list",
				"configuration:terms:create",
				"configuration:terms:delete",
				"configuration:academic_years:create",
				"configuration:academic_years:read",
				"configuration:academic_years:delete",
				"configuration:apresentation_text_files:update",
				"configuration:academic_years:list",
				"configuration:apresentation_text_files:read",
				"configuration:apresentation_text_files:create",
				"configuration:apresentation_text_files:delete",
				"configuration:privacy_policies:create",
				"configuration:academic_years:update",
				"configuration:apresentation_text_files:list",
				"configuration:privacy_policies:update",
				"configuration:privacy_policies:delete",
				"configuration:apresentation_texts:create",
				"configuration:privacy_policies:list",
				"configuration:privacy_policies:read",
				"configuration:apresentation_texts:read",
				"configuration:apresentation_texts:update",
				"configuration:apresentation_texts:list",
				"configuration:apresentation_texts:delete",
				"configuration:privacy_policy_files:read",
				"configuration:privacy_policy_files:update",
				"configuration:privacy_policy_files:list",
				"configuration:privacy_policy_files:create",
				"configuration:components:create",
				"configuration:components:update",
				"configuration:components:read",
				"configuration:privacy_policy_files:delete",
				"configuration:course-degrees:create",
				"configuration:components:delete",
				"configuration:course-degrees:update",
				"configuration:components:list",
				"configuration:course-degrees:list",
				"configuration:courses:create",
				"configuration:course-degrees:delete",
				"configuration:course-degrees:read",
				"configuration:courses:read",
				"configuration:courses:list",
				"configuration:courses:update",
				"configuration:courses:delete",
				"configuration:devices:update",
				"configuration:devices:read",
				"configuration:contacts:create",
				"configuration:devices:list",
				"configuration:devices:create",
				"configuration:contacts:update",
				"configuration:contacts:read",
				"configuration:devices:delete",
				"configuration:contacts:delete",
				"configuration:groups:create",
				"configuration:groups:update",
				"configuration:contacts:list",
				"configuration:groups:list",
				"configuration:groups:delete",
				"configuration:groups:read",
				"configuration:languages:create",
				"configuration:languages:list",
				"configuration:languages:read",
				"configuration:languages:delete",
				"configuration:footers:create",
				"configuration:languages:update",
				"configuration:footers:update",
				"configuration:footers:read",
				"configuration:footers:list",
				"configuration:footers:delete",
				"configuration:taxes:update",
				"configuration:taxes:create",
				"configuration:taxes:read",
				"configuration:taxes:list",
				"configuration:taxes:delete",
				"configuration:schools:update",
				"configuration:schools:read",
				"configuration:schools:list",
				"configuration:schools:create",
				"configuration:services:create",
				"configuration:services:update",
				"configuration:schools:delete",
				"configuration:services:delete",
				"configuration:services:list",
				"configuration:services:read",
				"notifications:alert-templates:create",
				"notifications:alert-templates:update",
				"notifications:alert-templates:read",
				"notifications:alert-templates:delete",
				"notifications:notifications:internal",
				"notifications:notifications:read",
				"notifications:alert-templates:list",
				"notifications:notifications:list",
				"notifications:notification-methods:create",
				"notifications:notification-methods:list",
				"notifications:notification-methods:delete",
				"notifications:notification-methods:update",
				"notifications:notification-methods:read",
				"notifications:alerts:create",
				"notifications:alert-types:create",
				"notifications:alerts:read",
				"notifications:alerts:update",
				"notifications:alerts:list",
				"notifications:alerts:delete",
				"notifications:alert-types:update",
				"notifications:alert-types:delete",
				"current_account:documents:list",
				"notifications:alert-types:list",
				"current_account:accounts:create",
				"notifications:alert-types:read",
				"current_account:accounts:read",
				"current_account:accounts:list",
				"current_account:documents:read",
				"current_account:accounts:delete",
				"current_account:accounts:charge",
				"current_account:accounts:update",
				"current_account:accounts:uncharge",
				"current_account:cash_account:update",
				"current_account:cash_account:read",
				"current_account:cash_account:list",
				"current_account:cash_account:create",
				"current_account:default_item_configuration:create",
				"current_account:default_item_configuration:update",
				"current_account:default_item_configuration:read",
				"current_account:cash_account:delete",
				"current_account:default_item_configuration:delete",
				"current_account:document_types:list",
				"current_account:document_types:read",
				"current_account:default_item_configuration:list",
				"current_account:movements:charges-history",
				"current_account:movements:confirm",
				"current_account:movements:create",
				"current_account:document_types:update",
				"current_account:movements:update",
				"current_account:movements:delete",
				"media:categories:create",
				"current_account:movements:list",
				"media:categories:list",
				"current_account:movements:read",
				"media:categories:read",
				"reports:templates:create",
				"media:categories:update",
				"reports:templates:read",
				"media:categories:delete",
				"reports:templates:update",
				"media:translations:create",
				"reports:templates:delete",
				"reports:templates:list",
				"media:translations:list",
				"media:translations:update",
				"media:translations:delete",
				"media:types:create",
				"media:translations:read",
				"media:types:read",
				"media:types:list",
				"media:types:delete",
				"media:types:update",
				"media:files:update",
				"media:files:create",
				"media:files:read",
				"infrastructure:assets:update",
				"media:files:delete",
				"media:files:restore-file",
				"infrastructure:assets:create",
				"infrastructure:assets:list",
				"infrastructure:assets:read",
				"infrastructure:assets:delete",
				"infrastructure:buildings:update",
				"media:files:list",
				"infrastructure:buildings:read",
				"infrastructure:buildings:create",
				"infrastructure:buildings:list",
				"reports:reports:read",
				"reports:reports:list",
				"infrastructure:organic-units:create",
				"infrastructure:buildings:delete",
				"infrastructure:organic-units:read",
				"infrastructure:organic-units:list",
				"infrastructure:organic-units:delete",
				"infrastructure:organic-units:update",
				"infrastructure:locations:update",
				"infrastructure:locations:read",
				"infrastructure:locations:list",
				"infrastructure:locations:create",
				"infrastructure:rooms:create",
				"infrastructure:rooms:update",
				"infrastructure:rooms:read",
				"infrastructure:locations:delete",
				"infrastructure:rooms:delete",
				"infrastructure:services:create",
				"infrastructure:services:update",
				"infrastructure:rooms:list",
				"infrastructure:services:list",
				"infrastructure:services:delete",
				"infrastructure:services:read",
				"infrastructure:floors:delete",
				"infrastructure:areas:create",
				"infrastructure:floors:list",
				"infrastructure:floors:create",
				"infrastructure:floors:update",
				"infrastructure:areas:read",
				"infrastructure:areas:list",
				"infrastructure:wings:create",
				"infrastructure:areas:update",
				"infrastructure:floors:read",
				"infrastructure:wings:update",
				"infrastructure:wings:read",
				"infrastructure:areas:delete",
				"infrastructure:wings:delete",
				"infrastructure:document-types:create",
				"infrastructure:document-types:list",
				"infrastructure:document-types:update",
				"infrastructure:document-types:delete",
				"infrastructure:document-types:read",
				"infrastructure:wings:list",
				"payments:payment-methods:list",
				"infrastructure:categories:create",
				"infrastructure:categories:update",
				"payments:payment-methods:read",
				"infrastructure:categories:list",
				"infrastructure:categories:delete",
				"infrastructure:categories:read",
				"payments:cart:create",
				"payments:cart:update",
				"payments:cart:delete",
				"payments:cart:read",
				"payments:cart:list",
				"configuration:form_informations",
				"configuration:form_informations:update",
				"configuration:form_informations:delete",
				"configuration:form_informations:create",
				"configuration:form_informations:list",
				"configuration:form_informations:read",
				"current_account:documents:update",
				"current_account:documents:update"
			]
		},
		{
			"name": "Saude - Gestão",
			"scopes": [
				"health",
				"authorization",
				"configuration",
				"media",
				"notifications",
				"reports",
				"payments",
				"health:appointment-type",
				"health:appointment-type:create",
				"health:appointment-type:update",
				"health:appointment-type:list",
				"health:appointment-type:delete",
				"health:appointment-type:read",
				"health:consult-type",
				"health:consult-type:create",
				"health:consult-type:update",
				"health:consult-type:list",
				"health:consult-type:delete",
				"health:consult-type:read",
				"health:payment-type",
				"health:payment-type:create",
				"health:payment-type:update",
				"health:payment-type:list",
				"health:payment-type:delete",
				"health:payment-type:read",
				"health:place:create",
				"health:place:update",
				"health:place:list",
				"health:place:delete",
				"health:place:read",
				"health:place:status",
				"health:specialty:create",
				"health:specialty:update",
				"health:specialty:list",
				"health:specialty:delete",
				"health:specialty:read",
				"health:specialty:status",
				"health:specialty:schedule",
				"health:doctor:create",
				"health:doctor:create-internal",
				"health:doctor:list",
				"health:doctor:update",
				"health:doctor:delete",
				"health:doctor:read",
				"health:doctor:schedule:create",
				"health:doctor:schedule:remove",
				"health:doctor:schedule:update",
				"health:doctor:schedule:get",
				"health:doctor:calendar",
				"health:doctor:specialties",
				"health:complaint:create",
				"health:complaint:list",
				"health:complaint:update",
				"health:complaint:delete",
				"health:complaint:read",
				"health:doctor-external:create",
				"health:doctor-external:validate",
				"health:doctor-external:list",
				"health:doctor-external:update",
				"health:doctor-external:delete",
				"health:doctor-external:read",
				"health:price-variation",
				"health:price-variation:create",
				"health:price-variation:list",
				"health:price-variation:update",
				"health:price-variation:delete",
				"health:price-variation:read",
				"health:appointment:create",
				"health:appointment:list",
				"health:appointment:update",
				"health:appointment:delete",
				"health:appointment:read",
				"health:appointment:absence",
				"health:appointment:approve-request",
				"health:appointment:change",
				"health:appointment:cancel",
				"health:appointment:complaint",
				"health:appointment:answer-complaint",
				"health:appointment:historic",
				"health:appointment:certificate",
				"health:tariff:list",
				"health:tariff:update",
				"health:tariff:delete",
				"health:tariff:read",
				"health:schedule:create",
				"health:schedule:update",
				"health:schedule:list",
				"health:schedule:delete",
				"health:schedule:read",
				"health:period:create",
				"health:period:update",
				"health:period:list",
				"health:period:delete",
				"health:period:periods",
				"configuration:holidays:update",
				"configuration:holidays:create",
				"configuration:holidays:read",
				"configuration:holidays:list",
				"configuration:holidays:delete"
			]
		}
	]
}