{
  "applications-details": {
    "no": "NÃO",
    "yes": "SIM",
    "requestedBike": "BICICLETA REQUISITADA",
    "submittedCandidature": "Dados da candidatura",
    "actualTransport": "TRANSPORTE ATUAL",
    "bikeConventional": "Convencional",
    "bikeElectric": "Elétrica",
    "bikeOther": "Estou disponível para outra preferência caso não haja a minha opção?",
    "bikeRequested": "Bicicleta Requisitada",
    "bikeRequestedDesc": "Tipologia de bicicleta a que candidatas.",
    "bikeRequestedType": "Que tipo de bicicleta precisas?",
    "continue": "Continuar",
    "dailyCommute": "Deslocação diária",
    "dailyCommuteDesc": "Transporte diário usado atualmente nas deslocações entre a residência e o instituto.",
    "dailyKms": "Quilômetros diários",
    "dailyKmsDesc": "Número de quilômetros realizados diariamente entre a residência e o instituto.",
    "endDate": "Data de Fim",
    "endDateDesc": "Regista a data para terminar a utilização da bicicleta UBike.",
    "error": "Deve preencher todos os campos!",
    "height": "Altura",
    "meters": "Metros",
    "physicalStature": "ESTATURA FÍSICA",
    "physicalStatureDesc": "Esta informação serve para cálculo estimativo das calorias gastas com o uso a bicicleta.",
    "startDate": "Data de Início",
    "startDateDesc": "Regista a data para começar a utilizar a bicicleta UBike.",
    "terms": "TERMOS DE UTILIZAÇÃO",
    "termsDesc": "Declaro que tomei conhecimento dos Termos de Utilização.",
    "title": "Candidatura UBike",
    "weight": "Peso Aproximado",
    "onFoot": "A pé",
    "car": {
      "car": "Automóvel",
      "motorcycle": "Motociclo",
      "brand": "Marca",
      "train": "Comboio",
      "bike": "Bicicleta",
      "brandDesc": "Insira a marca do veículo",
      "fuel": "Combustível",
      "fuelDesc": "Combustível do Transporte Diário (no caso de usar veìculo motorizado pessoal).",
      "hp": "Cavalos",
      "model": "Modelo",
      "modelDesc": "Insira o modelo do veículo",
      "power": "Potência",
      "powerDesc": "Insira a potência do veículo",
      "year": "Ano de Registo",
      "yearDesc": "Insira o ano de registo do veículo"
    },
    "fuel": {
      "diesel": "Gasóleo",
      "electric": "Elétrico",
      "gasoline": "Gasolina"
    }
  }
}
