{
  "CART": {
    "MENU": {
      "BUTTONS": {
        "BACK": "Voltar",
        "PAY_WITH_MONEY": "Pagar c/ dinheiro",
        "PAY_WITH_BALANCE": "Pagar e Sair",
        "DEPOSIT": "Carregar",
        "BALANCE": "Saldo",
        "ACCOUNT": "Conta"
      },
      "NOTIFICATIONS": {
        "WARNING": {
          "TITLE": "Funcionalidade indisponível!",
          "DESCRIPTION": "Esta funcionalidade ainda não está disponível!"
        },
        "CART": {
          "TITLE": "Carrinho.",
          "SUCCESS": {
            "DESCRIPTION": "A compra foi bem sucedida.",
            "DESCRIPTION_REFECTORY": "O processo de identificação na cantina é através do cartão e por isso não é necessário ticket em papel."
          },
          "ERROR": {
            "DESCRIPTION":
              "Ocorreu um erro na compra, por favor tente mais tarde.",
              "INSUFFICIENT_BALANCE": "Saldo insuficiente"
          },
          "CLEAR": {
            "DESCRIPTION":
              "Ao autenticar-se o seu carrinho de compras vai ficar vazio, tem a certeza de que quer continuar?"
          }
        }
      }
    },
    "TICKET": {
      "USER": "Utilizador: ",
      "CANTEEN": "Cantina: ",
      "NOT_RECEIVE": "Não serve de factura",
      "MEAL": "REFEIÇÃO",
      "LUNCH": "Almoço",
      "DINNER": "Jantar"
    },
    "MODAL": {
      "TITLE": "Pretende prosseguir para o pagamento?",
      "CANCEL": "Não, voltar",
      "CONFIRM_CONT": "Confirmar, continuar",
      "CONFIRM_EXIT": "Confirmar, sair"
    }
  }
}
