{
	"201809201045_initial_db_schema.js": "20180920104500_initial_db_schema.js",
	"2021_00000000_schema.js": "20210220000000_house_hold_element.js",
	"20210528155112_new.js": "20210528155112_preferred_tipology.js"
}