{
    "current-account-detail": {
        "movementDetail": "Detalhes de movimento",
        "resultBalance": "Saldo resultante",
        "date": "Data",
        "institute": "Instituto",
        "canteen": "Cantina",
        "account": "Conta",
        "device": "Dispositivo",
        "status": "Estado",
        "quantity": "Quantidade",
        "value": "Valor",
        "operation": "Operação",
        "user": "Utilizador",
        "origin": "Origem",
        "article": "Artigo",
        "description": "Descrição",
        "document": "Documento",
        "doc_type": "Tipo de Documento",
        "doc_date": "Data de Documento",
        "doc_num": "Nº Documento",
        "due_date": "Data de Vencimento",
        "associated_doc": "Documento Associado",
        "payment_method": "Meio de pagamento",
        "cancel": "Cancelar"
    }
}