<svg xmlns="http://www.w3.org/2000/svg" width="108" height="108" viewBox="0 0 108 108">
    <path fill="#000" fill-rule="evenodd" d="M10 54.5C10 29.41 29.962 9 54.5 9S99 29.41 99 54.5C99 79.589 79.038 100 54.5 100S10 79.589 10 54.5zm44.5-40.241c-21.651 0-39.265 18.052-39.265 40.241S32.85 94.741 54.5 94.741 93.765 76.69 93.765 54.5 76.15 14.259 54.5 14.259zm12.317 42.513c0 1.485-.753 2.228-2.26 2.228-1.507 0-2.511-.99-2.511-2.475V35.426l-6.028 4.704c-1.004.742-2.762.495-3.516-.496-.25-.495-.502-.99-.502-1.485 0-.742.502-1.485 1.005-1.98l10.045-7.921s0-.248.251-.248h1.256c.251 0 .502 0 .754.248h.25c0 .247.252.247.252.247l10.296 8.169c1.005.99 1.256 2.475.251 3.465-.753 1.238-2.51 1.238-3.516.495l-6.027-4.95v21.098zM45.532 79h-1.003c0-.248-.25-.248-.25-.248l-10.276-8.168C33.25 70.089 33 69.346 33 68.604c0-.496.25-.99.501-1.486.752-1.238 2.507-1.238 3.51-.495l6.015 4.95V50.476c0-1.485 1.002-2.475 2.506-2.475 1.504 0 2.506.99 2.506 2.475v21.099l6.016-4.704c1.002-.742 2.757-.495 3.509.496.752.99.501 2.723-.501 3.465l-10.026 7.921s0 .248-.25.248h-1.254z"/>
</svg>
