<svg xmlns="http://www.w3.org/2000/svg" width="108" height="108" viewBox="0 0 108 108">
    <path fill="currentColor" fill-rule="evenodd" d="M54 102C27.49 102 6 80.51 6 54S27.49 6 54 6s48 21.49 48 48-21.49 48-48 48zm0-9c21.54 0 39-17.46 39-39S75.54 15 54 15 15 32.46 15 54s17.46 39 39 39zm-4-39V26h8v26.343l18.627 18.628-5.656 5.656-19.8-19.799A3.987 3.987 0 0 1 50 54z"/>
</svg>
