<svg xmlns="http://www.w3.org/2000/svg" width="108" height="108" viewBox="0 0 108 108">
    <path fill="#222" fill-rule="evenodd" d="M54 60.063L67.335 46.5l3.165 3.219L54 66.5 37.5 49.719l3.165-3.219z"/>
</svg>
