<svg xmlns="http://www.w3.org/2000/svg" width="108" height="108" viewBox="0 0 108 108">
  <g fill="none" fill-rule="evenodd">
    <polygon fill="#333" points="75.92 34.281 82.284 40.645 46.929 76 25.716 54.787 32.08 48.423 46.929 63.272"/>
    <path fill="currentColor" d="M20,15.5 C17.5147186,15.5 15.5,17.5147186 15.5,20 L15.5,88 C15.5,90.4852814 17.5147186,92.5 20,92.5 L88,92.5 C90.4852814,92.5 92.5,90.4852814 92.5,88 L92.5,20 C92.5,17.5147186 90.4852814,15.5 88,15.5 L20,15.5 Z M20,6.5 L88,6.5 C95.4558441,6.5 101.5,12.5441559 101.5,20 L101.5,88 C101.5,95.4558441 95.4558441,101.5 88,101.5 L20,101.5 C12.5441559,101.5 6.5,95.4558441 6.5,88 L6.5,20 C6.5,12.5441559 12.5441559,6.5 20,6.5 Z"/>
  </g>
</svg>
