<svg xmlns="http://www.w3.org/2000/svg" width="108" height="108" viewBox="0 0 108 108">
  <path fill="currentColor" fill-rule="evenodd" d="M19,39.9855885 C12.2822818,39.6621188 7,33.9348456 7,27 C7,20.0651544 12.2822818,14.3378812 19,14.0144115 L19,14 L89,14 L89,14.0144115 C95.7177182,14.3378812 101,20.0651544 101,27 C101,33.9348456 95.7177182,39.6621188 89,39.9855885 L89,94 L75.3043478,84.8754877 L66.5018904,90.7399862 L54,84.4930956 L41.5372079,90.7204497 L32.6956522,85.011771 L19,93.8545675 L19,39.9855885 Z M19,31.9573499 L19,22.0426501 C16.7737763,22.3611167 15,24.4263948 15,27 C15,29.5736052 16.7737763,31.6388833 19,31.9573499 Z M89,22.0426501 L89,31.9573499 C91.2262237,31.6388833 93,29.5736052 93,27 C93,24.4263948 91.2262237,22.3611167 89,22.0426501 Z M28.1304348,23.1245123 L28.1304348,77.0961253 L32.6956522,74.1485265 L42.114966,80.2302431 L54,74.2915808 L65.8459357,80.2107066 L75.3043478,73.9091887 L79.8695652,76.9506928 L79.8695652,23.1245123 L28.1304348,23.1245123 Z M35,57 L73,57 L73,63 L35,63 L35,57 Z M35,45 L73,45 L73,51 L35,51 L35,45 Z M35,33 L73,33 L73,39 L35,39 L35,33 Z"/>
</svg>
