<svg xmlns="http://www.w3.org/2000/svg" width="108" height="108" viewBox="0 0 108 108">
  <path fill="currentColor" fill-rule="evenodd" d="M32.7777778,53.8568855 C32.7777778,42.181011 42.3002861,32.6903189 54,32.6903189 C65.7026802,32.6903189 75.2222222,42.1798999 75.2222222,53.8568855 C75.2222222,65.5355953 65.7009541,75.023452 54,75.023452 C42.2973198,75.023452 32.7777778,65.533871 32.7777778,53.8568855 Z M41.7777778,53.8568855 C41.7777778,60.5569463 47.2615427,66.023452 54,66.023452 C60.7374599,66.023452 66.2222222,60.5579365 66.2222222,53.8568855 C66.2222222,47.1568246 60.7384573,41.6903189 54,41.6903189 C47.2641186,41.6903189 41.7777778,47.158329 41.7777778,53.8568855 Z M15.8019225,69.3709074 C10.6730788,69.3709074 6.5,65.2144552 6.5,60.0854007 L6.5,47.6205999 C6.5,42.4939122 10.6707164,38.3350932 15.8019225,38.3350932 L15.9401017,38.3350932 C15.9858475,38.223521 16.0320844,38.1121466 16.0788101,38.0009755 L15.9843741,37.9068617 C14.2364853,36.1571783 13.263823,33.811441 13.263823,31.3403712 C13.263823,28.8650391 14.2436992,26.5164605 16.0000697,24.7660944 L24.8325488,15.9677618 C26.555041,14.2433125 28.9429006,13.2800564 31.410145,13.2800564 C33.8789141,13.2800564 36.2660329,14.2401992 37.9844312,15.960511 L38.0795034,16.0552582 C38.1995604,16.0049577 38.3198437,15.9552304 38.4403484,15.9060785 L38.4403484,15.7855067 C38.4403484,10.658819 42.6110649,6.5 47.7422709,6.5 L60.2498299,6.5 C65.3786736,6.5 69.5517523,10.6564522 69.551749,15.7909466 L69.5516166,15.9005256 C69.672611,15.9498077 69.7933492,15.9996645 69.9138247,16.0500934 L70.011594,15.9526583 C71.7361134,14.2340144 74.1204357,13.2721852 76.5819497,13.2721852 L76.5859059,13.2721852 C79.050429,13.2721852 81.434945,14.2333106 83.1601921,15.9526398 L92.0116768,24.7738807 C93.7594911,26.5234895 94.736177,28.869244 94.736177,31.3403712 C94.736177,33.817196 93.7580121,36.166512 92.0045916,37.9139383 L91.9179327,38.000301 C91.9654326,38.1130466 92.012412,38.2259571 92.0588689,38.3390288 L92.1980775,38.3390288 C94.6727004,38.3390288 97.0218388,39.3064277 98.7794489,41.058045 C100.52732,42.8077108 101.5,45.153542 101.5,47.6245355 L101.5,60.0852998 C101.5,62.5620028 100.52586,64.9113653 98.765263,66.6659277 C97.0126427,68.4048002 94.667076,69.3747421 92.1980775,69.3747421 L92.0600286,69.3747421 C92.0134839,69.4881664 91.9664262,69.6013907 91.9188589,69.714408 L92.0116768,69.8069092 C93.7601857,71.5572134 94.736177,73.899289 94.736177,76.3733997 C94.736177,78.8502246 93.7580121,81.1995406 92.0045916,82.9469669 L83.1676986,91.7536463 C79.5998357,95.3172622 73.5918981,95.3172622 70.0196192,91.7571955 L69.9193804,91.6572994 C69.798376,91.7080212 69.6771822,91.758149 69.5558037,91.80768 L69.5558037,91.9282642 C69.5558037,97.0549519 65.3850873,101.213771 60.2538813,101.213771 L47.7463223,101.213771 C45.271665,101.213771 42.9264774,100.246339 41.1689001,98.4947548 C39.421065,96.7451252 38.4443998,94.3953965 38.4443998,91.9243286 L38.4443998,91.8041654 C38.3238132,91.7549669 38.2034421,91.7051886 38.0832937,91.6548339 L37.9811503,91.7566279 C34.4097875,95.3082381 28.4071844,95.3082381 24.8400115,91.7532599 L15.9885268,82.932019 C14.2407124,81.1824102 13.2640265,78.8366557 13.2640265,76.3655285 C13.2640265,73.8887036 14.2421914,71.5393876 15.9956119,69.7919614 L16.0812724,69.7065937 C16.0341874,69.5948693 15.987612,69.4829724 15.9415483,69.3709074 L15.8019225,69.3709074 Z M22.3824033,60.3708065 L23.3783838,63.5098867 C23.9275345,65.2406715 24.6360817,66.9417716 25.4907781,68.5860691 L27.0143164,71.5171102 L22.3486671,76.1668095 C22.2875108,76.2277568 22.2640265,76.2841603 22.2640265,76.3655285 C22.2640265,76.4445077 22.2890111,76.5045145 22.3486671,76.5642475 L31.1930667,85.3784117 C31.2491569,85.4343102 31.5752653,85.4343102 31.6314783,85.3784117 L36.2841028,80.7416926 L39.2016964,82.2512189 C40.8408149,83.0992783 42.5520986,83.806826 44.2968724,84.3566366 L47.4443998,85.348481 L47.4443998,91.9243286 C47.4443998,92.0052331 47.4707422,92.0686093 47.5290404,92.1269832 C47.5912402,92.1889704 47.6513601,92.2137709 47.7463223,92.2137709 L60.2538813,92.2137709 C60.4202708,92.2137709 60.5558037,92.0786247 60.5558037,91.9282642 L60.5558037,85.3524166 L63.7033311,84.3605722 C65.4407466,83.8130803 67.1505961,83.1061097 68.8095061,82.2515149 L71.7243543,80.7499179 L76.3726744,85.3823473 C76.431557,85.4410286 76.7523308,85.4410286 76.811086,85.3823473 L85.6515364,76.5721187 C85.7126927,76.5111715 85.736177,76.4547679 85.736177,76.3733997 C85.736177,76.2924336 85.7125762,76.235799 85.6515364,76.1746808 L80.9836796,71.5227815 L82.5112945,68.5903485 C83.3592087,66.9626793 84.0692868,65.2552669 84.6218197,63.5138223 L85.6178002,60.3747421 L92.1980775,60.3747421 C92.2879331,60.3747421 92.3563802,60.3464378 92.4193085,60.2840188 C92.4771772,60.2263479 92.5,60.1713055 92.5,60.0852998 L92.5,47.6245355 C92.5,47.540907 92.4756854,47.4822671 92.4193085,47.4258165 C92.3584687,47.3651847 92.2949544,47.3390288 92.1980775,47.3390288 L85.6178002,47.3390288 L84.6218197,44.1999486 C84.0730634,42.4704068 83.364383,40.7681207 82.5076296,39.1163721 L80.9880103,36.1866736 L85.6515364,31.5390901 C85.7126927,31.4781429 85.736177,31.4217393 85.736177,31.3403712 C85.736177,31.2613919 85.7111924,31.2013852 85.6515364,31.1416522 L76.8071554,22.3275065 C76.7891916,22.3096043 76.6963562,22.2721852 76.5859059,22.2721852 L76.5819497,22.2721852 C76.4754002,22.2721852 76.3825938,22.3096231 76.3646678,22.327488 L71.7079646,26.9682719 L68.7877838,25.4512248 C67.1651114,24.6082393 65.4578054,23.9035606 63.6977479,23.350026 L60.5438036,22.3581167 L60.5478004,19.0518752 L60.5517523,15.7855067 C60.5517523,15.6350758 60.4161362,15.5 60.2498299,15.5 L47.7422709,15.5 C47.5758813,15.5 47.4403484,15.6351463 47.4403484,15.7855067 L47.4403484,22.3593942 L44.2952526,23.3524317 C42.5442454,23.9052975 40.8365699,24.6108622 39.1972507,25.4588204 L36.2798104,26.9679025 L33.9532536,24.6492993 L31.624168,22.3281596 C31.611436,22.3154136 31.5235307,22.2800564 31.410145,22.2800564 C31.3014278,22.2800564 31.2121435,22.3160735 31.192151,22.3360688 L22.3524127,31.1416522 C22.28735,31.2064925 22.263823,31.2628823 22.263823,31.3403712 C22.263823,31.4240507 22.2881023,31.4826043 22.3445145,31.5390901 L27.0102499,36.1888753 L25.4865526,39.1199708 C24.6405582,40.7473874 23.9324818,42.4524435 23.3774042,44.1984568 L22.3802315,47.3350932 L15.8019225,47.3350932 C15.6355329,47.3350932 15.5,47.4702395 15.5,47.6205999 L15.5,60.0854007 C15.5,60.2334521 15.6313598,60.3666304 15.7940542,60.3708065 L22.3824033,60.3708065 Z"/>
</svg>
