<svg xmlns="http://www.w3.org/2000/svg" width="108" height="108" viewBox="0 0 108 108">
  <path fill="currentColor" fill-rule="evenodd" d="M54,101.5 C27.7664744,101.5 6.5,80.2335256 6.5,54 C6.5,27.7664744 27.7664744,6.5 54,6.5 C80.2335256,6.5 101.5,27.7664744 101.5,54 C101.5,80.2335256 80.2335256,101.5 54,101.5 Z M54,92.5 C75.2629629,92.5 92.5,75.2629629 92.5,54 C92.5,32.7370371 75.2629629,15.5 54,15.5 C32.7370371,15.5 15.5,32.7370371 15.5,54 C15.5,75.2629629 32.7370371,92.5 54,92.5 Z M37,50 L37,75 L71,75 L71,50 L37,50 Z M40,44 L40,37 C40,29.2680135 46.2680135,23 54,23 C61.7319865,23 68,29.2680135 68,37 L68,44 L71,44 C74.3137085,44 77,46.6862915 77,50 L77,75 C77,78.3137085 74.3137085,81 71,81 L37,81 C33.6862915,81 31,78.3137085 31,75 L31,50 C31,46.6862915 33.6862915,44 37,44 L40,44 Z M62,44.0065455 L62,37 C62,32.581722 58.418278,29 54,29 C49.581722,29 46,32.581722 46,37 L46,44.0065455 L62,44.0065455 Z M52,65.5839563 C50.2340952,64.8123997 49,63.050319 49,61 C49,58.2385763 51.2385763,56 54,56 C56.7614237,56 59,58.2385763 59,61 C59,63.050319 57.7659048,64.8123997 56,65.5839563 L56,69 L52,69 L52,65.5839563 Z M54,63 C55.1045695,63 56,62.1045695 56,61 C56,59.8954305 55.1045695,59 54,59 C52.8954305,59 52,59.8954305 52,61 C52,62.1045695 52.8954305,63 54,63 Z"/>
</svg>
