<svg xmlns="http://www.w3.org/2000/svg" width="108" height="108" viewBox="0 0 108 108">
    <path fill="#000" fill-rule="evenodd" d="M54.182 43.728L27.364 70.546 21 64.182 54.182 31l33.182 33.182L81 70.546z"/>
</svg>
