<?xml version="1.0" encoding="UTF-8"?>
<svg width="108px" height="108px" viewBox="0 0 108 108" version="1.1" xmlns="http://www.w3.org/2000/svg" xmlns:xlink="http://www.w3.org/1999/xlink">
    <title>icons/icons-voluntariadoV2 Copy</title>
    <g id="icons/icons-voluntariadoV2-Copy" stroke="none" stroke-width="1" fill="none" fill-rule="evenodd">
        <path d="M41.339,16.3865 C35.273,16.3865 30.677,20.6855 30.445,26.6115 C30.208,32.6185 34.856,38.2825 38.375,42.0215 C42.783,46.7075 49.465,51.7875 54.454,54.8925 C59.288,51.6175 65.779,46.2645 70.032,41.3725 C73.398,37.4925 77.826,31.6355 77.357,25.6455 C76.916,20.0725 72.285,15.8705 66.586,15.8705 C66.302,15.8705 66.008,15.8755 65.729,15.8965 C62.231,16.1395 59.44,18.7225 58.081,20.2425 L53.879,24.9355 L49.495,20.4125 C48.077,18.9545 45.186,16.4865 41.735,16.3865 L41.339,16.3865 Z M53.11,60.9295 C47.822,57.8775 39.634,51.9255 34.099,46.0445 C29.858,41.5365 24.256,34.5935 24.582,26.3825 C24.937,17.3375 32.153,10.5175 41.368,10.5175 L41.902,10.5205 C47.276,10.6755 51.411,13.9565 53.709,16.3275 C55.913,13.8655 59.91,10.4175 65.245,10.0475 C65.685,10.0125 66.14,10.0005 66.586,10.0005 C75.379,10.0005 82.525,16.5275 83.208,25.1875 C83.845,33.3695 78.522,40.5425 74.46,45.2255 C69.139,51.3475 61.195,57.6165 56.062,60.8565 C55.587,61.1495 55.053,61.2995 54.519,61.2995 C54.032,61.2995 53.547,61.1755 53.11,60.9295 L53.11,60.9295 Z M88.229,61.3455 C91.691,64.7795 91.691,70.3555 88.229,73.7885 L64.898,97.1485 C64.34,97.6775 63.636,98.0005 62.814,98.0005 L50.253,98.0005 L17,98.0005 L17,92.1305 L48.314,92.1305 L54.215,92.1305 L61.581,92.1305 L65.719,87.9925 L66.157,87.5815 L84.091,69.6505 C85.232,68.5065 85.232,66.6285 84.091,65.4835 C83.328,64.7495 82.477,64.6325 82.007,64.6325 C81.564,64.6325 80.686,64.7495 79.953,65.4835 L70.033,75.4025 C69.769,73.1725 68.948,71.1185 67.774,69.3575 L75.785,61.3455 C77.517,59.6145 79.747,58.7635 82.007,58.7635 C84.264,58.7635 86.526,59.6145 88.229,61.3455 L88.229,61.3455 Z M30.334,68.6555 C22.572,68.6555 17.785,73.6205 17.01,74.4515 L17.01,66.8065 C18.9,65.5645 23.678,62.7945 30.313,62.7945 L30.343,62.7945 C38.815,62.8035 44.526,67.3285 46.081,68.6525 L55.543,68.6555 C60.373,68.6555 64.347,72.6285 64.347,77.4595 C64.347,82.2865 60.373,86.2635 55.543,86.2635 L30.284,86.2635 L30.284,80.3875 L55.546,80.3875 C57.166,80.3875 58.492,79.0525 58.486,77.4475 C58.481,75.8505 57.169,74.5305 55.564,74.5245 L43.722,74.5245 C42.956,73.6905 38.164,68.6665 30.36,68.6555 L30.334,68.6555 Z" id="Fill-1" fill="#000000"></path>
    </g>
</svg>