<svg xmlns="http://www.w3.org/2000/svg" width="108" height="108" viewBox="0 0 108 108">
    <path fill="#000" fill-rule="evenodd" d="M70.932 72.344l-29.58-17.202c0-.46.225-.916.225-1.149 0-.228 0-.916-.224-1.148l29.579-17.198c1.807 1.376 4.288 2.292 6.773 2.292 6.32 0 11.29-5.044 11.29-11.47C88.996 20.05 84.03 15 77.706 15c-6.32 0-11.29 5.045-11.29 11.47 0 .46 0 .688.224 1.148L37.064 44.825c-1.808-1.376-4.064-2.292-6.773-2.292-6.32 0-11.291 5.044-11.291 11.47 0 6.42 4.966 11.469 11.29 11.469 2.486 0 4.742-.916 6.774-2.292l29.58 17.202c0 .46-.225.688-.225 1.148 0 6.421 4.966 11.47 11.29 11.47C84.03 93 89 87.955 89 81.53c-.004-6.429-4.974-11.478-11.295-11.478-2.485 0-4.741.916-6.773 2.292z"/>
</svg>
