{
  "applications": {
    "actualTransport": "Current Transport",
    "bikeConventional": "Conventional",
    "bikeElectric": "Electric",
    "bikeOther": "I'm available for another bike typologie if my preference isn't available?",
    "bikeRequested": "Request Bike",
    "bikeRequestedDesc": "Bike typology",
    "bikeRequestedType": "What kind of bike do you need?",
    "continue": "Submit",
    "dailyCommute": "Daily commute",
    "dailyCommuteDesc": "Daily transport currently used for conveyance between residence and institute",
    "dailyKms": "Daily Miles",
    "dailyKmsDesc": "Number of daily kilometers traveled between residence and institute",
    "endDate": "End Date",
    "endDateDesc": "Register the date when the UBike bike usage shall end",
    "error": "You must fill all fields!",
    "height": "Height",
    "meters": "Meters",
    "physicalStature": "Physical stature",
    "physicalStatureDesc": "This information is for estimating the calories expended on cycling",
    "startDate": "Start Date",
    "startDateDesc": "Register the date to start using the UBike bike",
    "terms": "Terms of Service",
    "termsDesc": "I declare that I have become aware of the Terms of Service",
    "title": "UBike Application",
    "weight": "Approximate weight",
    "onFoot": "On foot",
    "car": {
      "car": "Car",
      "motorcycle": "Motorcycle",
      "brand": "Brand",
      "train": "Train",
      "bike": "Bike",
      "brandDesc": "Enter the vehicle brand",
      "fuel": "Fuel",
      "fuelDesc": "Daily Transport Fuel (if you use a personal motor vehicle)",
      "hp": "Horse Power",
      "model": "model",
      "modelDesc": "Enter the vehicle model",
      "power": "power",
      "powerDesc": "Enter the vehicle power",
      "year": "Year of Registration",
      "yearDesc": "Enter the vehicle registration year"
    },
    "fuel": {
      "diesel": "Diesel",
      "electric": "Electric",
      "gasoline": "Gasoline"
    }
  }
}
