{
  "dashboard": {
    "news": {
      "title": "News",
      "subtitle": "News"
    },
    "meals": {
      "title": "Meals",
      "lunch": "Today's Lunch",
      "dinner": "Today's Dinner",
      "your_tickets": "Your Tickets",
      "no_tickets": "You do not have Tickets",
      "buy": "Buy"
    },
    "account": {
      "title": "My Account",
      "subtitle": "Available Balance(s)"
    },
    "mobility": {
      "title": "Mobility",
      "subtitle": "Schedules and Tickets",
      "only_go": "Only Go",
      "monthly_ticket": "Monthly Ticket",
      "origin": "Origin",
      "destination": "Destination",
      "date": "Date of Departure"
    },
    "ubike": {
      "title": "Ubike",
      "subtitle": "Already have your bike?",
      "terms": "Check the conditions of this service and join today."
    },
    "movements": "Movements",
    "see_more": "See more",
    "no_content": "No content",
    "cancelTicket": "Cancel ticket"
  }
}
