{
  "PRODUCT": {
    "LIST": {
      "DETAIL": {
        "ALLERGENS": "Contains Allergens",
        "BUY": "Buy",
        "NOT-AVAILABLE": "Not available",
        "NOT-EXIST": "Sold off",
        "STOCK": "N/Stock",
        "DINNER": "Dinner",
        "LUNCH": "Lunch"
      }
    }
  },
  "MODAL": {
    "ERROR": "You cannot perform this operation without being authenticated"
  }
}
